…
```
## Parsed with column specification:
## cols(
##   year = col_double(),
##   hours = col_double()
## )
```

```r
plugged
```

```
## # A tibble: 30 x 2
##     year hours
##    <dbl> <dbl>
##  1  1999     4
##  2  1999     5
##  3  1999     7
##  4  1999     7
##  5  1999     5
##  6  1999     7
##  7  1999     5
##  8  1999     6
##  9  1999     5
## 10  1999     6
## # ... with 20 more rows
```
…
```
## Warning: package 'readxl' was built under R
## version 3.5.2
```

```r
parking <- read_excel("parking.xlsx", sheet = 2)
parking
```

```
## # A tibble: 93 x 2
##    distance gender
##       <dbl> <chr> 
##  1      0.5 male  
##  2      1   male  
##  3      1.5 male  
##  4      1.5 male  
##  5      1.5 male  
##  6      3   male  
##  7      3.5 male  
##  8      5   male  
##  9      6   male  
## 10      6   male  
## # ... with 83 more rows
```
…
```
## Parsed with column specification:
## cols(
##   distance = col_double(),
##   gender = col_character()
## )
```

```r
parking2
```

```
## # A tibble: 93 x 2
##    distance gender
##       <dbl> <chr> 
##  1      0.5 male  
##  2      1   male  
##  3      1.5 male  
##  4      1.5 male  
##  5      1.5 male  
##  6      3   male  
##  7      3.5 male  
##  8      5   male  
##  9      6   male  
## 10      6   male  
## # ... with 83 more rows
```
…
```
## Parsed with column specification:
## cols(
##   field = col_character(),
##   water = col_double()
## )
```

```r
pepper
```

```
## # A tibble: 30 x 2
##    field water
##    <chr> <dbl>
##  1 a      10.2
##  2 a      10.7
##  3 a      15.5
##  4 a      10.4
##  5 a       9.9
##  6 a      10  
##  7 a      16.6
##  8 a      15.1
##  9 a      15.2
## 10 a      13.8
## # ... with 20 more rows
```
…
```
## Parsed with column specification:
## cols(
##   sect = col_character(),
##   height = col_double()
## )
```

```r
diet
```

```
## # A tibble: 21 x 2
##    sect  height
##    <chr>  <dbl>
##  1 a        140
##  2 a        140
##  3 a        140
##  4 a        143
##  5 a        135
##  6 a        144
##  7 a        156
##  8 a        149
##  9 a        146
## 10 a        148
## # ... with 11 more rows
```
…
