…
```
## Parsed with column specification:
## cols(
##   Grain.size = col_double(),
##   Spiders = col_character()
## )
```

```r
spider
```

```
## # A tibble: 28 x 2
##    Grain.size Spiders
##         <dbl> <chr>  
##  1      0.245 absent 
##  2      0.247 absent 
##  3      0.285 present
##  4      0.299 present
##  5      0.327 present
##  6      0.347 present
##  7      0.356 absent 
##  8      0.36  present
##  9      0.363 absent 
## 10      0.364 present
## # ... with 18 more rows
```
…
Solution


The presence or absence of spiders is our response. This is
actually text at the moment:

```r
spider
```

```
## # A tibble: 28 x 2
##    Grain.size Spiders
##         <dbl> <chr>  
##  1      0.245 absent 
##  2      0.247 absent 
##  3      0.285 present
##  4      0.299 present
##  5      0.327 present
##  6      0.347 present
##  7      0.356 absent 
##  8      0.36  present
##  9      0.363 absent 
## 10      0.364 present
## # ... with 18 more rows
```

     

so we need to make a factor version of it first. I'm going to live on
the edge and overwrite everything:


```r
spider = spider %>% mutate(Spiders=factor(Spiders))
spider
```

```
## # A tibble: 28 x 2
##    Grain.size Spiders
##         <dbl> <fct>  
##  1      0.245 absent 
##  2      0.247 absent 
##  3      0.285 present
##  4      0.299 present
##  5      0.327 present
##  6      0.347 present
##  7      0.356 absent 
##  8      0.36  present
##  9      0.363 absent 
## 10      0.364 present
## # ... with 18 more rows
```
…
```r
infect
```

```
## # A tibble: 81 x 4
##    infected   age weight sex   
##    <chr>    <int>  <int> <chr> 
##  1 absent       2      1 female
##  2 absent       9     13 female
##  3 present     15      2 female
##  4 absent      15     16 female
##  5 absent      18      2 female
##  6 absent      20      9 female
##  7 absent      26     13 female
##  8 present     42      6 female
##  9 absent      51      9 female
## 10 present     52      6 female
## # ... with 71 more rows
```
…
You can check a few more lines to
convince yourself:


```r
infect %>% print(n=20)
```

```
## # A tibble: 81 x 4
##    infected   age weight sex   
##    <chr>    <int>  <int> <chr> 
##  1 absent       2      1 female
##  2 absent       9     13 female
##  3 present     15      2 female
##  4 absent      15     16 female
##  5 absent      18      2 female
##  6 absent      20      9 female
##  7 absent      26     13 female
##  8 present     42      6 female
##  9 absent      51      9 female
## 10 present     52      6 female
## 11 present     59     12 female
## 12 absent      68     10 female
## 13 absent      72     15 female
## 14 present     73      1 female
## 15 absent      78     15 female
## 16 absent      80     16 female
## 17 present     82     14 female
## 18 present     91     12 female
## 19 present    105      5 female
## 20 present    114      8 female
## # ... with 61 more rows
```
…
Let's work out the residuals and plot them against our quantitative
explanatory variables. I think the best way to do this is
`augment` from `broom`, to create a data frame
containing the residuals alongside the original data:

```r
library(broom)
infect.1a = infect.1 %>% augment(infect) 
infect.1a %>% as_tibble()
```

```
## # A tibble: 81 x 11
##    infected   age weight sex   .fitted .se.fit .resid   .hat .sigma .cooksd
##  * <chr>    <int>  <int> <chr>   <dbl>   <dbl>  <dbl>  <dbl>  <dbl>   <dbl>
##  1 absent       2      1 fema…   0.407   0.763 -1.35  0.140   0.872 7.10e-2
##  2 absent       9     13 fema…  -2.24    0.791 -0.450 0.0544  0.886 1.62e-3
##  3 present     15      2 fema…   0.343   0.691  1.04  0.116   0.878 2.63e-2
##  4 absent      15     16 fema…  -2.85    0.896 -0.336 0.0416  0.887 6.57e-4
##  5 absent      18      2 fema…   0.381   0.682 -1.34  0.112   0.872 5.21e-2
##  6 absent      20      9 fema…  -1.19    0.616 -0.729 0.0678  0.883 5.94e-3
##  7 absent      26     13 fema…  -2.02    0.707 -0.498 0.0515  0.886 1.89e-3
##  8 present     42      6 fema…  -0.227   0.519  1.28  0.0664  0.874 2.39e-2
##  9 absent      51      9 fema…  -0.797   0.490 -0.863 0.0515  0.882 6.45e-3
## 10 present     52      6 fema…  -0.100   0.494  1.22  0.0609  0.876 1.91e-2
## # ... with 71 more rows, and 1 more variable: .std.resid <dbl>
```
…
```
## [1]  26.0  46.8  67.6  88.4 109.2 130.0
```

```r
infect.new=crossing(weight=weights,age=ages,sex=sexes)
infect.new
```

```
## # A tibble: 72 x 3
##    weight   age sex   
##     <dbl> <dbl> <chr> 
##  1      9  26   female
##  2      9  26   male  
##  3      9  46.8 female
##  4      9  46.8 male  
##  5      9  67.6 female
##  6      9  67.6 male  
##  7      9  88.4 female
##  8      9  88.4 male  
##  9      9 109.  female
## 10      9 109.  male  
## # ... with 62 more rows
```
…
```r
decide
```

```
## # A tibble: 315 x 5
##    decision idealism relativism gender scenario
##    <chr>       <dbl>      <dbl> <chr>  <chr>   
##  1 stop          8.2        5.1 Female cosmetic
##  2 continue      6.8        5.3 Male   cosmetic
##  3 continue      8.2        6   Female cosmetic
##  4 stop          7.4        6.2 Female cosmetic
##  5 continue      1.7        3.1 Female cosmetic
##  6 continue      5.6        7.7 Male   cosmetic
##  7 stop          7.2        6.7 Female cosmetic
##  8 stop          7.8        4   Male   cosmetic
##  9 stop          7.8        4.7 Female cosmetic
## 10 stop          8          7.6 Female cosmetic
## # ... with 305 more rows
```
…
```
## # A tibble: 315 x 7
##    decision idealism relatvsm gender idealism_LN relatvsm_LN scenario
##    <chr>       <dbl>    <dbl> <chr>        <dbl>       <dbl> <chr>   
##  1 stop          8.2      5.1 Female       2.10         1.63 cosmetic
##  2 continue      6.8      5.3 Male         1.92         1.67 cosmetic
##  3 continue      8.2      6   Female       2.10         1.79 cosmetic
##  4 stop          7.4      6.2 Female       2.00         1.82 cosmetic
##  5 continue      1.7      3.1 Female       0.531        1.13 cosmetic
##  6 continue      5.6      7.7 Male         1.72         2.04 cosmetic
##  7 stop          7.2      6.7 Female       1.97         1.90 cosmetic
##  8 stop          7.8      4   Male         2.05         1.39 cosmetic
##  9 stop          7.8      4.7 Female       2.05         1.55 cosmetic
## 10 stop          8        7.6 Female       2.08         2.03 cosmetic
## # ... with 305 more rows
```
…
