…
```
## See spec(...) for full column specifications.
```

```r
seabed
```

```
## # A tibble: 30 x 30
##       s1    s2    s3    s4    s5    s6    s7
##    <dbl> <dbl> <dbl> <dbl> <dbl> <dbl> <dbl>
##  1 0     0.457 0.296 0.467 0.477 0.522 0.455
##  2 0.457 0     0.481 0.556 0.348 0.229 0.415
##  3 0.296 0.481 0     0.467 0.508 0.522 0.491
##  4 0.467 0.556 0.467 0     0.786 0.692 0.870
##  5 0.477 0.348 0.508 0.786 0     0.419 0.212
##  6 0.522 0.229 0.522 0.692 0.419 0     0.509
##  7 0.455 0.415 0.491 0.870 0.212 0.509 0    
##  8 0.933 0.930 1     1     0.854 0.933 0.806
##  9 0.333 0.222 0.407 0.639 0.196 0.243 0.317
## 10 0.403 0.447 0.343 0.379 0.564 0.571 0.588
## # ... with 20 more rows, and 23 more
## #   variables: s8 <dbl>, s9 <dbl>,
## #   s10 <dbl>, s11 <dbl>, s12 <dbl>,
## #   s13 <dbl>, s14 <dbl>, s15 <dbl>,
## #   s16 <dbl>, s17 <dbl>, s18 <dbl>,
## #   s19 <dbl>, s20 <dbl>, s21 <dbl>,
## #   s22 <dbl>, s23 <dbl>, s24 <dbl>,
## #   s25 <dbl>, s26 <dbl>, s27 <dbl>,
## #   s28 <dbl>, s29 <dbl>, s30 <dbl>
```
…
```r
seabed.z
```

```
## # A tibble: 30 x 10
##    site      a     b     c     d     e depth
##    <chr> <dbl> <dbl> <dbl> <dbl> <dbl> <dbl>
##  1 s1        0     2     9    14     2    72
##  2 s2       26     4    13    11     0    75
##  3 s3        0    10     9     8     0    59
##  4 s4        0     0    15     3     0    64
##  5 s5       13     5     3    10     7    61
##  6 s6       31    21    13    16     5    94
##  7 s7        9     6     0    11     2    53
##  8 s8        2     0     0     0     1    61
##  9 s9       17     7    10    14     6    68
## 10 s10       0     5    26     9     0    69
## # ... with 20 more rows, and 3 more
## #   variables: pollution <dbl>, temp <dbl>,
## #   sediment <chr>
```
…
 

Next, we need to make all possible *pairs* of sites, which we
also know how to do:


```r
site_pairs <- crossing(site1 = sites, site2 = sites)
site_pairs
```

```
## # A tibble: 900 x 2
##    site1 site2
##    <chr> <chr>
##  1 s1    s1   
##  2 s1    s10  
##  3 s1    s11  
##  4 s1    s12  
##  5 s1    s13  
##  6 s1    s14  
##  7 s1    s15  
##  8 s1    s16  
##  9 s1    s17  
## 10 s1    s18  
## # ... with 890 more rows
```

 
Now, think about what to do in English first: "for each of the sites in `site1`, and for each of the sites in `site2`, taken in parallel, work out the Bray-Curtis distance."  This is, I hope,
making you think of `map`. Two details: the Bray-Curtis
distance is a (decimal) number, and we're for-eaching over two things in
parallel, so `map2_dbl`:

```r
bc <- site_pairs %>% mutate(bray_curtis = map2_dbl(site1, 
    site2, ~braycurtis.spec(seabed.z, .x, .y)))
bc
```

```
## # A tibble: 900 x 3
##    site1 site2 bray_curtis
##    <chr> <chr>       <dbl>
##  1 s1    s1          0    
##  2 s1    s10         0.403
##  3 s1    s11         0.357
##  4 s1    s12         0.375
##  5 s1    s13         0.577
##  6 s1    s14         0.633
##  7 s1    s15         0.208
##  8 s1    s16         0.857
##  9 s1    s17         1    
## 10 s1    s18         0.569
## # ... with 890 more rows
```
 

Remember that we have two "it"s to iterate over, so they get called
`.x` and `.y` rather than just `.`, so you can
tell them apart.

This is a "long" data frame, but for the cluster analysis, we need a wide one with sites in rows and columns, so let's create that:


```r
(bc2 <- bc %>% spread(site2, bray_curtis))
```

```
## # A tibble: 30 x 31
##    site1    s1   s10   s11   s12   s13   s14
##    <chr> <dbl> <dbl> <dbl> <dbl> <dbl> <dbl>
##  1 s1    0     0.403 0.357 0.375 0.577 0.633
##  2 s10   0.403 0     0.449 0.419 0.415 0.710
##  3 s11   0.357 0.449 0     0.463 0.481 0.765
##  4 s12   0.375 0.419 0.463 0     0.667 0.413
##  5 s13   0.577 0.415 0.481 0.667 0     1    
##  6 s14   0.633 0.710 0.765 0.413 1     0    
##  7 s15   0.208 0.424 0.491 0.342 0.608 0.458
##  8 s16   0.857 0.856 0.66  0.548 0.875 0.656
##  9 s17   1     1     1     0.860 1     0.692
## 10 s18   0.569 0.380 0.627 0.254 0.667 0.604
## # ... with 20 more rows, and 24 more
## #   variables: s15 <dbl>, s16 <dbl>,
## #   s17 <dbl>, s18 <dbl>, s19 <dbl>,
## #   s2 <dbl>, s20 <dbl>, s21 <dbl>,
## #   s22 <dbl>, s23 <dbl>, s24 <dbl>,
## #   s25 <dbl>, s26 <dbl>, s27 <dbl>,
## #   s28 <dbl>, s29 <dbl>, s3 <dbl>,
## #   s30 <dbl>, s4 <dbl>, s5 <dbl>, s6 <dbl>,
## #   s7 <dbl>, s8 <dbl>, s9 <dbl>
```
…
This is good to go into the cluster analysis (happening later).

There is a `tidyverse` way to do this also. It's actually a lot
like the loop way in its conception, but the coding looks
different. We start by making all combinations of the fruit names with
each other, which is `crossing`:


```r
combos <- crossing(fruit = fruit_names, other = fruit_names)
combos
```

```
## # A tibble: 36 x 2
##    fruit  other     
##    <chr>  <chr>     
##  1 Apple  Apple     
##  2 Apple  Banana    
##  3 Apple  Blueberry 
##  4 Apple  Orange    
##  5 Apple  Pear      
##  6 Apple  Strawberry
##  7 Banana Apple     
##  8 Banana Banana    
##  9 Banana Blueberry 
## 10 Banana Orange    
## # ... with 26 more rows
```
…
Now, we want to run this function for each of the pairs in
`combos`. The "for each" is `fruit` and `other`
in parallel, so it's `map2` rather than `map`. Also, the
dissimilarity is a whole number each time, so we need
`map2_int`. So we can do this:


```r
combos %>% mutate(dissim = map2_int(fruit, other, 
    dissim, fruit2))
```

```
## # A tibble: 36 x 3
##    fruit  other      dissim
##    <chr>  <chr>       <int>
##  1 Apple  Apple           0
##  2 Apple  Banana          3
##  3 Apple  Blueberry       3
##  4 Apple  Orange          1
##  5 Apple  Pear            2
##  6 Apple  Strawberry      3
##  7 Banana Apple           3
##  8 Banana Banana          0
##  9 Banana Blueberry       2
## 10 Banana Orange          2
## # ... with 26 more rows
```
…
```r
beer
```

```
## # A tibble: 32 x 11
##    student AnchorS  Bass Becks Corona GordonB
##    <chr>     <dbl> <dbl> <dbl>  <dbl>   <dbl>
##  1 S001          5     9     7      1       7
##  2 S008          7     5     6      8       8
##  3 S015          7     7     5      6       6
##  4 S022          7     7     5      2       5
##  5 S029          9     7     3      1       6
##  6 S036          7     6     4      3       7
##  7 S043          5     5     5      6       6
##  8 S050          5     3     1      5       5
##  9 S057          9     3     2      6       4
## 10 S064          2     6     6      5       6
## # ... with 22 more rows, and 5 more
## #   variables: Guinness <dbl>,
## #   Heineken <dbl>, PetesW <dbl>,
## #   SamAdams <dbl>, SierraN <dbl>
```
…
You knew I would have to investigate this, didn't you? Let's aim
for a scatterplot of all the ratings for the dark  beers,
against the ones for the light beers. 

Start with the data frame read in from the file:


```r
beer
```

```
## # A tibble: 32 x 11
##    student AnchorS  Bass Becks Corona GordonB
##    <chr>     <dbl> <dbl> <dbl>  <dbl>   <dbl>
##  1 S001          5     9     7      1       7
##  2 S008          7     5     6      8       8
##  3 S015          7     7     5      6       6
##  4 S022          7     7     5      2       5
##  5 S029          9     7     3      1       6
##  6 S036          7     6     4      3       7
##  7 S043          5     5     5      6       6
##  8 S050          5     3     1      5       5
##  9 S057          9     3     2      6       4
## 10 S064          2     6     6      5       6
## # ... with 22 more rows, and 5 more
## #   variables: Guinness <dbl>,
## #   Heineken <dbl>, PetesW <dbl>,
## #   SamAdams <dbl>, SierraN <dbl>
```
…
```r
swiss
```

```
## # A tibble: 200 x 7
##    length  left right bottom   top  diag
##     <dbl> <dbl> <dbl>  <dbl> <dbl> <dbl>
##  1   215.  131   131.    9     9.7  141 
##  2   215.  130.  130.    8.1   9.5  142.
##  3   215.  130.  130.    8.7   9.6  142.
##  4   215.  130.  130.    7.5  10.4  142 
##  5   215   130.  130.   10.4   7.7  142.
##  6   216.  131.  130.    9    10.1  141.
##  7   216.  130.  130.    7.9   9.6  142.
##  8   214.  130.  129.    7.2  10.7  142.
##  9   215.  129.  130.    8.2  11    142.
## 10   215.  130.  130.    9.2  10    141.
## # ... with 190 more rows, and 1 more
## #   variable: status <chr>
```
…
```r
cars
```

```
## # A tibble: 32 x 7
##    Carname   mpg  disp    hp  drat    wt
##    <chr>   <dbl> <dbl> <dbl> <dbl> <dbl>
##  1 Mazda ~  21    160    110  3.9   2.62
##  2 Mazda ~  21    160    110  3.9   2.88
##  3 Datsun~  22.8  108     93  3.85  2.32
##  4 Hornet~  21.4  258    110  3.08  3.22
##  5 Hornet~  18.7  360    175  3.15  3.44
##  6 Valiant  18.1  225    105  2.76  3.46
##  7 Duster~  14.3  360    245  3.21  3.57
##  8 Merc 2~  24.4  147.    62  3.69  3.19
##  9 Merc 2~  22.8  141.    95  3.92  3.15
## 10 Merc 2~  19.2  168.   123  3.92  3.44
## # ... with 22 more rows, and 1 more
## #   variable: qsec <dbl>
```
…
```r
decathlon0
```

```
## # A tibble: 24 x 11
##    name  x100m long.jump shot.put high.jump
##    <chr> <dbl>     <dbl>    <dbl>     <dbl>
##  1 Asht~  10.4      7.73     14.4      1.93
##  2 Dami~  10.4      7.39     14.2      2.05
##  3 Rico~  10.6      7.22     14.8      1.99
##  4 Miha~  10.7      7.51     13.4      1.96
##  5 Mich~  10.7      7.85     14.6      1.99
##  6 Carl~  10.8      7.54     14.5      1.96
##  7 Gunn~  10.8      7.8      14.7      2.14
##  8 Eelc~  10.8      7.65     14.1      2.02
##  9 Pasc~  11.0      7.19     15.9      1.99
## 10 Will~  11.0      7.44     13.9      2.05
## # ... with 14 more rows, and 6 more
## #   variables: x400m <dbl>, x110mh <dbl>,
## #   discus <dbl>, pole.vault <dbl>,
## #   javelin <dbl>, x1500m <dbl>
```
…
Another way that might work (and might keep the quantiles) is


```r
decathlon.tmp %>% map_df(~enframe(quantile(.)))
```

```
## # A tibble: 50 x 2
##    name  value
##    <chr> <dbl>
##  1 0%    10.4 
##  2 25%   10.8 
##  3 50%   11.0 
##  4 75%   11.2 
##  5 100%  11.4 
##  6 0%     6.62
##  7 25%    7.21
##  8 50%    7.37
##  9 75%    7.52
## 10 100%   7.85
## # ... with 40 more rows
```
…
All right, let's make the data frame long before taking quantiles,
since the Tidyverse likes that kind of thing better anyway. This is
the same kind of idea that you might have seen for plotting the
residuals against *all* the $x$-variables in a multiple regression:


```r
quantiles.long <- decathlon.tmp %>% gather(event, performance, everything()) %>% 
    nest(-event) %>% mutate(quantile = map(data, ~enframe(quantile(.$performance), 
    name = "quantile", value = "perf"))) %>% unnest(quantile)
quantiles.long
```

```
## # A tibble: 50 x 3
##    event     quantile  perf
##    <chr>     <chr>    <dbl>
##  1 x100m     0%       10.4 
##  2 x100m     25%      10.8 
##  3 x100m     50%      11.0 
##  4 x100m     75%      11.2 
##  5 x100m     100%     11.4 
##  6 long.jump 0%        6.62
##  7 long.jump 25%       7.21
##  8 long.jump 50%       7.37
##  9 long.jump 75%       7.52
## 10 long.jump 100%      7.85
## # ... with 40 more rows
```
…
