…
```r
jays
```

```
## # A tibble: 25 x 21
##      row  game date   box   team  venue opp   result  runs Oppruns innings wl   
##    <dbl> <dbl> <chr>  <chr> <chr> <lgl> <chr> <chr>  <dbl>   <dbl>   <dbl> <chr>
##  1    82     7 Monda… boxs… TOR   NA    TBR   L          1       2      NA 4-3  
##  2    83     8 Tuesd… boxs… TOR   NA    TBR   L          2       3      NA 4-4  
##  3    84     9 Wedne… boxs… TOR   NA    TBR   W         12       7      NA 5-4  
##  4    85    10 Thurs… boxs… TOR   NA    TBR   L          2       4      NA 5-5  
##  5    86    11 Frida… boxs… TOR   NA    ATL   L          7       8      NA 5-6  
##  6    87    12 Satur… boxs… TOR   NA    ATL   W-wo       6       5      10 6-6  
##  7    88    13 Sunda… boxs… TOR   NA    ATL   L          2       5      NA 6-7  
##  8    89    14 Tuesd… boxs… TOR   NA    BAL   W         13       6      NA 7-7  
##  9    90    15 Wedne… boxs… TOR   NA    BAL   W          4       2      NA 8-7  
## 10    91    16 Thurs… boxs… TOR   NA    BAL   W          7       6      NA 9-7  
## # … with 15 more rows, and 9 more variables: position <dbl>, gb <chr>,
## #   winner <chr>, loser <chr>, save <chr>, game time <time>, Daynight <chr>,
## #   attendance <dbl>, streak <chr>
```
…
```r
cars
```

```
## # A tibble: 38 x 6
##    car                  MPG weight cylinders    hp country
##    <chr>              <dbl>  <dbl>     <dbl> <dbl> <chr>  
##  1 Buick Skylark       28.4   2.67         4    90 U.S.   
##  2 Dodge Omni          30.9   2.23         4    75 U.S.   
##  3 Mercury Zephyr      20.8   3.07         6    85 U.S.   
##  4 Fiat Strada         37.3   2.13         4    69 Italy  
##  5 Peugeot 694 SL      16.2   3.41         6   133 France 
##  6 VW Rabbit           31.9   1.92         4    71 Germany
##  7 Plymouth Horizon    34.2   2.2          4    70 U.S.   
##  8 Mazda GLC           34.1   1.98         4    65 Japan  
##  9 Buick Estate Wagon  16.9   4.36         8   155 U.S.   
## 10 Audi 5000           20.3   2.83         5   103 Germany
## # … with 28 more rows
```

(b) Display only the car names and the countries they come from.


Solution




```r
cars %>% select(car, country)
```

```
## # A tibble: 38 x 2
##    car                country
##    <chr>              <chr>  
##  1 Buick Skylark      U.S.   
##  2 Dodge Omni         U.S.   
##  3 Mercury Zephyr     U.S.   
##  4 Fiat Strada        Italy  
##  5 Peugeot 694 SL     France 
##  6 VW Rabbit          Germany
##  7 Plymouth Horizon   U.S.   
##  8 Mazda GLC          Japan  
##  9 Buick Estate Wagon U.S.   
## 10 Audi 5000          Germany
## # … with 28 more rows
```

 

This *almost* works, but not quite:


```r
cars %>% select(starts_with("c"))
```

```
## # A tibble: 38 x 3
##    car                cylinders country
##    <chr>                  <dbl> <chr>  
##  1 Buick Skylark              4 U.S.   
##  2 Dodge Omni                 4 U.S.   
##  3 Mercury Zephyr             6 U.S.   
##  4 Fiat Strada                4 Italy  
##  5 Peugeot 694 SL             6 France 
##  6 VW Rabbit                  4 Germany
##  7 Plymouth Horizon           4 U.S.   
##  8 Mazda GLC                  4 Japan  
##  9 Buick Estate Wagon         8 U.S.   
## 10 Audi 5000                  5 Germany
## # … with 28 more rows
```
…
(c) Display everything *except* horsepower:


Solution


Naming what you *don't* want is sometimes easier:

```r
cars %>% select(-hp)
```

```
## # A tibble: 38 x 5
##    car                  MPG weight cylinders country
##    <chr>              <dbl>  <dbl>     <dbl> <chr>  
##  1 Buick Skylark       28.4   2.67         4 U.S.   
##  2 Dodge Omni          30.9   2.23         4 U.S.   
##  3 Mercury Zephyr      20.8   3.07         6 U.S.   
##  4 Fiat Strada         37.3   2.13         4 Italy  
##  5 Peugeot 694 SL      16.2   3.41         6 France 
##  6 VW Rabbit           31.9   1.92         4 Germany
##  7 Plymouth Horizon    34.2   2.2          4 U.S.   
##  8 Mazda GLC           34.1   1.98         4 Japan  
##  9 Buick Estate Wagon  16.9   4.36         8 U.S.   
## 10 Audi 5000           20.3   2.83         5 Germany
## # … with 28 more rows
```
…
