…
```r
mtcars
```


```
## # A tibble: 32 x 11
##      mpg   cyl  disp    hp  drat    wt  qsec
##  * <dbl> <dbl> <dbl> <dbl> <dbl> <dbl> <dbl>
##  1  21       6  160    110  3.9   2.62  16.5
##  2  21       6  160    110  3.9   2.88  17.0
##  3  22.8     4  108     93  3.85  2.32  18.6
##  4  21.4     6  258    110  3.08  3.22  19.4
##  5  18.7     8  360    175  3.15  3.44  17.0
##  6  18.1     6  225    105  2.76  3.46  20.2
##  7  14.3     8  360    245  3.21  3.57  15.8
##  8  24.4     4  147.    62  3.69  3.19  20  
##  9  22.8     4  141.    95  3.92  3.15  22.9
## 10  19.2     6  168.   123  3.92  3.44  18.3
## # ... with 22 more rows, and 4 more
## #   variables: vs <dbl>, am <dbl>,
## #   gear <dbl>, carb <dbl>
```
…
(d) Take a look at your data frame, by making a new code chunk and
putting the data frame's name in it (as we did with
`mtcars`). 

Solution



```r
rats
```

```
## # A tibble: 30 x 2
##    group   density
##    <chr>     <int>
##  1 Control     611
##  2 Control     621
##  3 Control     614
##  4 Control     593
##  5 Control     593
##  6 Control     653
##  7 Control     600
##  8 Control     554
##  9 Control     603
## 10 Control     569
## # ... with 20 more rows
```
…
Type the name of the data frame in a code chunk (a new one, or
add it to the end of the previous one). Because this is actually
a "tibble", which is what `read_delim` reads in,
you'll only actually see the first 10 lines, but it will tell
you how many lines there are altogether, and you can click on
the appropriate thing to see the rest of it.

```r
juice
```

```
## # A tibble: 24 x 3
##      run sweetness pectin
##    <int>     <dbl>  <int>
##  1     1       5.2    220
##  2     2       5.5    227
##  3     3       6      259
##  4     4       5.9    210
##  5     5       5.8    224
##  6     6       6      215
##  7     7       5.8    231
##  8     8       5.6    268
##  9     9       5.6    239
## 10    10       5.9    212
## # ... with 14 more rows
```
…
```r
soap
```

```
## # A tibble: 27 x 4
##     case scrap speed line 
##    <int> <int> <int> <chr>
##  1     1   218   100 a    
##  2     2   248   125 a    
##  3     3   360   220 a    
##  4     4   351   205 a    
##  5     5   470   300 a    
##  6     6   394   255 a    
##  7     7   332   225 a    
##  8     8   321   175 a    
##  9     9   410   270 a    
## 10    10   260   170 a    
## # ... with 17 more rows
```
…
This shows you which variables the data set has (some of the names got
a bit mangled), and it shows you that they are all integers except for
the birth weight (a decimal number).

The easiest way to find out how many rows and columns there are is
simply to list the data frame:


```r
bw
```

```
## # A tibble: 500 x 10
##    `Father Age` `Mother Age` `Weeks Gestatio~
##           <int>        <int>            <int>
##  1           27           26               38
##  2           35           33               40
##  3           34           22               37
##  4           NA           16               38
##  5           35           33               39
##  6           32           24               36
##  7           33           33               38
##  8           38           35               38
##  9           28           29               40
## 10           NA           19               34
## # ... with 490 more rows, and 7 more
## #   variables: `Pre-natal Visits` <int>,
## #   `Marital Status` <int>, `Mother Weight
## #   Gained` <int>, `Low Birthweight?` <int>,
## #   `Weight (pounds)` <dbl>,
## #   `Premie?` <int>, `Few Visits?` <int>
```
…
 

Ouch! A hint as to what went wrong comes from looking at the read-in
data frame:


```r
x
```

```
## # A tibble: 87 x 1
##    `Year\tJulianDate\tDate&Time`
##    <chr>                        
##  1 "1917\t120.4795\tApril"      
##  2 "1918\t131.3983\tMay"        
##  3 "1919\t123.6066\tMay"        
##  4 "1920\t132.4490\tMay"        
##  5 "1921\t131.2795\tMay"        
##  6 "1922\t132.5559\tMay"        
##  7 "1923\t129.0837\tMay"        
##  8 "1924\t132.6323\tMay"        
##  9 "1925\t127.7726\tMay"        
## 10 "1926\t116.6691\tApril"      
## # ... with 77 more rows
```

 

Those `t` symbols mean "tab character", which is our hint that
the values were separated by tabs rather than spaces.

More detail (if you can bear to see it) is here:


```r
problems(x)
```

```
## # A tibble: 87 x 5
##      row col   expected  actual file        
##    <int> <chr> <chr>     <chr>  <chr>       
##  1     1 <NA>  1 columns 5 col~ 'http://www~
##  2     2 <NA>  1 columns 5 col~ 'http://www~
##  3     3 <NA>  1 columns 5 col~ 'http://www~
##  4     4 <NA>  1 columns 5 col~ 'http://www~
##  5     5 <NA>  1 columns 5 col~ 'http://www~
##  6     6 <NA>  1 columns 5 col~ 'http://www~
##  7     7 <NA>  1 columns 5 col~ 'http://www~
##  8     8 <NA>  1 columns 5 col~ 'http://www~
##  9     9 <NA>  1 columns 5 col~ 'http://www~
## 10    10 <NA>  1 columns 5 col~ 'http://www~
## # ... with 77 more rows
```
…
Solution


The easiest is just to display the tibble:

```r
nenana
```

```
## # A tibble: 87 x 3
##     Year JulianDate `Date&Time`         
##    <int>      <dbl> <chr>               
##  1  1917       120. April 30 at 11:30 AM
##  2  1918       131. May 11 at 9:33 AM   
##  3  1919       124. May 3 at 2:33 PM    
##  4  1920       132. May 11 at 10:46 AM  
##  5  1921       131. May 11 at 6:42 AM   
##  6  1922       133. May 12 at 1:20 PM   
##  7  1923       129. May 9 at 2:00 AM    
##  8  1924       133. May 11 at 3:10 PM   
##  9  1925       128. May 7 at 6:32 PM    
## 10  1926       117. April 26 at 4:03 PM 
## # ... with 77 more rows
```
…
```
## The following object is masked from 'package:base':
## 
##     date
```

```r
nenana %>% mutate(longdt = str_c(Year, " ", `Date&Time`)) %>% 
    mutate(datetime = ymd_hm(longdt, tz = "America/Anchorage"))
```

```
## # A tibble: 87 x 5
##     Year JulianDate `Date&Time` longdt
##    <int>      <dbl> <chr>       <chr> 
##  1  1917       120. April 30 a~ 1917 ~
##  2  1918       131. May 11 at ~ 1918 ~
##  3  1919       124. May 3 at 2~ 1919 ~
##  4  1920       132. May 11 at ~ 1920 ~
##  5  1921       131. May 11 at ~ 1921 ~
##  6  1922       133. May 12 at ~ 1922 ~
##  7  1923       129. May 9 at 2~ 1923 ~
##  8  1924       133. May 11 at ~ 1924 ~
##  9  1925       128. May 7 at 6~ 1925 ~
## 10  1926       117. April 26 a~ 1926 ~
## # ... with 77 more rows, and 1 more
## #   variable: datetime <dttm>
```
…
I have to do a preliminary step to get the date-times *with* their year in one place. `str_c` glues pieces of text together: in this case, the year, a space, and then the rest of the 
`Date&Time`. I stored this in `longdt`. The second `mutate` is the business end of it: `ymd_hm` takes a piece of text containing a year, month (by name or number), day, hours, minutes *in that order*, and extracts those things from it, storing the whole thing as an R date-time. Note that the AM/PM was handled properly.
The benefit of doing that is we can extract anything from the dates, such as the month or day of week, or take differences between the dates. Or even check that the Julian dates were calculated correctly (the `lubridate` function is called `yday` for "day of year"):


```r
nenana2 <- nenana %>% mutate(longdt = str_c(Year, 
    " ", `Date&Time`)) %>% mutate(datetime = ymd_hm(longdt, 
    tz = "America/Anchorage")) %>% mutate(jd = yday(datetime))
nenana2 %>% select(JulianDate, jd, datetime)
```

```
## # A tibble: 87 x 3
##    JulianDate    jd datetime           
##         <dbl> <dbl> <dttm>             
##  1       120.   120 1917-04-30 11:30:00
##  2       131.   131 1918-05-11 09:33:00
##  3       124.   123 1919-05-03 14:33:00
##  4       132.   132 1920-05-11 10:46:00
##  5       131.   131 1921-05-11 06:42:00
##  6       133.   132 1922-05-12 13:20:00
##  7       129.   129 1923-05-09 02:00:00
##  8       133.   132 1924-05-11 15:10:00
##  9       128.   127 1925-05-07 18:32:00
## 10       117.   116 1926-04-26 16:03:00
## # ... with 77 more rows
```

 

Hmm, some of those are off by one. What do the off-by-one ones have in common? Let's look at more of them. `round` 
rounds off to the nearest integer (since these are actually decimal numbers):


```r
nenana2 %>% filter(round(JulianDate) != round(jd)) %>% 
    select(JulianDate, jd, datetime)
```

```
## # A tibble: 61 x 3
##    JulianDate    jd datetime           
##         <dbl> <dbl> <dttm>             
##  1       124.   123 1919-05-03 14:33:00
##  2       133.   132 1922-05-12 13:20:00
##  3       133.   132 1924-05-11 15:10:00
##  4       128.   127 1925-05-07 18:32:00
##  5       117.   116 1926-04-26 16:03:00
##  6       128.   127 1928-05-06 16:25:00
##  7       126.   125 1929-05-05 15:41:00
##  8       129.   128 1930-05-08 19:03:00
##  9       129.   128 1933-05-08 19:30:00
## 10       121.   120 1934-04-30 14:07:00
## # ... with 51 more rows
```
…
```r
options(pillar.sigfig = 6)
nenana2 %>% filter(round(JulianDate) != round(jd)) %>% 
    select(JulianDate, jd, datetime)
```

```
## # A tibble: 61 x 3
##    JulianDate    jd datetime           
##         <dbl> <dbl> <dttm>             
##  1    123.607   123 1919-05-03 14:33:00
##  2    132.556   132 1922-05-12 13:20:00
##  3    132.632   132 1924-05-11 15:10:00
##  4    127.773   127 1925-05-07 18:32:00
##  5    116.669   116 1926-04-26 16:03:00
##  6    127.684   127 1928-05-06 16:25:00
##  7    125.654   125 1929-05-05 15:41:00
##  8    128.794   128 1930-05-08 19:03:00
##  9    128.813   128 1933-05-08 19:30:00
## 10    120.588   120 1934-04-30 14:07:00
## # ... with 51 more rows
```
…
```
## Parsed with column specification:
## cols(
##   gender = col_character(),
##   CAS = col_double(),
##   CARS = col_double()
## )
```

```r
anxiety
```

```
## # A tibble: 35 x 3
##    gender   CAS  CARS
##    <chr>  <dbl> <dbl>
##  1 female  2.85  2.9 
##  2 male    2.6   2.32
##  3 female  2.2   1   
##  4 male    2.65  2.58
##  5 male    2.6   2.58
##  6 male    3.2   3.05
##  7 male    3.65  3.74
##  8 female  2.55  1.9 
##  9 male    3.15  3.32
## 10 male    2.8   2.74
## # ... with 25 more rows
```
…
```
## Parsed with column specification:
## cols(
##   year = col_integer(),
##   hours = col_integer()
## )
```

```r
plugged
```

```
## # A tibble: 30 x 2
##     year hours
##    <int> <int>
##  1  1999     4
##  2  1999     5
##  3  1999     7
##  4  1999     7
##  5  1999     5
##  6  1999     7
##  7  1999     5
##  8  1999     6
##  9  1999     5
## 10  1999     6
## # ... with 20 more rows
```
…
         

When you've gotten the spreadsheet into your project folder via one of
those two ways, you go ahead and do this:      

```r
library(readxl)
parking = read_excel("parking.xlsx", sheet = 2)
parking
```

```
## # A tibble: 93 x 2
##    distance gender
##       <dbl> <chr> 
##  1      0.5 male  
##  2      1   male  
##  3      1.5 male  
##  4      1.5 male  
##  5      1.5 male  
##  6      3   male  
##  7      3.5 male  
##  8      5   male  
##  9      6   male  
## 10      6   male  
## # ... with 83 more rows
```
…
```
## Parsed with column specification:
## cols(
##   distance = col_double(),
##   gender = col_character()
## )
```

```r
parking2
```

```
## # A tibble: 93 x 2
##    distance gender
##       <dbl> <chr> 
##  1      0.5 male  
##  2      1   male  
##  3      1.5 male  
##  4      1.5 male  
##  5      1.5 male  
##  6      3   male  
##  7      3.5 male  
##  8      5   male  
##  9      6   male  
## 10      6   male  
## # ... with 83 more rows
```
…
```
## Parsed with column specification:
## cols(
##   time = col_double()
## )
```

```r
times
```

```
## # A tibble: 21 x 1
##     time
##    <dbl>
##  1  38.4
##  2  46.2
##  3  62.5
##  4  38  
##  5  62.8
##  6  33.9
##  7  50.4
##  8  35  
##  9  52.8
## 10  60.1
## # ... with 11 more rows
```
…
```
## Parsed with column specification:
## cols(
##   who = col_character(),
##   sugar = col_double()
## )
```

```r
cereals
```

```
## # A tibble: 40 x 2
##    who      sugar
##    <chr>    <dbl>
##  1 children  40.3
##  2 children  55  
##  3 children  45.7
##  4 children  43.3
##  5 children  50.3
##  6 children  45.9
##  7 children  53.5
##  8 children  43  
##  9 children  44.2
## 10 children  44  
## # ... with 30 more rows
```
…
```
## Parsed with column specification:
## cols(
##   student = col_integer(),
##   baseball = col_integer(),
##   softball = col_integer()
## )
```

```r
throws
```

```
## # A tibble: 24 x 3
##    student baseball softball
##      <int>    <int>    <int>
##  1       1       65       57
##  2       2       90       58
##  3       3       75       66
##  4       4       73       61
##  5       5       79       65
##  6       6       68       56
##  7       7       58       53
##  8       8       41       41
##  9       9       56       44
## 10      10       70       65
## # ... with 14 more rows
```
…
```
## Parsed with column specification:
## cols(
##   student = col_integer(),
##   baseball = col_integer(),
##   softball = col_integer()
## )
```

```r
throws
```

```
## # A tibble: 24 x 4
##    student baseball softball  diff
##      <int>    <int>    <int> <int>
##  1       1       65       57     8
##  2       2       90       58    32
##  3       3       75       66     9
##  4       4       73       61    12
##  5       5       79       65    14
##  6       6       68       56    12
##  7       7       58       53     5
##  8       8       41       41     0
##  9       9       56       44    12
## 10      10       70       65     5
## # ... with 14 more rows
```
…
```r
heliconia.long = heliconia %>% gather(variety, 
    length, bihai:caribaea_yellow, na.rm = T)
heliconia.long
```

```
## # A tibble: 54 x 2
##    variety length
##  * <chr>    <dbl>
##  1 bihai     47.1
##  2 bihai     46.8
##  3 bihai     46.8
##  4 bihai     47.1
##  5 bihai     46.7
##  6 bihai     47.4
##  7 bihai     46.4
##  8 bihai     46.6
##  9 bihai     48.1
## 10 bihai     48.3
## # ... with 44 more rows
```
…
```r
athletes
```

```
## # A tibble: 202 x 13
##    Sex   Sport   RCC   WCC    Hc    Hg  Ferr
##    <chr> <chr> <dbl> <dbl> <dbl> <dbl> <int>
##  1 fema~ Netb~  4.56  13.3  42.2  13.6    20
##  2 fema~ Netb~  4.15   6    38    12.7    59
##  3 fema~ Netb~  4.16   7.6  37.5  12.3    22
##  4 fema~ Netb~  4.32   6.4  37.7  12.3    30
##  5 fema~ Netb~  4.06   5.8  38.7  12.8    78
##  6 fema~ Netb~  4.12   6.1  36.6  11.8    21
##  7 fema~ Netb~  4.17   5    37.4  12.7   109
##  8 fema~ Netb~  3.8    6.6  36.5  12.4   102
##  9 fema~ Netb~  3.96   5.5  36.3  12.4    71
## 10 fema~ Netb~  4.44   9.7  41.4  14.1    64
## # ... with 192 more rows, and 6 more
## #   variables: BMI <dbl>, SSF <dbl>,
## #   `%Bfat` <dbl>, LBM <dbl>, Ht <dbl>,
## #   Wt <dbl>
```
…
```
## Parsed with column specification:
## cols(
##   length = col_integer(),
##   rating = col_character()
## )
```

```r
movies
```

```
## # A tibble: 60 x 2
##    length rating
##     <int> <chr> 
##  1     25 G     
##  2     75 G     
##  3     88 G     
##  4     63 G     
##  5     76 G     
##  6     97 G     
##  7     68 G     
##  8     82 G     
##  9     98 G     
## 10     74 G     
## # ... with 50 more rows
```
…
```
## Parsed with column specification:
## cols(
##   length = col_integer(),
##   rating = col_character()
## )
```

```r
movies
```

```
## # A tibble: 60 x 2
##    length rating
##     <int> <chr> 
##  1     25 G     
##  2     75 G     
##  3     88 G     
##  4     63 G     
##  5     76 G     
##  6     97 G     
##  7     68 G     
##  8     82 G     
##  9     98 G     
## 10     74 G     
## # ... with 50 more rows
```
…
```
## See spec(...) for full column specifications.
```

```r
jays
```

```
## # A tibble: 25 x 21
##      row  game date  box   team  venue opp  
##    <int> <int> <chr> <chr> <chr> <chr> <chr>
##  1    82     7 Mond~ boxs~ TOR   <NA>  TBR  
##  2    83     8 Tues~ boxs~ TOR   <NA>  TBR  
##  3    84     9 Wedn~ boxs~ TOR   <NA>  TBR  
##  4    85    10 Thur~ boxs~ TOR   <NA>  TBR  
##  5    86    11 Frid~ boxs~ TOR   <NA>  ATL  
##  6    87    12 Satu~ boxs~ TOR   <NA>  ATL  
##  7    88    13 Sund~ boxs~ TOR   <NA>  ATL  
##  8    89    14 Tues~ boxs~ TOR   <NA>  BAL  
##  9    90    15 Wedn~ boxs~ TOR   <NA>  BAL  
## 10    91    16 Thur~ boxs~ TOR   <NA>  BAL  
## # ... with 15 more rows, and 14 more
## #   variables: result <chr>, runs <int>,
## #   Oppruns <int>, innings <int>, wl <chr>,
## #   position <int>, gb <chr>, winner <chr>,
## #   loser <chr>, save <chr>, `game
## #   time` <time>, Daynight <chr>,
## #   attendance <int>, streak <chr>
```
…
```
## Parsed with column specification:
## cols(
##   student = col_integer(),
##   baseball = col_integer(),
##   softball = col_integer()
## )
```

```r
throws
```

```
## # A tibble: 24 x 3
##    student baseball softball
##      <int>    <int>    <int>
##  1       1       65       57
##  2       2       90       58
##  3       3       75       66
##  4       4       73       61
##  5       5       79       65
##  6       6       68       56
##  7       7       58       53
##  8       8       41       41
##  9       9       56       44
## 10      10       70       65
## # ... with 14 more rows
```
…
Solution


Feed `student` into `factor`, creating a new
column with `mutate`:

```r
throws %>% mutate(fs = factor(student))
```

```
## # A tibble: 24 x 4
##    student baseball softball fs   
##      <int>    <int>    <int> <fct>
##  1       1       65       57 1    
##  2       2       90       58 2    
##  3       3       75       66 3    
##  4       4       73       61 4    
##  5       5       79       65 5    
##  6       6       68       56 6    
##  7       7       58       53 7    
##  8       8       41       41 8    
##  9       9       56       44 9    
## 10      10       70       65 10   
## # ... with 14 more rows
```
…
Solution


Literally `gather` (from `tidyr`):

```r
throws %>% mutate(fs = factor(student)) %>% gather(ball, 
    distance, baseball:softball)
```

```
## # A tibble: 48 x 4
##    student fs    ball     distance
##      <int> <fct> <chr>       <int>
##  1       1 1     baseball       65
##  2       2 2     baseball       90
##  3       3 3     baseball       75
##  4       4 4     baseball       73
##  5       5 5     baseball       79
##  6       6 6     baseball       68
##  7       7 7     baseball       58
##  8       8 8     baseball       41
##  9       9 9     baseball       56
## 10      10 10    baseball       70
## # ... with 38 more rows
```
Two columns to include, consecutive ones, or two to omit, the first
and last. So I think it's
easier to name the ones you want to include. 

If you want to show off a little, you can use a select-helper, noting
that the columns you want to gather up all end in "ball":


```r
throws %>% mutate(fs = factor(student)) %>% gather(ball, 
    distance, ends_with("ball"))
```

```
## # A tibble: 48 x 4
##    student fs    ball     distance
##      <int> <fct> <chr>       <int>
##  1       1 1     baseball       65
##  2       2 2     baseball       90
##  3       3 3     baseball       75
##  4       4 4     baseball       73
##  5       5 5     baseball       79
##  6       6 6     baseball       68
##  7       7 7     baseball       58
##  8       8 8     baseball       41
##  9       9 9     baseball       56
## 10      10 10    baseball       70
## # ... with 38 more rows
```
…
Solution


This is a job for `gather`:

```r
toms2 = toms1 %>% gather(colour, growthrate, blue:green)
toms2
```

```
## # A tibble: 32 x 3
##    plant colour growthrate
##    <int> <chr>       <dbl>
##  1     1 blue         5.34
##  2     2 blue         7.45
##  3     3 blue         7.15
##  4     4 blue         5.53
##  5     5 blue         6.34
##  6     6 blue         7.16
##  7     7 blue         7.77
##  8     8 blue         5.09
##  9     1 red         13.7 
## 10     2 red         13.0 
## # ... with 22 more rows
```
…
