…
```r
mtcars
```


```
## # A tibble: 32 x 11
##      mpg   cyl  disp    hp  drat    wt  qsec
##  * <dbl> <dbl> <dbl> <dbl> <dbl> <dbl> <dbl>
##  1  21       6  160    110  3.9   2.62  16.5
##  2  21       6  160    110  3.9   2.88  17.0
##  3  22.8     4  108     93  3.85  2.32  18.6
##  4  21.4     6  258    110  3.08  3.22  19.4
##  5  18.7     8  360    175  3.15  3.44  17.0
##  6  18.1     6  225    105  2.76  3.46  20.2
##  7  14.3     8  360    245  3.21  3.57  15.8
##  8  24.4     4  147.    62  3.69  3.19  20  
##  9  22.8     4  141.    95  3.92  3.15  22.9
## 10  19.2     6  168.   123  3.92  3.44  18.3
## # ... with 22 more rows, and 4 more
## #   variables: vs <dbl>, am <dbl>,
## #   gear <dbl>, carb <dbl>
```
…
(d) Take a look at your data frame, by making a new code chunk and
putting the data frame's name in it (as we did with
`mtcars`). 

Solution



```r
rats
```

```
## # A tibble: 30 x 2
##    group   density
##    <chr>     <int>
##  1 Control     611
##  2 Control     621
##  3 Control     614
##  4 Control     593
##  5 Control     593
##  6 Control     653
##  7 Control     600
##  8 Control     554
##  9 Control     603
## 10 Control     569
## # ... with 20 more rows
```
…
