…
Type the name of the data frame in a code chunk (a new one, or
add it to the end of the previous one). Because this is actually
a "tibble", which is what `read_delim` reads in,
you'll only actually see the first 10 lines, but it will tell
you how many lines there are altogether, and you can click on
the appropriate thing to see the rest of it.

```r
juice
```

```
## # A tibble: 24 x 3
##      run sweetness pectin
##    <dbl>     <dbl>  <dbl>
##  1     1       5.2    220
##  2     2       5.5    227
##  3     3       6      259
##  4     4       5.9    210
##  5     5       5.8    224
##  6     6       6      215
##  7     7       5.8    231
##  8     8       5.6    268
##  9     9       5.6    239
## 10    10       5.9    212
## # … with 14 more rows
```
…
```r
soap
```

```
## # A tibble: 27 x 4
##     case scrap speed line 
##    <dbl> <dbl> <dbl> <chr>
##  1     1   218   100 a    
##  2     2   248   125 a    
##  3     3   360   220 a    
##  4     4   351   205 a    
##  5     5   470   300 a    
##  6     6   394   255 a    
##  7     7   332   225 a    
##  8     8   321   175 a    
##  9     9   410   270 a    
## 10    10   260   170 a    
## # … with 17 more rows
```
…
