…
```
## Parsed with column specification:
## cols(
##   year = col_integer(),
##   hours = col_integer()
## )
```

```r
plugged
```

```
## # A tibble: 30 x 2
##     year hours
##    <int> <int>
##  1  1999     4
##  2  1999     5
##  3  1999     7
##  4  1999     7
##  5  1999     5
##  6  1999     7
##  7  1999     5
##  8  1999     6
##  9  1999     5
## 10  1999     6
## # ... with 20 more rows
```
…
When you've gotten the spreadsheet into your project folder via one of
those two ways, you go ahead and do this:      

```r
library(readxl)
parking=read_excel("parking.xlsx",sheet=2)
parking
```

```
## # A tibble: 93 x 2
##    distance gender
##       <dbl> <chr> 
##  1      0.5 male  
##  2      1   male  
##  3      1.5 male  
##  4      1.5 male  
##  5      1.5 male  
##  6      3   male  
##  7      3.5 male  
##  8      5   male  
##  9      6   male  
## 10      6   male  
## # ... with 83 more rows
```
…
```
## Parsed with column specification:
## cols(
##   distance = col_double(),
##   gender = col_character()
## )
```

```r
parking2
```

```
## # A tibble: 93 x 2
##    distance gender
##       <dbl> <chr> 
##  1      0.5 male  
##  2      1   male  
##  3      1.5 male  
##  4      1.5 male  
##  5      1.5 male  
##  6      3   male  
##  7      3.5 male  
##  8      5   male  
##  9      6   male  
## 10      6   male  
## # ... with 83 more rows
```
…
