…
```
## Parsed with column specification:
## cols(
##   length = col_double(),
##   rating = col_character()
## )
```

```r
movies
```

```
## # A tibble: 60 x 2
##    length rating
##     <dbl> <chr> 
##  1     25 G     
##  2     75 G     
##  3     88 G     
##  4     63 G     
##  5     76 G     
##  6     97 G     
##  7     68 G     
##  8     82 G     
##  9     98 G     
## 10     74 G     
## # … with 50 more rows
```
…
```
## Parsed with column specification:
## cols(
##   length = col_double(),
##   rating = col_character()
## )
```

```r
movies
```

```
## # A tibble: 60 x 2
##    length rating
##     <dbl> <chr> 
##  1     25 G     
##  2     75 G     
##  3     88 G     
##  4     63 G     
##  5     76 G     
##  6     97 G     
##  7     68 G     
##  8     82 G     
##  9     98 G     
## 10     74 G     
## # … with 50 more rows
```
…
I didn't ask you to list the resulting data frame, but it is smart to
at least look for yourself, to make sure `pivot_longer` has done
what you expected.


```r
caffeine
```

```
## # A tibble: 36 x 3
##      Sub amount   score
##    <dbl> <chr>    <dbl>
##  1     1 High        72
##  2     1 Moderate    68
##  3     1 None        68
##  4     2 High        65
##  5     2 Moderate    80
##  6     2 None        74
##  7     3 High        68
##  8     3 Moderate    64
##  9     3 None        59
## 10     4 High        83
## # … with 26 more rows
```
…
