…
```
## See spec(...) for full column specifications.
```

```r
jays
```

```
## # A tibble: 25 x 21
##      row  game date  box   team  venue opp  
##    <int> <int> <chr> <chr> <chr> <chr> <chr>
##  1    82     7 Mond~ boxs~ TOR   <NA>  TBR  
##  2    83     8 Tues~ boxs~ TOR   <NA>  TBR  
##  3    84     9 Wedn~ boxs~ TOR   <NA>  TBR  
##  4    85    10 Thur~ boxs~ TOR   <NA>  TBR  
##  5    86    11 Frid~ boxs~ TOR   <NA>  ATL  
##  6    87    12 Satu~ boxs~ TOR   <NA>  ATL  
##  7    88    13 Sund~ boxs~ TOR   <NA>  ATL  
##  8    89    14 Tues~ boxs~ TOR   <NA>  BAL  
##  9    90    15 Wedn~ boxs~ TOR   <NA>  BAL  
## 10    91    16 Thur~ boxs~ TOR   <NA>  BAL  
## # ... with 15 more rows, and 14 more
## #   variables: result <chr>, runs <int>,
## #   Oppruns <int>, innings <int>, wl <chr>,
## #   position <int>, gb <chr>, winner <chr>,
## #   loser <chr>, save <chr>, `game
## #   time` <time>, Daynight <chr>,
## #   attendance <int>, streak <chr>
```
…
```
## Parsed with column specification:
## cols(
##   student = col_integer(),
##   baseball = col_integer(),
##   softball = col_integer()
## )
```

```r
throws
```

```
## # A tibble: 24 x 3
##    student baseball softball
##      <int>    <int>    <int>
##  1       1       65       57
##  2       2       90       58
##  3       3       75       66
##  4       4       73       61
##  5       5       79       65
##  6       6       68       56
##  7       7       58       53
##  8       8       41       41
##  9       9       56       44
## 10      10       70       65
## # ... with 14 more rows
```
…
Solution


Feed `student` into `factor`, creating a new
column with `mutate`:

```r
throws %>% mutate(fs = factor(student))
```

```
## # A tibble: 24 x 4
##    student baseball softball fs   
##      <int>    <int>    <int> <fct>
##  1       1       65       57 1    
##  2       2       90       58 2    
##  3       3       75       66 3    
##  4       4       73       61 4    
##  5       5       79       65 5    
##  6       6       68       56 6    
##  7       7       58       53 7    
##  8       8       41       41 8    
##  9       9       56       44 9    
## 10      10       70       65 10   
## # ... with 14 more rows
```
…
Solution


Literally `gather` (from `tidyr`):

```r
throws %>% mutate(fs = factor(student)) %>% gather(ball, 
    distance, baseball:softball)
```

```
## # A tibble: 48 x 4
##    student fs    ball     distance
##      <int> <fct> <chr>       <int>
##  1       1 1     baseball       65
##  2       2 2     baseball       90
##  3       3 3     baseball       75
##  4       4 4     baseball       73
##  5       5 5     baseball       79
##  6       6 6     baseball       68
##  7       7 7     baseball       58
##  8       8 8     baseball       41
##  9       9 9     baseball       56
## 10      10 10    baseball       70
## # ... with 38 more rows
```
Two columns to include, consecutive ones, or two to omit, the first
and last. So I think it's
easier to name the ones you want to include. 

If you want to show off a little, you can use a select-helper, noting
that the columns you want to gather up all end in "ball":


```r
throws %>% mutate(fs = factor(student)) %>% gather(ball, 
    distance, ends_with("ball"))
```

```
## # A tibble: 48 x 4
##    student fs    ball     distance
##      <int> <fct> <chr>       <int>
##  1       1 1     baseball       65
##  2       2 2     baseball       90
##  3       3 3     baseball       75
##  4       4 4     baseball       73
##  5       5 5     baseball       79
##  6       6 6     baseball       68
##  7       7 7     baseball       58
##  8       8 8     baseball       41
##  9       9 9     baseball       56
## 10      10 10    baseball       70
## # ... with 38 more rows
```
…
Solution


This is a job for `gather`:

```r
toms2 = toms1 %>% gather(colour, growthrate, blue:green)
toms2
```

```
## # A tibble: 32 x 3
##    plant colour growthrate
##    <int> <chr>       <dbl>
##  1     1 blue         5.34
##  2     2 blue         7.45
##  3     3 blue         7.15
##  4     4 blue         5.53
##  5     5 blue         6.34
##  6     6 blue         7.16
##  7     7 blue         7.77
##  8     8 blue         5.09
##  9     1 red         13.7 
## 10     2 red         13.0 
## # ... with 22 more rows
```
…
`gather` the columns that are all measurements of one
thing.
The syntax of `gather` is: what
makes the columns different, what makes them the same, and which
columns need to be gathered together. Use a pipe to name the
dataframe to work with. I'm going to save my new data frame:

```r
(migraine2 <- migraine %>% gather(drug, painrelief, 
    DrugA:DrugC))
```

```
## # A tibble: 27 x 2
##    drug  painrelief
##    <chr>      <int>
##  1 DrugA          4
##  2 DrugA          5
##  3 DrugA          4
##  4 DrugA          3
##  5 DrugA          2
##  6 DrugA          4
##  7 DrugA          3
##  8 DrugA          4
##  9 DrugA          4
## 10 DrugB          6
## # ... with 17 more rows
```
…
```r
cars
```

```
## # A tibble: 38 x 6
##    car    MPG weight cylinders    hp country
##    <ch> <dbl>  <dbl>     <int> <int> <chr>  
##  1 Bui~  28.4   2.67         4    90 U.S.   
##  2 Dod~  30.9   2.23         4    75 U.S.   
##  3 Mer~  20.8   3.07         6    85 U.S.   
##  4 Fia~  37.3   2.13         4    69 Italy  
##  5 Peu~  16.2   3.41         6   133 France 
##  6 VW ~  31.9   1.92         4    71 Germany
##  7 Ply~  34.2   2.2          4    70 U.S.   
##  8 Maz~  34.1   1.98         4    65 Japan  
##  9 Bui~  16.9   4.36         8   155 U.S.   
## 10 Aud~  20.3   2.83         5   103 Germany
## # ... with 28 more rows
```

(b) Display only the car names and the countries they come from.


Solution




```r
cars %>% select(car, country)
```

```
## # A tibble: 38 x 2
##    car                country
##    <chr>              <chr>  
##  1 Buick Skylark      U.S.   
##  2 Dodge Omni         U.S.   
##  3 Mercury Zephyr     U.S.   
##  4 Fiat Strada        Italy  
##  5 Peugeot 694 SL     France 
##  6 VW Rabbit          Germany
##  7 Plymouth Horizon   U.S.   
##  8 Mazda GLC          Japan  
##  9 Buick Estate Wagon U.S.   
## 10 Audi 5000          Germany
## # ... with 28 more rows
```

 

This *almost* works, but not quite:


```r
cars %>% select(starts_with("c"))
```

```
## # A tibble: 38 x 3
##    car                cylinders country
##    <chr>                  <int> <chr>  
##  1 Buick Skylark              4 U.S.   
##  2 Dodge Omni                 4 U.S.   
##  3 Mercury Zephyr             6 U.S.   
##  4 Fiat Strada                4 Italy  
##  5 Peugeot 694 SL             6 France 
##  6 VW Rabbit                  4 Germany
##  7 Plymouth Horizon           4 U.S.   
##  8 Mazda GLC                  4 Japan  
##  9 Buick Estate Wagon         8 U.S.   
## 10 Audi 5000                  5 Germany
## # ... with 28 more rows
```
…
(c) Display everything *except* horsepower:


Solution


Naming what you *don't* want is sometimes easier:

```r
cars %>% select(-hp)
```

```
## # A tibble: 38 x 5
##    car          MPG weight cylinders country
##    <chr>      <dbl>  <dbl>     <int> <chr>  
##  1 Buick Sky~  28.4   2.67         4 U.S.   
##  2 Dodge Omni  30.9   2.23         4 U.S.   
##  3 Mercury Z~  20.8   3.07         6 U.S.   
##  4 Fiat Stra~  37.3   2.13         4 Italy  
##  5 Peugeot 6~  16.2   3.41         6 France 
##  6 VW Rabbit   31.9   1.92         4 Germany
##  7 Plymouth ~  34.2   2.2          4 U.S.   
##  8 Mazda GLC   34.1   1.98         4 Japan  
##  9 Buick Est~  16.9   4.36         8 U.S.   
## 10 Audi 5000   20.3   2.83         5 Germany
## # ... with 28 more rows
```
…
```
## See spec(...) for full column specifications.
```

       

There are a *lot* of columns. What does this look like?


```r
billboard
```

```
## # A tibble: 317 x 83
##     year artist.inverted track time  genre
##    <int> <chr>           <chr> <tim> <chr>
##  1  2000 Destiny's Child Inde~ 03:38 Rock 
##  2  2000 Santana         Mari~ 04:18 Rock 
##  3  2000 Savage Garden   I Kn~ 04:07 Rock 
##  4  2000 Madonna         Music 03:45 Rock 
##  5  2000 Aguilera, Chri~ Come~ 03:38 Rock 
##  6  2000 Janet           Does~ 04:17 Rock 
##  7  2000 Destiny's Child Say ~ 04:31 Rock 
##  8  2000 Iglesias, Enri~ Be W~ 03:36 Latin
##  9  2000 Sisqo           Inco~ 03:52 Rock 
## 10  2000 Lonestar        Amaz~ 04:25 Coun~
## # ... with 307 more rows, and 78 more
## #   variables: date.entered <date>,
## #   date.peaked <date>, x1st.week <int>,
## #   x2nd.week <int>, x3rd.week <int>,
## #   x4th.week <int>, x5th.week <int>,
## #   x6th.week <int>, x7th.week <int>,
## #   x8th.week <int>, x9th.week <int>,
## #   x10th.week <int>, x11th.week <int>,
## #   x12th.week <int>, x13th.week <int>,
…
Solution


This is `gather`ing up all those columns, with
`na.rm=T` to get rid of the missings:

```r
billboard %>% gather(week, rank, x1st.week:x76th.week, 
    na.rm = T)
```

```
## # A tibble: 5,307 x 9
##     year artist.inverted track time  genre
##  * <int> <chr>           <chr> <tim> <chr>
##  1  2000 Destiny's Child Inde~ 03:38 Rock 
##  2  2000 Santana         Mari~ 04:18 Rock 
##  3  2000 Savage Garden   I Kn~ 04:07 Rock 
##  4  2000 Madonna         Music 03:45 Rock 
##  5  2000 Aguilera, Chri~ Come~ 03:38 Rock 
##  6  2000 Janet           Does~ 04:17 Rock 
##  7  2000 Destiny's Child Say ~ 04:31 Rock 
##  8  2000 Iglesias, Enri~ Be W~ 03:36 Latin
##  9  2000 Sisqo           Inco~ 03:52 Rock 
## 10  2000 Lonestar        Amaz~ 04:25 Coun~
## # ... with 5,297 more rows, and 4 more
## #   variables: date.entered <date>,
## #   date.peaked <date>, week <chr>,
## #   rank <chr>
```

         

Another way to do this is with a select-helper: all those column names
end with `week`, so we can select them all thus:


```r
billboard %>% gather(week, rank, ends_with("week"), 
    na.rm = T)
```

```
## # A tibble: 5,307 x 9
##     year artist.inverted track time  genre
##  * <int> <chr>           <chr> <tim> <chr>
##  1  2000 Destiny's Child Inde~ 03:38 Rock 
##  2  2000 Santana         Mari~ 04:18 Rock 
##  3  2000 Savage Garden   I Kn~ 04:07 Rock 
##  4  2000 Madonna         Music 03:45 Rock 
##  5  2000 Aguilera, Chri~ Come~ 03:38 Rock 
##  6  2000 Janet           Does~ 04:17 Rock 
##  7  2000 Destiny's Child Say ~ 04:31 Rock 
##  8  2000 Iglesias, Enri~ Be W~ 03:36 Latin
##  9  2000 Sisqo           Inco~ 03:52 Rock 
## 10  2000 Lonestar        Amaz~ 04:25 Coun~
## # ... with 5,297 more rows, and 4 more
## #   variables: date.entered <date>,
## #   date.peaked <date>, week <chr>,
## #   rank <chr>
```
…
Solution


A `select` is the thing:

```r
billboard %>% gather(week, rank, x1st.week:x76th.week, 
    na.rm = T) %>% select(week, rank)
```

```
## # A tibble: 5,307 x 2
##    week      rank 
##  * <chr>     <chr>
##  1 x1st.week 78   
##  2 x1st.week 15   
##  3 x1st.week 71   
##  4 x1st.week 41   
##  5 x1st.week 57   
##  6 x1st.week 59   
##  7 x1st.week 83   
##  8 x1st.week 63   
##  9 x1st.week 77   
## 10 x1st.week 81   
## # ... with 5,297 more rows
```
…
Solution


`parse_number` is the easiest. Create new columns,
with `mutate`, that are the `parse_number`-ed
versions of the old ones.

```r
billboard %>% gather(week, rank, x1st.week:x76th.week, 
    na.rm = T) %>% mutate(week_number = parse_number(week), 
    rank_number = parse_number(rank)) %>% select(ends_with("number"))
```

```
## # A tibble: 5,307 x 2
##    week_number rank_number
##          <dbl>       <dbl>
##  1           1          78
##  2           1          15
##  3           1          71
##  4           1          41
##  5           1          57
##  6           1          59
##  7           1          83
##  8           1          63
##  9           1          77
## 10           1          81
## # ... with 5,297 more rows
```
…
```r
billboard %>% gather(week, rank, x1st.week:x76th.week, 
    na.rm = T) %>% mutate(week_number = parse_number(week), 
    rank_number = parse_number(rank)) %>% mutate(current = date.entered + 
    (week_number - 1) * 7) %>% select(date.entered, 
    week_number, current)
```

```
## # A tibble: 5,307 x 3
##    date.entered week_number current   
##    <date>             <dbl> <date>    
##  1 2000-09-23             1 2000-09-23
##  2 2000-02-12             1 2000-02-12
##  3 1999-10-23             1 1999-10-23
##  4 2000-08-12             1 2000-08-12
##  5 2000-08-05             1 2000-08-05
##  6 2000-06-17             1 2000-06-17
##  7 1999-12-25             1 1999-12-25
##  8 2000-04-01             1 2000-04-01
##  9 2000-06-24             1 2000-06-24
## 10 1999-06-05             1 1999-06-05
## # ... with 5,297 more rows
```
…
```r
billboard %>% gather(week, rank, x1st.week:x76th.week, 
    na.rm = T) %>% mutate(week_number = parse_number(week), 
    rank_number = parse_number(rank)) %>% mutate(current = date.entered + 
    (week_number - 1) * 7) %>% filter(rank == 
    1) %>% arrange(current) %>% select(artist.inverted, 
    track, current)
```

```
## # A tibble: 55 x 3
##    artist.inverted   track        current   
##    <chr>             <chr>        <date>    
##  1 Aguilera, Christ~ What A Girl~ 2000-01-15
##  2 Aguilera, Christ~ What A Girl~ 2000-01-22
##  3 Savage Garden     I Knew I Lo~ 2000-01-29
##  4 Savage Garden     I Knew I Lo~ 2000-02-05
##  5 Savage Garden     I Knew I Lo~ 2000-02-12
##  6 Carey, Mariah     Thank God I~ 2000-02-19
##  7 Savage Garden     I Knew I Lo~ 2000-02-26
##  8 Lonestar          Amazed       2000-03-04
##  9 Lonestar          Amazed       2000-03-11
## 10 Destiny's Child   Say My Name  2000-03-18
## # ... with 45 more rows
```
…
```r
bikes
```

```
## # A tibble: 1,958 x 9
##    X1     X2    X3    X4    X5    X6    X7   
##    <time> <chr> <chr> <chr> <chr> <chr> <chr>
##  1 07:00  X     <NA>  <NA>  X     <NA>  X    
##  2    NA  X     <NA>  <NA>  X     <NA>  X    
##  3    NA  X     <NA>  <NA>  X     <NA>  X    
##  4    NA  X     <NA>  <NA>  X     <NA>  X    
##  5    NA  X     <NA>  <NA>  X     <NA>  X    
##  6 07:15  X     <NA>  X     <NA>  <NA>  X    
##  7    NA  <NA>  X     X     <NA>  <NA>  X    
##  8    NA  X     <NA>  X     <NA>  <NA>  X    
##  9    NA  <NA>  X     X     <NA>  <NA>  X    
## 10    NA  X     <NA>  X     <NA>  <NA>  X    
## # ... with 1,948 more rows, and 2 more
## #   variables: X8 <chr>, X9 <chr>
```
…
```r
bikes %>% fill(X1)
```

```
## # A tibble: 1,958 x 9
##    X1     X2    X3    X4    X5    X6    X7   
##    <time> <chr> <chr> <chr> <chr> <chr> <chr>
##  1 07:00  X     <NA>  <NA>  X     <NA>  X    
##  2 07:00  X     <NA>  <NA>  X     <NA>  X    
##  3 07:00  X     <NA>  <NA>  X     <NA>  X    
##  4 07:00  X     <NA>  <NA>  X     <NA>  X    
##  5 07:00  X     <NA>  <NA>  X     <NA>  X    
##  6 07:15  X     <NA>  X     <NA>  <NA>  X    
##  7 07:15  <NA>  X     X     <NA>  <NA>  X    
##  8 07:15  X     <NA>  X     <NA>  <NA>  X    
##  9 07:15  <NA>  X     X     <NA>  <NA>  X    
## 10 07:15  X     <NA>  X     <NA>  <NA>  X    
## # ... with 1,948 more rows, and 2 more
## #   variables: X8 <chr>, X9 <chr>
```
           

Success!

We will probably want to rename `X1` to something like
`time`, so let's do that now before we forget. There is a
`rename` that does about what you'd expect:


```r
bikes %>% fill(X1) %>% rename(Time = X1)
```

```
## # A tibble: 1,958 x 9
##    Time   X2    X3    X4    X5    X6    X7   
##    <time> <chr> <chr> <chr> <chr> <chr> <chr>
##  1 07:00  X     <NA>  <NA>  X     <NA>  X    
##  2 07:00  X     <NA>  <NA>  X     <NA>  X    
##  3 07:00  X     <NA>  <NA>  X     <NA>  X    
##  4 07:00  X     <NA>  <NA>  X     <NA>  X    
##  5 07:00  X     <NA>  <NA>  X     <NA>  X    
##  6 07:15  X     <NA>  X     <NA>  <NA>  X    
##  7 07:15  <NA>  X     X     <NA>  <NA>  X    
##  8 07:15  X     <NA>  X     <NA>  <NA>  X    
##  9 07:15  <NA>  X     X     <NA>  <NA>  X    
## 10 07:15  X     <NA>  X     <NA>  <NA>  X    
## # ... with 1,948 more rows, and 2 more
## #   variables: X8 <chr>, X9 <chr>
```
…
Solution


Under the assumption we are making, we only have to look
at column `X2` and we ignore `X3` totally:

```r
bikes %>% fill(X1) %>% rename(Time = X1) %>% mutate(gender = ifelse(X2 == 
    "X", "male", "female"))
```

```
## # A tibble: 1,958 x 10
##    Time   X2    X3    X4    X5    X6    X7   
##    <time> <chr> <chr> <chr> <chr> <chr> <chr>
##  1 07:00  X     <NA>  <NA>  X     <NA>  X    
##  2 07:00  X     <NA>  <NA>  X     <NA>  X    
##  3 07:00  X     <NA>  <NA>  X     <NA>  X    
##  4 07:00  X     <NA>  <NA>  X     <NA>  X    
##  5 07:00  X     <NA>  <NA>  X     <NA>  X    
##  6 07:15  X     <NA>  X     <NA>  <NA>  X    
##  7 07:15  <NA>  X     X     <NA>  <NA>  X    
##  8 07:15  X     <NA>  X     <NA>  <NA>  X    
##  9 07:15  <NA>  X     X     <NA>  <NA>  X    
## 10 07:15  X     <NA>  X     <NA>  <NA>  X    
## # ... with 1,948 more rows, and 3 more
## #   variables: X8 <chr>, X9 <chr>,
## #   gender <chr>
```

            

Oh, that didn't work. The gender column is either `male` or
missing; the two missing ones here should say `female`. What
happened? Let's just look at our logical condition this time:


```r
bikes %>% fill(X1) %>% rename(Time = X1) %>% mutate(isX = (X2 == 
    "X"))
```

```
## # A tibble: 1,958 x 10
##    Time   X2    X3    X4    X5    X6    X7   
##    <time> <chr> <chr> <chr> <chr> <chr> <chr>
##  1 07:00  X     <NA>  <NA>  X     <NA>  X    
##  2 07:00  X     <NA>  <NA>  X     <NA>  X    
##  3 07:00  X     <NA>  <NA>  X     <NA>  X    
##  4 07:00  X     <NA>  <NA>  X     <NA>  X    
##  5 07:00  X     <NA>  <NA>  X     <NA>  X    
##  6 07:15  X     <NA>  X     <NA>  <NA>  X    
##  7 07:15  <NA>  X     X     <NA>  <NA>  X    
##  8 07:15  X     <NA>  X     <NA>  <NA>  X    
##  9 07:15  <NA>  X     X     <NA>  <NA>  X    
## 10 07:15  X     <NA>  X     <NA>  <NA>  X    
## # ... with 1,948 more rows, and 3 more
## #   variables: X8 <chr>, X9 <chr>, isX <lgl>
```
…
Perhaps a better way to go is to test whether `X2` is missing (in which
case, it's a female cyclist). R has a function `is.na` which is
`TRUE` if the thing inside it is missing and `FALSE` if
the thing inside it has some non-missing value. In our case, it
goes like this:


```r
bikes %>% fill(X1) %>% rename(Time = X1) %>% mutate(gender = ifelse(is.na(X2), 
    "female", "male"))
```

```
## # A tibble: 1,958 x 10
##    Time   X2    X3    X4    X5    X6    X7   
##    <time> <chr> <chr> <chr> <chr> <chr> <chr>
##  1 07:00  X     <NA>  <NA>  X     <NA>  X    
##  2 07:00  X     <NA>  <NA>  X     <NA>  X    
##  3 07:00  X     <NA>  <NA>  X     <NA>  X    
##  4 07:00  X     <NA>  <NA>  X     <NA>  X    
##  5 07:00  X     <NA>  <NA>  X     <NA>  X    
##  6 07:15  X     <NA>  X     <NA>  <NA>  X    
##  7 07:15  <NA>  X     X     <NA>  <NA>  X    
##  8 07:15  X     <NA>  X     <NA>  <NA>  X    
##  9 07:15  <NA>  X     X     <NA>  <NA>  X    
## 10 07:15  X     <NA>  X     <NA>  <NA>  X    
## # ... with 1,948 more rows, and 3 more
## #   variables: X8 <chr>, X9 <chr>,
## #   gender <chr>
```
…
```r
bikes %>% fill(X1) %>% rename(Time = X1) %>% mutate(gender = case_when(X2 == 
    "X" & is.na(X3) ~ "Male", is.na(X2) & X3 == 
    "X" ~ "Female", TRUE ~ "Error!"))
```

```
## # A tibble: 1,958 x 10
##    Time   X2    X3    X4    X5    X6    X7   
##    <time> <chr> <chr> <chr> <chr> <chr> <chr>
##  1 07:00  X     <NA>  <NA>  X     <NA>  X    
##  2 07:00  X     <NA>  <NA>  X     <NA>  X    
##  3 07:00  X     <NA>  <NA>  X     <NA>  X    
##  4 07:00  X     <NA>  <NA>  X     <NA>  X    
##  5 07:00  X     <NA>  <NA>  X     <NA>  X    
##  6 07:15  X     <NA>  X     <NA>  <NA>  X    
##  7 07:15  <NA>  X     X     <NA>  <NA>  X    
##  8 07:15  X     <NA>  X     <NA>  <NA>  X    
##  9 07:15  <NA>  X     X     <NA>  <NA>  X    
## 10 07:15  X     <NA>  X     <NA>  <NA>  X    
## # ... with 1,948 more rows, and 3 more
## #   variables: X8 <chr>, X9 <chr>,
## #   gender <chr>
```
…
