…
```
## Parsed with column specification:
## cols(
##   GMdensity = col_double(),
##   FBfriends = col_integer()
## )
```

```r
fb
```

```
## # A tibble: 40 x 2
##    GMdensity FBfriends
##        <dbl>     <int>
##  1      -1.8        23
##  2       0.1        35
##  3      -1.2        80
##  4      -0.4       110
##  5      -0.9       120
##  6      -2.1       140
##  7      -1.5       168
##  8       0.5       132
##  9       0.6       154
## 10      -0.5       241
## # ... with 30 more rows
```
…
```
## Parsed with column specification:
## cols(
##   experience = col_integer(),
##   salary = col_integer()
## )
```

```r
soc
```

```
## # A tibble: 50 x 2
##    experience salary
##         <int>  <int>
##  1          7  26075
##  2         28  79370
##  3         23  65726
##  4         18  41983
##  5         19  62308
##  6         15  41154
##  7         24  53610
##  8         13  33697
##  9          2  22444
## 10          8  32562
## # ... with 40 more rows
```
…
