…
```
## See spec(...) for full column specifications.
```

```r
whas
```

```
## # A tibble: 500 x 22
##       id   age gender    hr sysbp diasbp   bmi   cvd   afb   sho   chf
##    <int> <int>  <int> <int> <int>  <int> <dbl> <int> <int> <int> <int>
##  1     1    83      0    89   152     78  25.5     1     1     0     0
##  2     2    49      0    84   120     60  24.0     1     0     0     0
##  3     3    70      1    83   147     88  22.1     0     0     0     0
##  4     4    70      0    65   123     76  26.6     1     0     0     1
##  5     5    70      0    63   135     85  24.4     1     0     0     0
##  6     6    70      0    76    83     54  23.2     1     0     0     0
##  7     7    57      0    73   191    116  39.5     1     0     0     0
##  8     8    55      0    91   147     95  27.1     1     0     0     0
##  9     9    88      1    63   209    100  27.4     1     0     0     1
## 10    10    54      0   104   166    106  25.5     1     0     0     0
## # ... with 490 more rows, and 11 more variables: av3 <int>, miord <int>,
## #   mitype <int>, year <int>, admitdate <chr>, disdate <chr>, fdate <chr>,
## #   los <int>, dstat <int>, lenfol <int>, fstat <int>
```
…
