…
```
## Parsed with column specification:
## cols(
##   Grain.size = col_double(),
##   Spiders = col_character()
## )
```

```r
spider
```

```
## # A tibble: 28 x 2
##    Grain.size Spiders
##         <dbl> <chr>  
##  1      0.245 absent 
##  2      0.247 absent 
##  3      0.285 present
##  4      0.299 present
##  5      0.327 present
##  6      0.347 present
##  7      0.356 absent 
##  8      0.36  present
##  9      0.363 absent 
## 10      0.364 present
## # ... with 18 more rows
```
…
Solution


The presence or absence of spiders is our response. This is
actually text at the moment:

```r
spider
```

```
## # A tibble: 28 x 2
##    Grain.size Spiders
##         <dbl> <chr>  
##  1      0.245 absent 
##  2      0.247 absent 
##  3      0.285 present
##  4      0.299 present
##  5      0.327 present
##  6      0.347 present
##  7      0.356 absent 
##  8      0.36  present
##  9      0.363 absent 
## 10      0.364 present
## # ... with 18 more rows
```

     

so we need to make a factor version of it first. I'm going to live on
the edge and overwrite everything:


```r
spider = spider %>% mutate(Spiders = factor(Spiders))
spider
```

```
## # A tibble: 28 x 2
##    Grain.size Spiders
##         <dbl> <fct>  
##  1      0.245 absent 
##  2      0.247 absent 
##  3      0.285 present
##  4      0.299 present
##  5      0.327 present
##  6      0.347 present
##  7      0.356 absent 
##  8      0.36  present
##  9      0.363 absent 
## 10      0.364 present
## # ... with 18 more rows
```
…
```r
infect
```

```
## # A tibble: 81 x 4
##    infected   age weight sex   
##    <chr>    <dbl>  <dbl> <chr> 
##  1 absent       2      1 female
##  2 absent       9     13 female
##  3 present     15      2 female
##  4 absent      15     16 female
##  5 absent      18      2 female
##  6 absent      20      9 female
##  7 absent      26     13 female
##  8 present     42      6 female
##  9 absent      51      9 female
## 10 present     52      6 female
## # ... with 71 more rows
```
…
You can check a few more lines to
convince yourself:


```r
infect %>% print(n = 20)
```

```
## # A tibble: 81 x 4
##    infected   age weight sex   
##    <chr>    <dbl>  <dbl> <chr> 
##  1 absent       2      1 female
##  2 absent       9     13 female
##  3 present     15      2 female
##  4 absent      15     16 female
##  5 absent      18      2 female
##  6 absent      20      9 female
##  7 absent      26     13 female
##  8 present     42      6 female
##  9 absent      51      9 female
## 10 present     52      6 female
## 11 present     59     12 female
## 12 absent      68     10 female
## 13 absent      72     15 female
## 14 present     73      1 female
## 15 absent      78     15 female
## 16 absent      80     16 female
## 17 present     82     14 female
## 18 present     91     12 female
## 19 present    105      5 female
## 20 present    114      8 female
## # ... with 61 more rows
```
…
Let's work out the residuals and plot them against our quantitative
explanatory variables. I think the best way to do this is
`augment` from `broom`, to create a data frame
containing the residuals alongside the original data:

```r
library(broom)
infect.1a = infect.1 %>% augment(infect)
infect.1a %>% as_tibble()
```

```
## # A tibble: 81 x 11
##    infected   age weight sex   .fitted
##    <chr>    <dbl>  <dbl> <chr>   <dbl>
##  1 absent       2      1 fema~   0.407
##  2 absent       9     13 fema~  -2.24 
##  3 present     15      2 fema~   0.343
##  4 absent      15     16 fema~  -2.85 
##  5 absent      18      2 fema~   0.381
##  6 absent      20      9 fema~  -1.19 
##  7 absent      26     13 fema~  -2.02 
##  8 present     42      6 fema~  -0.227
##  9 absent      51      9 fema~  -0.797
## 10 present     52      6 fema~  -0.100
## # ... with 71 more rows, and 6 more
## #   variables: .se.fit <dbl>, .resid <dbl>,
## #   .hat <dbl>, .sigma <dbl>, .cooksd <dbl>,
## #   .std.resid <dbl>
```
…
```
## [1]  26.0  46.8  67.6  88.4 109.2 130.0
```

```r
infect.new = crossing(weight = weights, age = ages, 
    sex = sexes)
infect.new
```

```
## # A tibble: 72 x 3
##    weight   age sex   
##     <dbl> <dbl> <chr> 
##  1      9  26   female
##  2      9  26   male  
##  3      9  46.8 female
##  4      9  46.8 male  
##  5      9  67.6 female
##  6      9  67.6 male  
##  7      9  88.4 female
##  8      9  88.4 male  
##  9      9 109.  female
## 10      9 109.  male  
## # ... with 62 more rows
```
…
```r
decide
```

```
## # A tibble: 315 x 5
##    decision idealism relativism gender
##    <chr>       <dbl>      <dbl> <chr> 
##  1 stop          8.2        5.1 Female
##  2 continue      6.8        5.3 Male  
##  3 continue      8.2        6   Female
##  4 stop          7.4        6.2 Female
##  5 continue      1.7        3.1 Female
##  6 continue      5.6        7.7 Male  
##  7 stop          7.2        6.7 Female
##  8 stop          7.8        4   Male  
##  9 stop          7.8        4.7 Female
## 10 stop          8          7.6 Female
## # ... with 305 more rows, and 1 more
## #   variable: scenario <chr>
```
…
```r
xx = x %>% mutate(decision = case_when(decision == 
    0 ~ "stop", decision == 1 ~ "continue", TRUE ~ 
    "error"), gender = case_when(gender == 0 ~ 
    "Female", gender == 1 ~ "Male", TRUE ~ "error"), 
    scenario = case_when(scenario == 1 ~ "cosmetic", 
        scenario == 2 ~ "theory", scenario == 
            3 ~ "meat", scenario == 4 ~ "veterinary", 
        scenario == 5 ~ "medical", TRUE ~ "error"))
xx %>% as_tibble() %>% select(-(cosmetic:veterin))
```

```
## # A tibble: 315 x 7
##    decision idealism relatvsm gender
##    <chr>       <dbl>    <dbl> <chr> 
##  1 stop          8.2      5.1 Female
##  2 continue      6.8      5.3 Male  
##  3 continue      8.2      6   Female
##  4 stop          7.4      6.2 Female
##  5 continue      1.7      3.1 Female
##  6 continue      5.6      7.7 Male  
##  7 stop          7.2      6.7 Female
##  8 stop          7.8      4   Male  
##  9 stop          7.8      4.7 Female
## 10 stop          8        7.6 Female
## # ... with 305 more rows, and 3 more
## #   variables: idealism_LN <dbl>,
## #   relatvsm_LN <dbl>, scenario <chr>
```
…
```r
heart
```

```
## # A tibble: 270 x 15
##       X1   age sex   pain.type resting.bp
##    <dbl> <dbl> <chr> <chr>          <dbl>
##  1     1    70 male  asymptom~        130
##  2     2    67 fema~ nonangin~        115
##  3     3    57 male  atypical         124
##  4     4    64 male  asymptom~        128
##  5     5    74 fema~ atypical         120
##  6     6    65 male  asymptom~        120
##  7     7    56 male  nonangin~        130
##  8     8    59 male  asymptom~        110
##  9     9    60 male  asymptom~        140
## 10    10    63 fema~ asymptom~        150
## # ... with 260 more rows, and 10 more
## #   variables: serum.chol <dbl>,
## #   high.blood.sugar <chr>, electro <chr>,
## #   max.hr <dbl>, angina <chr>,
## #   oldpeak <dbl>, slope <chr>,
## #   colored <dbl>, thal <chr>,
## #   heart.disease <chr>
```
…
 

Yep. I put the underscore in so as to not catch other variables that
have `age` inside them but not at the end.

For the categorical variables, we need to look in `heart3`:


```r
heart3
```

```
## # A tibble: 21 x 3
##    vname            value            n
##    <chr>            <chr>        <int>
##  1 angina           no             181
##  2 angina           yes             89
##  3 electro          hypertrophy    137
##  4 electro          normal         131
##  5 electro          STT              2
##  6 heart.disease    no             150
##  7 heart.disease    yes            120
##  8 high.blood.sugar no             230
##  9 high.blood.sugar yes             40
## 10 pain.type        asymptomatic   129
## # ... with 11 more rows
```
…
 

All combos of all of those (and there will be a lot of those):


```r
heart.new = crossing(sex = sexes, pain.type = pain.types, 
    resting.bp = resting.bps, serum.chol = serum.chols, 
    max.hr = max.hrs, oldpeak = oldpeaks, slope = slopes, 
    colored = coloreds, thal = thals)
heart.new
```

```
## # A tibble: 2,304 x 9
##    sex   pain.type resting.bp serum.chol
##    <chr> <chr>          <dbl>      <dbl>
##  1 fema~ asymptom~        120        213
##  2 fema~ asymptom~        120        213
##  3 fema~ asymptom~        120        213
##  4 fema~ asymptom~        120        213
##  5 fema~ asymptom~        120        213
##  6 fema~ asymptom~        120        213
##  7 fema~ asymptom~        120        213
##  8 fema~ asymptom~        120        213
##  9 fema~ asymptom~        120        213
## 10 fema~ asymptom~        120        213
## # ... with 2,294 more rows, and 5 more
## #   variables: max.hr <dbl>, oldpeak <dbl>,
## #   slope <chr>, colored <dbl>, thal <chr>
```
…
 

or sort the rows by `pred`, descending, and display the top few:


```r
heart.new %>% arrange(desc(pred)) %>% print(n = 8)
```

```
## # A tibble: 2,304 x 10
##   sex   pain.type resting.bp serum.chol
##   <chr> <chr>          <dbl>      <dbl>
## 1 male  asymptom~        140        280
## 2 male  asymptom~        140        213
## 3 male  asymptom~        120        280
## 4 male  asymptom~        140        280
## 5 male  asymptom~        140        280
## 6 male  asymptom~        140        280
## 7 male  asymptom~        120        213
## 8 male  asymptom~        140        280
## # ... with 2,296 more rows, and 6 more
## #   variables: max.hr <dbl>, oldpeak <dbl>,
## #   slope <chr>, colored <dbl>, thal <chr>,
## #   pred <dbl>
```
…
```
## Parsed with column specification:
## cols(
##   age = col_double(),
##   gender = col_character(),
##   survived = col_character()
## )
```

```r
donner
```

```
## # A tibble: 45 x 3
##      age gender survived
##    <dbl> <chr>  <chr>   
##  1    23 male   no      
##  2    40 female yes     
##  3    40 male   yes     
##  4    30 male   no      
##  5    28 male   no      
##  6    40 male   no      
##  7    45 female no      
##  8    62 male   no      
##  9    65 male   no      
## 10    45 female no      
## # ... with 35 more rows
```
…
```
## Parsed with column specification:
## cols(
##   apache = col_double(),
##   patients = col_double(),
##   deaths = col_double()
## )
```

```r
icu
```

```
## # A tibble: 38 x 3
##    apache patients deaths
##     <dbl>    <dbl>  <dbl>
##  1      0        1      0
##  2      2        1      0
##  3      3        4      1
##  4      4       11      0
##  5      5        9      3
##  6      6       14      3
##  7      7       12      4
##  8      8       22      5
##  9      9       33      3
## 10     10       19      6
## # ... with 28 more rows
```
…
