…
 
With multiple columns that are all frequencies, this is a job for
`pivot_longer`:

```r
mobile %>% 
  pivot_longer(very.unsat:very.sat, 
               names_to="satisfied", 
               values_to="frequency") -> mobile.long
mobile.long
```

```
## # A tibble: 32 x 4
##    gender age.group satisfied  frequency
##    <chr>  <chr>     <chr>          <dbl>
##  1 male   0-17      very.unsat         3
##  2 male   0-17      unsat              9
##  3 male   0-17      sat               18
##  4 male   0-17      very.sat          24
##  5 male   18-24     very.unsat         6
##  6 male   18-24     unsat             13
##  7 male   18-24     sat               16
##  8 male   18-24     very.sat          28
##  9 male   25-30     very.unsat         9
## 10 male   25-30     unsat             13
## # … with 22 more rows
```
…
Solution


I looked at `mobile.long` in the previous part, but if you
didn't, look at it here:


```r
mobile.long
```

```
## # A tibble: 32 x 4
##    gender age.group satisfied  frequency
##    <chr>  <chr>     <chr>          <dbl>
##  1 male   0-17      very.unsat         3
##  2 male   0-17      unsat              9
##  3 male   0-17      sat               18
##  4 male   0-17      very.sat          24
##  5 male   18-24     very.unsat         6
##  6 male   18-24     unsat             13
##  7 male   18-24     sat               16
##  8 male   18-24     very.sat          28
##  9 male   25-30     very.unsat         9
## 10 male   25-30     unsat             13
## # … with 22 more rows
```
…
So now create the proper response
variable thus, using your vector of categories:


```r
mobile.long %>%
  mutate(satis = ordered(satisfied, v1)) -> mobile.long2
mobile.long2
```

```
## # A tibble: 32 x 5
##    gender age.group satisfied  frequency satis     
##    <chr>  <chr>     <chr>          <dbl> <ord>     
##  1 male   0-17      very.unsat         3 very.unsat
##  2 male   0-17      unsat              9 unsat     
##  3 male   0-17      sat               18 sat       
##  4 male   0-17      very.sat          24 very.sat  
##  5 male   18-24     very.unsat         6 very.unsat
##  6 male   18-24     unsat             13 unsat     
##  7 male   18-24     sat               16 sat       
##  8 male   18-24     very.sat          28 very.sat  
##  9 male   25-30     very.unsat         9 very.unsat
## 10 male   25-30     unsat             13 unsat     
## # … with 22 more rows
```
…
```r
abortion
```

```
## # A tibble: 81 x 5
##     year religion education attitude frequency
##    <dbl> <chr>    <chr>     <chr>        <dbl>
##  1  1972 Prot     Low       Neg              9
##  2  1972 Prot     Low       Mix             12
##  3  1972 Prot     Low       Pos             48
##  4  1972 Prot     Med       Neg             13
##  5  1972 Prot     Med       Mix             43
##  6  1972 Prot     Med       Pos            197
##  7  1972 Prot     High      Neg              4
##  8  1972 Prot     High      Mix              9
##  9  1972 Prot     High      Pos            139
## 10  1972 SProt    Low       Neg              9
## # … with 71 more rows
```
…
       

Then use the original `attitude` plus this `lev` as
input to `ordered`:


```r
abortion <- abortion %>%
  mutate(attitude.ord = ordered(attitude, lev))
abortion
```

```
## # A tibble: 81 x 6
##     year religion education attitude frequency attitude.ord
##    <dbl> <chr>    <chr>     <chr>        <dbl> <ord>       
##  1  1972 Prot     Low       Neg              9 Neg         
##  2  1972 Prot     Low       Mix             12 Mix         
##  3  1972 Prot     Low       Pos             48 Pos         
##  4  1972 Prot     Med       Neg             13 Neg         
##  5  1972 Prot     Med       Mix             43 Mix         
##  6  1972 Prot     Med       Pos            197 Pos         
##  7  1972 Prot     High      Neg              4 Neg         
##  8  1972 Prot     High      Mix              9 Mix         
##  9  1972 Prot     High      Pos            139 Pos         
## 10  1972 SProt    Low       Neg              9 Neg         
## # … with 71 more rows
```
…
```r
ess
```

```
## # A tibble: 2,286 x 17
##    cntry cname   cedition cproddat cseqno name   essround edition   idno dweight
##    <chr> <chr>      <dbl> <chr>     <dbl> <chr>     <dbl>   <dbl>  <dbl>   <dbl>
##  1 GB    ESS1-6…        1 26.11.2… 134168 ESS6e…        6     2.1 101014   1.01 
##  2 GB    ESS1-6…        1 26.11.2… 134169 ESS6e…        6     2.1 101048   2.02 
##  3 GB    ESS1-6…        1 26.11.2… 134170 ESS6e…        6     2.1 101055   1.01 
##  4 GB    ESS1-6…        1 26.11.2… 134171 ESS6e…        6     2.1 101089   0.505
##  5 GB    ESS1-6…        1 26.11.2… 134172 ESS6e…        6     2.1 101097   0.505
##  6 GB    ESS1-6…        1 26.11.2… 134173 ESS6e…        6     2.1 101113   1.01 
##  7 GB    ESS1-6…        1 26.11.2… 134174 ESS6e…        6     2.1 101121   0.505
##  8 GB    ESS1-6…        1 26.11.2… 134175 ESS6e…        6     2.1 101139   0.505
##  9 GB    ESS1-6…        1 26.11.2… 134176 ESS6e…        6     2.1 101154   1.01 
## 10 GB    ESS1-6…        1 26.11.2… 134177 ESS6e…        6     2.1 101170   1.01 
## # … with 2,276 more rows, and 7 more variables: pspwght <dbl>, pweight <dbl>,
## #   prtvtgb <dbl>, gndr <dbl>, agea <dbl>, eduyrs <dbl>, inwtm <dbl>
```
…
Solution


I'm creating my "official" data frame here:


```r
gators.orig %>% 
  pivot_longer(Fish:Other, names_to = "Food.type", values_to = "Frequency") -> gators
gators
```

```
## # A tibble: 80 x 6
##    profile Gender Size  Lake   Food.type    Frequency
##      <dbl> <chr>  <chr> <chr>  <chr>            <dbl>
##  1       1 f      <2.3  george Fish                 3
##  2       1 f      <2.3  george Invertebrate         9
##  3       1 f      <2.3  george Reptile              1
##  4       1 f      <2.3  george Bird                 0
##  5       1 f      <2.3  george Other                1
##  6       2 m      <2.3  george Fish                13
##  7       2 m      <2.3  george Invertebrate        10
##  8       2 m      <2.3  george Reptile              0
##  9       2 m      <2.3  george Bird                 2
## 10       2 m      <2.3  george Other                2
## # … with 70 more rows
```
…
```r
steak0
```

```
## # A tibble: 550 x 15
##    respondent_id lottery_a smoke alcohol gamble skydiving speed cheated steak
##            <dbl> <lgl>     <lgl> <lgl>   <lgl>  <lgl>     <lgl> <lgl>   <lgl>
##  1    3237565956 FALSE     NA    NA      NA     NA        NA    NA      NA   
##  2    3234982343 TRUE      FALSE TRUE    FALSE  FALSE     FALSE FALSE   TRUE 
##  3    3234973379 TRUE      FALSE TRUE    TRUE   FALSE     TRUE  TRUE    TRUE 
##  4    3234972383 FALSE     TRUE  TRUE    TRUE   FALSE     TRUE  TRUE    TRUE 
##  5    3234958833 FALSE     FALSE TRUE    FALSE  FALSE     TRUE  TRUE    TRUE 
##  6    3234955240 TRUE      FALSE FALSE   FALSE  FALSE     TRUE  FALSE   TRUE 
##  7    3234955097 TRUE      FALSE TRUE    FALSE  FALSE     TRUE  TRUE    FALSE
##  8    3234955010 TRUE      FALSE TRUE    TRUE   TRUE      TRUE  FALSE   TRUE 
##  9    3234953052 TRUE      TRUE  TRUE    TRUE   FALSE     TRUE  FALSE   TRUE 
## 10    3234951249 FALSE     FALSE TRUE    TRUE   FALSE     FALSE FALSE   TRUE 
## # … with 540 more rows, and 6 more variables: steak_prep <chr>, female <lgl>,
## #   age <chr>, hhold_income <chr>, educ <chr>, region <chr>
```
…
     

A quick check that we got rid of the missing values:


```r
steak.complete
```

```
## # A tibble: 331 x 15
##    respondent_id lottery_a smoke alcohol gamble skydiving speed cheated steak
##            <dbl> <lgl>     <lgl> <lgl>   <lgl>  <lgl>     <lgl> <lgl>   <lgl>
##  1    3234982343 TRUE      FALSE TRUE    FALSE  FALSE     FALSE FALSE   TRUE 
##  2    3234973379 TRUE      FALSE TRUE    TRUE   FALSE     TRUE  TRUE    TRUE 
##  3    3234972383 FALSE     TRUE  TRUE    TRUE   FALSE     TRUE  TRUE    TRUE 
##  4    3234958833 FALSE     FALSE TRUE    FALSE  FALSE     TRUE  TRUE    TRUE 
##  5    3234955240 TRUE      FALSE FALSE   FALSE  FALSE     TRUE  FALSE   TRUE 
##  6    3234955010 TRUE      FALSE TRUE    TRUE   TRUE      TRUE  FALSE   TRUE 
##  7    3234953052 TRUE      TRUE  TRUE    TRUE   FALSE     TRUE  FALSE   TRUE 
##  8    3234951249 FALSE     FALSE TRUE    TRUE   FALSE     FALSE FALSE   TRUE 
##  9    3234948883 FALSE     FALSE TRUE    FALSE  FALSE     TRUE  FALSE   TRUE 
## 10    3234948197 TRUE      FALSE FALSE   TRUE   FALSE     TRUE  FALSE   TRUE 
## # … with 321 more rows, and 6 more variables: steak_prep <chr>, female <lgl>,
## #   age <chr>, hhold_income <chr>, educ <chr>, region <chr>
```
…
```r
sfcrime
```

```
## # A tibble: 878,049 x 9
##    Dates               Category Descript DayOfWeek PdDistrict Resolution Address
##    <dttm>              <chr>    <chr>    <chr>     <chr>      <chr>      <chr>  
##  1 2015-05-13 23:53:00 WARRANTS WARRANT… Wednesday NORTHERN   ARREST, B… OAK ST…
##  2 2015-05-13 23:53:00 OTHER O… TRAFFIC… Wednesday NORTHERN   ARREST, B… OAK ST…
##  3 2015-05-13 23:33:00 OTHER O… TRAFFIC… Wednesday NORTHERN   ARREST, B… VANNES…
##  4 2015-05-13 23:30:00 LARCENY… GRAND T… Wednesday NORTHERN   NONE       1500 B…
##  5 2015-05-13 23:30:00 LARCENY… GRAND T… Wednesday PARK       NONE       100 Bl…
##  6 2015-05-13 23:30:00 LARCENY… GRAND T… Wednesday INGLESIDE  NONE       0 Bloc…
##  7 2015-05-13 23:30:00 VEHICLE… STOLEN … Wednesday INGLESIDE  NONE       AVALON…
##  8 2015-05-13 23:30:00 VEHICLE… STOLEN … Wednesday BAYVIEW    NONE       KIRKWO…
##  9 2015-05-13 23:00:00 LARCENY… GRAND T… Wednesday RICHMOND   NONE       600 Bl…
## 10 2015-05-13 23:00:00 LARCENY… GRAND T… Wednesday CENTRAL    NONE       JEFFER…
## # … with 878,039 more rows, and 2 more variables: X <dbl>, Y <dbl>
```
…
Solution


This can be the one you know, a group-by and summarize, followed
by `arrange` to sort:


```r
sfcrime %>% group_by(Category) %>%
summarize(count=n()) %>%
arrange(desc(count))
```

```
## # A tibble: 39 x 2
##    Category        count
##    <chr>           <int>
##  1 LARCENY/THEFT  174900
##  2 OTHER OFFENSES 126182
##  3 NON-CRIMINAL    92304
##  4 ASSAULT         76876
##  5 DRUG/NARCOTIC   53971
##  6 VEHICLE THEFT   53781
##  7 VANDALISM       44725
##  8 WARRANTS        42214
##  9 BURGLARY        36755
## 10 SUSPICIOUS OCC  31414
## # … with 29 more rows
```

 

or this one does the same thing and saves a step:


```r
sfcrime %>% count(Category) %>%
arrange(desc(n))
```

```
## # A tibble: 39 x 2
##    Category            n
##    <chr>           <int>
##  1 LARCENY/THEFT  174900
##  2 OTHER OFFENSES 126182
##  3 NON-CRIMINAL    92304
##  4 ASSAULT         76876
##  5 DRUG/NARCOTIC   53971
##  6 VEHICLE THEFT   53781
##  7 VANDALISM       44725
##  8 WARRANTS        42214
##  9 BURGLARY        36755
## 10 SUSPICIOUS OCC  31414
## # … with 29 more rows
```
…
Solution


The hard part about this is to get the inputs to `%in%` the
right way around. We are testing the things in `Category` one
at a time for membership in the set in `my.crimes`, so this:

```r
sfcrimea = sfcrime %>% filter(Category %in% my.crimes) %>%
select(c(Category,DayOfWeek,PdDistrict)) 
sfcrimea
```

```
## # A tibble: 359,528 x 3
##    Category      DayOfWeek PdDistrict
##    <chr>         <chr>     <chr>     
##  1 LARCENY/THEFT Wednesday NORTHERN  
##  2 LARCENY/THEFT Wednesday PARK      
##  3 LARCENY/THEFT Wednesday INGLESIDE 
##  4 VEHICLE THEFT Wednesday INGLESIDE 
##  5 VEHICLE THEFT Wednesday BAYVIEW   
##  6 LARCENY/THEFT Wednesday RICHMOND  
##  7 LARCENY/THEFT Wednesday CENTRAL   
##  8 LARCENY/THEFT Wednesday CENTRAL   
##  9 LARCENY/THEFT Wednesday NORTHERN  
## 10 ASSAULT       Wednesday INGLESIDE 
## # … with 359,518 more rows
```
…
 

and try again:


```r
sfcrimea = sfcrime %>% filter(Category %in% my.crimes) %>%
select(c(Category,DayOfWeek,PdDistrict)) 
sfcrimea
```

```
## # A tibble: 359,528 x 3
##    Category      DayOfWeek PdDistrict
##    <chr>         <chr>     <chr>     
##  1 LARCENY/THEFT Wednesday NORTHERN  
##  2 LARCENY/THEFT Wednesday PARK      
##  3 LARCENY/THEFT Wednesday INGLESIDE 
##  4 VEHICLE THEFT Wednesday INGLESIDE 
##  5 VEHICLE THEFT Wednesday BAYVIEW   
##  6 LARCENY/THEFT Wednesday RICHMOND  
##  7 LARCENY/THEFT Wednesday CENTRAL   
##  8 LARCENY/THEFT Wednesday CENTRAL   
##  9 LARCENY/THEFT Wednesday NORTHERN  
## 10 ASSAULT       Wednesday INGLESIDE 
## # … with 359,518 more rows
```
…
```
## Parsed with column specification:
## cols(
##   Category = col_character(),
##   DayOfWeek = col_character(),
##   PdDistrict = col_character()
## )
```

```r
sfcrime
```

```
## # A tibble: 359,528 x 3
##    Category      DayOfWeek PdDistrict
##    <chr>         <chr>     <chr>     
##  1 LARCENY/THEFT Wednesday NORTHERN  
##  2 LARCENY/THEFT Wednesday PARK      
##  3 LARCENY/THEFT Wednesday INGLESIDE 
##  4 VEHICLE THEFT Wednesday INGLESIDE 
##  5 VEHICLE THEFT Wednesday BAYVIEW   
##  6 LARCENY/THEFT Wednesday RICHMOND  
##  7 LARCENY/THEFT Wednesday CENTRAL   
##  8 LARCENY/THEFT Wednesday CENTRAL   
##  9 LARCENY/THEFT Wednesday NORTHERN  
## 10 ASSAULT       Wednesday INGLESIDE 
## # … with 359,518 more rows
```
…
```r
hsb
```

```
## # A tibble: 200 x 11
##       id race         ses    schtyp prog        read write  math science socst gender
##    <dbl> <chr>        <chr>  <chr>  <chr>      <dbl> <dbl> <dbl>   <dbl> <dbl> <chr> 
##  1    70 white        low    public general       57    52    41      47    57 male  
##  2   121 white        middle public vocational    68    59    53      63    61 female
##  3    86 white        high   public general       44    33    54      58    31 male  
##  4   141 white        high   public vocational    63    44    47      53    56 male  
##  5   172 white        middle public academic      47    52    57      53    61 male  
##  6   113 white        middle public academic      44    52    51      63    61 male  
##  7    50 african-amer middle public general       50    59    42      53    61 male  
##  8    11 hispanic     middle public academic      34    46    45      39    36 male  
##  9    84 white        middle public general       63    57    54      58    51 male  
## 10    48 african-amer middle public academic      57    55    52      50    51 male  
## # … with 190 more rows
```
…
Solution


It has to be an `ordered` factor, which you can create in
the data frame (or outside, if you prefer):

```r
hsb <- hsb %>% mutate(ses = ordered(ses, c("low", "middle", "high")))
hsb
```

```
## # A tibble: 200 x 11
##       id race         ses    schtyp prog        read write  math science socst gender
##    <dbl> <chr>        <ord>  <chr>  <chr>      <dbl> <dbl> <dbl>   <dbl> <dbl> <chr> 
##  1    70 white        low    public general       57    52    41      47    57 male  
##  2   121 white        middle public vocational    68    59    53      63    61 female
##  3    86 white        high   public general       44    33    54      58    31 male  
##  4   141 white        high   public vocational    63    44    47      53    56 male  
##  5   172 white        middle public academic      47    52    57      53    61 male  
##  6   113 white        middle public academic      44    52    51      63    61 male  
##  7    50 african-amer middle public general       50    59    42      53    61 male  
##  8    11 hispanic     middle public academic      34    46    45      39    36 male  
##  9    84 white        middle public general       63    57    54      58    51 male  
## 10    48 african-amer middle public academic      57    55    52      50    51 male  
## # … with 190 more rows
```
…
```r
athletes
```

```
## # A tibble: 202 x 13
##    Sex    Sport     RCC   WCC    Hc    Hg  Ferr   BMI   SSF `%Bfat`   LBM    Ht    Wt
##    <chr>  <chr>   <dbl> <dbl> <dbl> <dbl> <dbl> <dbl> <dbl>   <dbl> <dbl> <dbl> <dbl>
##  1 female Netball  4.56  13.3  42.2  13.6    20  19.2  49      11.3  53.1  177.  59.9
##  2 female Netball  4.15   6    38    12.7    59  21.2 110.     25.3  47.1  173.  63  
##  3 female Netball  4.16   7.6  37.5  12.3    22  21.4  89      19.4  53.4  176   66.3
##  4 female Netball  4.32   6.4  37.7  12.3    30  21.0  98.3    19.6  48.8  170.  60.7
##  5 female Netball  4.06   5.8  38.7  12.8    78  21.8 122.     23.1  56.0  183   72.9
##  6 female Netball  4.12   6.1  36.6  11.8    21  21.4  90.4    16.9  56.4  178.  67.9
##  7 female Netball  4.17   5    37.4  12.7   109  21.5 107.     21.3  53.1  177.  67.5
##  8 female Netball  3.8    6.6  36.5  12.4   102  24.4 157.     26.6  54.4  174.  74.1
##  9 female Netball  3.96   5.5  36.3  12.4    71  22.6 101.     17.9  56.0  174.  68.2
## 10 female Netball  4.44   9.7  41.4  14.1    64  22.8 126.     25.0  51.6  174.  68.8
## # … with 192 more rows
```
…
