…
```r
hayfever
```

```
## # A tibble: 36 x 4
##    relief a     b      replicate
##     <dbl> <chr> <chr>      <dbl>
##  1    2.4 low   low            1
##  2    2.7 low   low            2
##  3    2.3 low   low            3
##  4    2.5 low   low            4
##  5    4.6 low   medium         1
##  6    4.2 low   medium         2
##  7    4.9 low   medium         3
##  8    4.7 low   medium         4
##  9    4.8 low   high           1
## 10    4.5 low   high           2
## # … with 26 more rows
```
…
Solution


We'll save into `caffeine` again:


```r
caffeine.untidy %>%
  pivot_longer(-Sub, names_to="amount", values_to="score", names_ptypes = list(amount=factor())) -> caffeine
caffeine
```

```
## # A tibble: 36 x 3
##      Sub amount   score
##    <dbl> <fct>    <dbl>
##  1     1 High        72
##  2     1 Moderate    68
##  3     1 None        68
##  4     2 High        65
##  5     2 Moderate    80
##  6     2 None        74
##  7     3 High        68
##  8     3 Moderate    64
##  9     3 None        59
## 10     4 High        83
## # … with 26 more rows
```
…
```
## Parsed with column specification:
## cols(
##   id = col_double(),
##   major = col_character(),
##   hours = col_double()
## )
```

```r
studyhours
```

```
## # A tibble: 75 x 3
##       id major hours
##    <dbl> <chr> <dbl>
##  1     1 math     15
##  2     2 math     20
##  3     3 math     14
##  4     4 math     15
##  5     5 math     14
##  6     6 math     10
##  7     7 math     12
##  8     8 math      9
##  9     9 math     10
## 10    10 math     11
## # … with 65 more rows
```
…
```
## Parsed with column specification:
## cols(
##   id = col_double(),
##   context = col_character(),
##   words = col_double()
## )
```

```r
smith
```

```
## # A tibble: 50 x 3
##       id context words
##    <dbl> <chr>   <dbl>
##  1     1 same       25
##  2     2 same       26
##  3     3 same       17
##  4     4 same       15
##  5     5 same       14
##  6     6 same       17
##  7     7 same       14
##  8     8 same       20
##  9     9 same       11
## 10    10 same       21
## # … with 40 more rows
```
…
Solution


Use `mutate` and assign everything back to what it was
before:

```r
smith <- smith %>% mutate(context = factor(context))
smith
```

```
## # A tibble: 50 x 3
##       id context words
##    <dbl> <fct>   <dbl>
##  1     1 same       25
##  2     2 same       26
##  3     3 same       17
##  4     4 same       15
##  5     5 same       14
##  6     6 same       17
##  7     7 same       14
##  8     8 same       20
##  9     9 same       11
## 10    10 same       21
## # … with 40 more rows
```
…
```
## Parsed with column specification:
## cols(
##   treatment = col_character(),
##   score = col_double()
## )
```

```r
shirts
```

```
## # A tibble: 125 x 2
##    treatment         score
##    <chr>             <dbl>
##  1 male_seeing_model   6.8
##  2 male_seeing_model   4.7
##  3 male_seeing_model   5.1
##  4 male_seeing_model   4.7
##  5 male_seeing_model   5.5
##  6 male_seeing_model   6  
##  7 male_seeing_model   4.4
##  8 male_seeing_model   6  
##  9 male_seeing_model   5.3
## 10 male_seeing_model   6.3
## # … with 115 more rows
```
…
```r
shirts <- shirts %>% mutate(treatment = factor(treatment))
```

     

and for checking:


```r
shirts
```

```
## # A tibble: 125 x 2
##    treatment         score
##    <fct>             <dbl>
##  1 male_seeing_model   6.8
##  2 male_seeing_model   4.7
##  3 male_seeing_model   5.1
##  4 male_seeing_model   4.7
##  5 male_seeing_model   5.5
##  6 male_seeing_model   6  
##  7 male_seeing_model   4.4
##  8 male_seeing_model   6  
##  9 male_seeing_model   5.3
## 10 male_seeing_model   6.3
## # … with 115 more rows
```
…
```
## Parsed with column specification:
## cols(
##   expenditure = col_character(),
##   improvement = col_double(),
##   last = col_double()
## )
```

```r
productivity
```

```
## # A tibble: 27 x 3
##    expenditure improvement  last
##    <chr>             <dbl> <dbl>
##  1 low                 7.6   8.2
##  2 low                 8.2   7.9
##  3 low                 6.8   7  
##  4 low                 5.8   5.7
##  5 low                 6.9   7.2
##  6 low                 6.6   7  
##  7 low                 6.3   6.5
##  8 low                 7.7   7.9
##  9 low                 6     6.3
## 10 moderate            6.7   8.8
## # … with 17 more rows
```
…
```
## Parsed with column specification:
## cols(
##   drug = col_character(),
##   pre = col_double(),
##   post = col_double()
## )
```

```r
lepro
```

```
## # A tibble: 30 x 3
##    drug    pre  post
##    <chr> <dbl> <dbl>
##  1 A        11     6
##  2 A         6     4
##  3 D         6     0
##  4 D         8     4
##  5 F        16    13
##  6 F        16    12
##  7 A         8     0
##  8 A        10    13
##  9 D         6     2
## 10 D        19    14
## # … with 20 more rows
```
…
