…
```r
urine
```

```
## # A tibble: 45 x 5
##    obesity     x creatinine chloride chlorine
##    <chr>   <int>      <dbl>    <dbl>    <dbl>
##  1 a          24       17.6     5.15      7.5
##  2 a          32       13.4     5.75      7.1
##  3 a          17       20.3     4.35      2.3
##  4 a          30       22.3     7.55      4  
##  5 a          30       20.5     8.5       2  
##  6 a          27       18.5    10.2       2  
##  7 a          25       12.1     5.95     16.8
##  8 a          30       12       6.3      14.5
##  9 a          28       10.1     5.45      0.9
## 10 a          24       14.7     3.75      2  
## # ... with 35 more rows
```
…
