Problems and Solutions in Applied Statistics
…
The second thing in read_delim is the thing that separates
the data values. Often when you use read_delim it’ll be a space.

Take a look at your data frame, by making a new code chunk and
putting the data frame’s name in it (as we did with
mtcars).

Solution

rats

## # A tibble: 30 x 2
##    group   density
##    <chr>     <int>
##  1 Control     611
##  2 Control     621
##  3 Control     614
##  4 Control     593
##  5 Control     593
##  6 Control     653
##  7 Control     600
##  8 Control     554
##  9 Control     603
## 10 Control     569
## # ... with 20 more rows
…
