…
```r
swiss
```

```
## # A tibble: 200 x 7
##    length  left right bottom   top  diag status 
##     <dbl> <dbl> <dbl>  <dbl> <dbl> <dbl> <chr>  
##  1   215.  131   131.    9     9.7  141  genuine
##  2   215.  130.  130.    8.1   9.5  142. genuine
##  3   215.  130.  130.    8.7   9.6  142. genuine
##  4   215.  130.  130.    7.5  10.4  142  genuine
##  5   215   130.  130.   10.4   7.7  142. genuine
##  6   216.  131.  130.    9    10.1  141. genuine
##  7   216.  130.  130.    7.9   9.6  142. genuine
##  8   214.  130.  129.    7.2  10.7  142. genuine
##  9   215.  129.  130.    8.2  11    142. genuine
## 10   215.  130.  130.    9.2  10    141. genuine
## # ... with 190 more rows
```
…
 

You see that the columns that came from matrices have gained two-part names, the first part from the name of the matrix, the second part from the column name within that matrix. Then we can do this:


```r
dd <- bind_cols(urine, as.data.frame(urine.pred))
dd
```

```
## # A tibble: 45 x 13
##    obesity     x creatinine chloride chlorine class posterior.a posterior.b
##  * <chr>   <dbl>      <dbl>    <dbl>    <dbl> <fct>       <dbl>       <dbl>
##  1 a          24       17.6     5.15      7.5 b           0.233      0.412 
##  2 a          32       13.4     5.75      7.1 a           0.360      0.210 
##  3 a          17       20.3     4.35      2.3 b           0.227      0.499 
##  4 a          30       22.3     7.55      4   b           0.294      0.482 
##  5 a          30       20.5     8.5       2   a           0.477      0.326 
##  6 a          27       18.5    10.2       2   a           0.668      0.181 
##  7 a          25       12.1     5.95     16.8 c           0.167      0.208 
##  8 a          30       12       6.3      14.5 c           0.230      0.197 
##  9 a          28       10.1     5.45      0.9 a           0.481      0.0752
## 10 a          24       14.7     3.75      2   a           0.323      0.247 
## # ... with 35 more rows, and 5 more variables: posterior.c <dbl>,
## #   posterior.d <dbl>, x.LD1 <dbl>, x.LD2 <dbl>, x.LD3 <dbl>
```
…
```r
post <- as_tibble(urine.pred$posterior)
ld <- as_tibble(urine.pred$x)
ddd <- bind_cols(urine, class = urine.pred$class, ld, post)
ddd
```

```
## # A tibble: 45 x 13
##    obesity     x creatinine chloride chlorine class    LD1     LD2     LD3     a
##    <chr>   <dbl>      <dbl>    <dbl>    <dbl> <fct>  <dbl>   <dbl>   <dbl> <dbl>
##  1 a          24       17.6     5.15      7.5 b      0.393 -0.329  -0.0704 0.233
##  2 a          32       13.4     5.75      7.1 a     -0.482  0.655   0.177  0.360
##  3 a          17       20.3     4.35      2.3 b      0.975 -0.372  -0.985  0.227
##  4 a          30       22.3     7.55      4   b      2.19   0.207   0.136  0.294
##  5 a          30       20.5     8.5       2   a      2.02   1.12    0.244  0.477
##  6 a          27       18.5    10.2       2   a      1.95   2.09    0.831  0.668
##  7 a          25       12.1     5.95     16.8 c     -0.962 -0.365   1.39   0.167
##  8 a          30       12       6.3      14.5 c     -0.853  0.0890  1.23   0.230
##  9 a          28       10.1     5.45      0.9 a     -1.23   1.95   -0.543  0.481
## 10 a          24       14.7     3.75      2   a     -0.530  0.406  -1.06   0.323
## # ... with 35 more rows, and 3 more variables: b <dbl>, c <dbl>, d <dbl>
```
…
```r
jobs0
```

```
## # A tibble: 244 x 5
##    outdoor social conservative   job    id
##      <dbl>  <dbl>        <dbl> <dbl> <dbl>
##  1      10     22            5     1     1
##  2      14     17            6     1     2
##  3      19     33            7     1     3
##  4      14     29           12     1     4
##  5      14     25            7     1     5
##  6      20     25           12     1     6
##  7       6     18            4     1     7
##  8      13     27            7     1     8
##  9      18     31            9     1     9
## 10      16     35           13     1    10
## # ... with 234 more rows
```
…
       
I lived on the edge and saved my factor `job` into a variable
with the same name as the numeric one. I should check that I now have
the right thing:


```r
jobs
```

```
## # A tibble: 244 x 5
##    outdoor social conservative job         id
##      <dbl>  <dbl>        <dbl> <fct>    <dbl>
##  1      10     22            5 custserv     1
##  2      14     17            6 custserv     2
##  3      19     33            7 custserv     3
##  4      14     29           12 custserv     4
##  5      14     25            7 custserv     5
##  6      20     25           12 custserv     6
##  7       6     18            4 custserv     7
##  8      13     27            7 custserv     8
##  9      18     31            9 custserv     9
## 10      16     35           13 custserv    10
## # ... with 234 more rows
```
…
```r
adhd
```

```
## # A tibble: 29 x 5
##    parent    q1    q2    q3    q4
##    <chr>  <dbl> <dbl> <dbl> <dbl>
##  1 father     2     1     3     1
##  2 mother     1     3     1     1
##  3 father     2     1     3     1
##  4 mother     3     2     3     3
##  5 mother     3     3     2     1
##  6 mother     1     3     3     1
##  7 mother     3     3     1     1
##  8 mother     2     3     1     1
##  9 mother     1     3     3     1
## 10 mother     3     3     3     3
## # ... with 19 more rows
```
…
```r
cornseed
```

```
## # A tibble: 32 x 5
##    field soil  yield water herbicide
##    <dbl> <chr> <dbl> <dbl>     <dbl>
##  1     1 loam   76.7  29.5       7.5
##  2     2 loam   60.5  32.1       6.3
##  3     3 loam   96.1  40.7       4.2
##  4     4 loam   88.1  45.1       4.9
##  5     5 loam   50.2  34.1      11.7
##  6     6 loam   55    31.1       6.9
##  7     7 loam   65.4  21.6       4.3
##  8     8 loam   65.7  27.7       5.3
##  9     9 sandy  67.3  48.3       5.5
## 10    10 sandy  61.3  28.9       6.9
## # ... with 22 more rows
```
…
     

No `field` in here, for reasons discussed above. (I'm not even
sure how you *can* run a discriminant analysis with a factor
variable on the right of the squiggle.) The fields were numbered by
soil type:


```r
cornseed %>% select(field, soil)
```

```
## # A tibble: 32 x 2
##    field soil 
##    <dbl> <chr>
##  1     1 loam 
##  2     2 loam 
##  3     3 loam 
##  4     4 loam 
##  5     5 loam 
##  6     6 loam 
##  7     7 loam 
##  8     8 loam 
##  9     9 sandy
## 10    10 sandy
## # ... with 22 more rows
```
…
```r
athletes
```

```
## # A tibble: 202 x 13
##    Sex   Sport   RCC   WCC    Hc    Hg  Ferr   BMI   SSF `%Bfat`   LBM    Ht
##    <chr> <chr> <dbl> <dbl> <dbl> <dbl> <dbl> <dbl> <dbl>   <dbl> <dbl> <dbl>
##  1 fema~ Netb~  4.56  13.3  42.2  13.6    20  19.2  49      11.3  53.1  177.
##  2 fema~ Netb~  4.15   6    38    12.7    59  21.2 110.     25.3  47.1  173.
##  3 fema~ Netb~  4.16   7.6  37.5  12.3    22  21.4  89      19.4  53.4  176 
##  4 fema~ Netb~  4.32   6.4  37.7  12.3    30  21.0  98.3    19.6  48.8  170.
##  5 fema~ Netb~  4.06   5.8  38.7  12.8    78  21.8 122.     23.1  56.0  183 
##  6 fema~ Netb~  4.12   6.1  36.6  11.8    21  21.4  90.4    16.9  56.4  178.
##  7 fema~ Netb~  4.17   5    37.4  12.7   109  21.5 107.     21.3  53.1  177.
##  8 fema~ Netb~  3.8    6.6  36.5  12.4   102  24.4 157.     26.6  54.4  174.
##  9 fema~ Netb~  3.96   5.5  36.3  12.4    71  22.6 101.     17.9  56.0  174.
## 10 fema~ Netb~  4.44   9.7  41.4  14.1    64  22.8 126.     25.0  51.6  174.
## # ... with 192 more rows, and 1 more variable: Wt <dbl>
```
…
```r
athletesc <- athletes %>% unite(combo, Sport, Sex)
athletesc %>% select(combo, Ht, Wt)
```

```
## # A tibble: 202 x 3
##    combo             Ht    Wt
##    <chr>          <dbl> <dbl>
##  1 Netball_female  177.  59.9
##  2 Netball_female  173.  63  
##  3 Netball_female  176   66.3
##  4 Netball_female  170.  60.7
##  5 Netball_female  183   72.9
##  6 Netball_female  178.  67.9
##  7 Netball_female  177.  67.5
##  8 Netball_female  174.  74.1
##  9 Netball_female  174.  68.2
## 10 Netball_female  174.  68.8
## # ... with 192 more rows
```
…
Extra: there is another column, `SSF`, that begins with S, so the
select-helper thing is not so obviously helpful here. But the two
columns we want start with S followed by either e or p, so we could do this:


```r
athletes %>% unite(combo, matches("^S(e|p)")) %>% select(combo, Ht, Wt)
```

```
## # A tibble: 202 x 3
##    combo             Ht    Wt
##    <chr>          <dbl> <dbl>
##  1 female_Netball  177.  59.9
##  2 female_Netball  173.  63  
##  3 female_Netball  176   66.3
##  4 female_Netball  170.  60.7
##  5 female_Netball  183   72.9
##  6 female_Netball  178.  67.9
##  7 female_Netball  177.  67.5
##  8 female_Netball  174.  74.1
##  9 female_Netball  174.  68.2
## 10 female_Netball  174.  68.8
## # ... with 192 more rows
```
…
(later)

I posted a question on the R Studio community site:
[link](https://community.rstudio.com/t/combining-unite-and-select-if/6033/2)
and got an answer! This is how it goes:


```r
athletes %>% unite(combo, names(select_if(., is.character))) %>% select(combo, Ht, 
    Wt)
```

```
## # A tibble: 202 x 3
##    combo             Ht    Wt
##    <chr>          <dbl> <dbl>
##  1 female_Netball  177.  59.9
##  2 female_Netball  173.  63  
##  3 female_Netball  176   66.3
##  4 female_Netball  170.  60.7
##  5 female_Netball  183   72.9
##  6 female_Netball  178.  67.9
##  7 female_Netball  177.  67.5
##  8 female_Netball  174.  74.1
##  9 female_Netball  174.  68.2
## 10 female_Netball  174.  68.8
## # ... with 192 more rows
```
…
* Male field athletes (7 out of 10 classified correctly)

* Female netball players (13 out of about 23)

* Female rowers (10 out of about 22)

Or you can turn it into a tibble:


```r
tab %>% as_tibble()
```

```
## # A tibble: 289 x 3
##    combo          class            n
##    <chr>          <chr>        <int>
##  1 BBall_female   BBall_female     3
##  2 BBall_male     BBall_female     0
##  3 Field_female   BBall_female     0
##  4 Field_male     BBall_female     0
##  5 Gym_female     BBall_female     0
##  6 Netball_female BBall_female     0
##  7 Row_female     BBall_female     0
##  8 Row_male       BBall_female     0
##  9 Swim_female    BBall_female     0
## 10 Swim_male      BBall_female     0
## # ... with 279 more rows
```

 
This makes the `tidyverse` output, with frequencies. You
probably want to omit the zero ones:


```r
tab %>% as_tibble() %>% filter(n > 0)
```

```
## # A tibble: 70 x 3
##    combo        class            n
##    <chr>        <chr>        <int>
##  1 BBall_female BBall_female     3
##  2 T400m_male   BBall_female     3
##  3 Tennis_male  BBall_female     1
##  4 WPolo_male   BBall_female     1
##  5 BBall_female BBall_male       1
##  6 BBall_male   BBall_male       9
##  7 Field_male   BBall_male       1
##  8 Row_male     BBall_male       2
##  9 Swim_male    BBall_male       4
## 10 T400m_male   BBall_male       1
## # ... with 60 more rows
```
…
There's a subtlety here that will make sense when we do the
corresponding calculation by sport-gender combination. To do
*that*, we put a `group_by(combo)` either before or after
we define `stat` (it doesn't matter which way):


```r
d %>% count(combo, class) %>% group_by(combo) %>% mutate(stat = ifelse(combo == class, 
    "correct", "wrong")) %>% count(stat, wt = n) %>% mutate(proportion = n/sum(n))
```

```
## # A tibble: 27 x 4
## # Groups:   combo [17]
##    combo          stat        n proportion
##    <chr>          <chr>   <int>      <dbl>
##  1 BBall_female   correct     3      0.231
##  2 BBall_female   wrong      10      0.769
##  3 BBall_male     correct     9      0.75 
##  4 BBall_male     wrong       3      0.25 
##  5 Field_female   correct     5      0.714
##  6 Field_female   wrong       2      0.286
##  7 Field_male     correct     7      0.583
##  8 Field_male     wrong       5      0.417
##  9 Gym_female     correct     4      1    
## 10 Netball_female correct    13      0.565
## # ... with 17 more rows
```
…
We don't actually see all the answers, because there are too many of
them. Let's try to get the proportion correct and wrong in their own
columns. This almost works:


```r
d %>% count(combo, class) %>% group_by(combo) %>% mutate(stat = ifelse(combo == class, 
    "correct", "wrong")) %>% count(stat, wt = n) %>% mutate(proportion = n/sum(n)) %>% 
    pivot_wider(names_from = stat, values_from = proportion)
```

```
## # A tibble: 27 x 4
## # Groups:   combo [17]
##    combo              n correct  wrong
##    <chr>          <int>   <dbl>  <dbl>
##  1 BBall_female       3   0.231 NA    
##  2 BBall_female      10  NA      0.769
##  3 BBall_male         9   0.75  NA    
##  4 BBall_male         3  NA      0.25 
##  5 Field_female       5   0.714 NA    
##  6 Field_female       2  NA      0.286
##  7 Field_male         7   0.583 NA    
##  8 Field_male         5  NA      0.417
##  9 Gym_female         4   1     NA    
## 10 Netball_female    13   0.565 NA    
## # ... with 17 more rows
```
…
 
We want to express those `n` values as proportions out of their
actual sport-gender combo, so we group by `combo` before
defining the proportions:


```r
d %>% count(combo, class) %>% mutate(stat = ifelse(combo == class, "correct", "wrong")) %>% 
    group_by(combo) %>% mutate(proportion = n/sum(n))
```

```
## # A tibble: 70 x 5
## # Groups:   combo [17]
##    combo        class              n stat    proportion
##    <chr>        <fct>          <int> <chr>        <dbl>
##  1 BBall_female BBall_female       3 correct     0.231 
##  2 BBall_female BBall_male         1 wrong       0.0769
##  3 BBall_female Netball_female     5 wrong       0.385 
##  4 BBall_female Row_female         1 wrong       0.0769
##  5 BBall_female T400m_male         2 wrong       0.154 
##  6 BBall_female WPolo_male         1 wrong       0.0769
##  7 BBall_male   BBall_male         9 correct     0.75  
##  8 BBall_male   Swim_male          2 wrong       0.167 
##  9 BBall_male   WPolo_male         1 wrong       0.0833
## 10 Field_female Field_female       5 correct     0.714 
## # ... with 60 more rows
```

 

Only pick out the ones that were gotten wrong, and arrange the remaining
proportions in descending order:


```r
d %>% count(combo, class) %>% mutate(stat = ifelse(combo == class, "correct", "wrong")) %>% 
    group_by(combo) %>% mutate(proportion = n/sum(n)) %>% filter(stat == "wrong") %>% 
    arrange(desc(proportion))
```

```
## # A tibble: 59 x 5
## # Groups:   combo [16]
##    combo         class              n stat  proportion
##    <chr>         <fct>          <int> <chr>      <dbl>
##  1 Tennis_male   Row_female         3 wrong      0.75 
##  2 Row_male      WPolo_male        10 wrong      0.667
##  3 TSprnt_male   Netball_female     6 wrong      0.545
##  4 TSprnt_female T400m_female       2 wrong      0.5  
##  5 Swim_female   Netball_female     4 wrong      0.444
##  6 BBall_female  Netball_female     5 wrong      0.385
##  7 Swim_female   T400m_female       3 wrong      0.333
##  8 Swim_male     BBall_male         4 wrong      0.308
##  9 Tennis_female Netball_female     2 wrong      0.286
## 10 Tennis_female T400m_female       2 wrong      0.286
## # ... with 49 more rows
```
…
