…
This is good to go into the cluster analysis (happening later).

There is a `tidyverse` way to do this also. It's actually a lot
like the loop way in its conception, but the coding looks
different. We start by making all combinations of the fruit names with
each other, which is `crossing`:


```r
combos=crossing(fruit=fruit_names,other=fruit_names)
combos
```

```
## # A tibble: 36 x 2
##    fruit  other     
##    <chr>  <chr>     
##  1 Apple  Apple     
##  2 Apple  Banana    
##  3 Apple  Blueberry 
##  4 Apple  Orange    
##  5 Apple  Pear      
##  6 Apple  Strawberry
##  7 Banana Apple     
##  8 Banana Banana    
##  9 Banana Blueberry 
## 10 Banana Orange    
## # ... with 26 more rows
```
…
Now, we want to run this function for each of the pairs in
`combos`. The "for each" is `fruit` and `other`
in parallel, so it's `map2` rather than `map`. Also, the
dissimilarity is a whole number each time, so we need
`map2_int`. So we can do this:


```r
combos %>% mutate(dissim=map2_int(fruit,other,dissim,fruit2))
```

```
## # A tibble: 36 x 3
##    fruit  other      dissim
##    <chr>  <chr>       <int>
##  1 Apple  Apple           0
##  2 Apple  Banana          3
##  3 Apple  Blueberry       3
##  4 Apple  Orange          1
##  5 Apple  Pear            2
##  6 Apple  Strawberry      3
##  7 Banana Apple           3
##  8 Banana Banana          0
##  9 Banana Blueberry       2
## 10 Banana Orange          2
## # ... with 26 more rows
```
…
```r
beer
```

```
## # A tibble: 32 x 11
##    student AnchorS  Bass Becks Corona GordonB Guinness Heineken PetesW
##    <chr>     <int> <int> <int>  <int>   <int>    <int>    <int>  <int>
##  1 S001          5     9     7      1       7        6        6      5
##  2 S008          7     5     6      8       8        4        8      8
##  3 S015          7     7     5      6       6        1        8      4
##  4 S022          7     7     5      2       5        8        4      6
##  5 S029          9     7     3      1       6        8        2      7
##  6 S036          7     6     4      3       7        6        6      5
##  7 S043          5     5     5      6       6        4        7      5
##  8 S050          5     3     1      5       5        5        3      5
##  9 S057          9     3     2      6       4        6        1      5
## 10 S064          2     6     6      5       6        4        8      4
## # ... with 22 more rows, and 2 more variables: SamAdams <int>,
## #   SierraN <int>
```
…
```r
beer
```

```
## # A tibble: 32 x 11
##    student AnchorS  Bass Becks Corona GordonB Guinness Heineken PetesW
##    <chr>     <int> <int> <int>  <int>   <int>    <int>    <int>  <int>
##  1 S001          5     9     7      1       7        6        6      5
##  2 S008          7     5     6      8       8        4        8      8
##  3 S015          7     7     5      6       6        1        8      4
##  4 S022          7     7     5      2       5        8        4      6
##  5 S029          9     7     3      1       6        8        2      7
##  6 S036          7     6     4      3       7        6        6      5
##  7 S043          5     5     5      6       6        4        7      5
##  8 S050          5     3     1      5       5        5        3      5
##  9 S057          9     3     2      6       4        6        1      5
## 10 S064          2     6     6      5       6        4        8      4
## # ... with 22 more rows, and 2 more variables: SamAdams <int>,
## #   SierraN <int>
```
…
```
## See spec(...) for full column specifications.
```

```r
seabed
```

```
## # A tibble: 30 x 30
##       s1    s2    s3    s4    s5    s6    s7    s8    s9   s10   s11   s12
##    <dbl> <dbl> <dbl> <dbl> <dbl> <dbl> <dbl> <dbl> <dbl> <dbl> <dbl> <dbl>
##  1 0     0.457 0.296 0.467 0.477 0.522 0.455 0.933 0.333 0.403 0.357 0.375
##  2 0.457 0     0.481 0.556 0.348 0.229 0.415 0.930 0.222 0.447 0.566 0.215
##  3 0.296 0.481 0     0.467 0.508 0.522 0.491 1     0.407 0.343 0.214 0.325
##  4 0.467 0.556 0.467 0     0.786 0.692 0.870 1     0.639 0.379 0.532 0.549
##  5 0.477 0.348 0.508 0.786 0     0.419 0.212 0.854 0.196 0.564 0.373 0.319
##  6 0.522 0.229 0.522 0.692 0.419 0     0.509 0.933 0.243 0.571 0.530 0.237
##  7 0.455 0.415 0.491 0.870 0.212 0.509 0     0.806 0.317 0.588 0.509 0.358
##  8 0.933 0.930 1     1     0.854 0.933 0.806 0     0.895 1     0.938 0.929
##  9 0.333 0.222 0.407 0.639 0.196 0.243 0.317 0.895 0     0.489 0.349 0.159
## 10 0.403 0.447 0.343 0.379 0.564 0.571 0.588 1     0.489 0     0.449 0.419
## # ... with 20 more rows, and 18 more variables: s13 <dbl>, s14 <dbl>,
## #   s15 <dbl>, s16 <dbl>, s17 <dbl>, s18 <dbl>, s19 <dbl>, s20 <dbl>,
## #   s21 <dbl>, s22 <dbl>, s23 <dbl>, s24 <dbl>, s25 <dbl>, s26 <dbl>,
## #   s27 <dbl>, s28 <dbl>, s29 <dbl>, s30 <dbl>
```
…
```r
seabed.z
```

```
## # A tibble: 30 x 10
##    site      a     b     c     d     e depth pollution  temp sediment
##    <chr> <int> <int> <int> <int> <int> <int>     <dbl> <dbl> <chr>   
##  1 s1        0     2     9    14     2    72       4.8   3.5 s       
##  2 s2       26     4    13    11     0    75       2.8   2.5 c       
##  3 s3        0    10     9     8     0    59       5.4   2.7 c       
##  4 s4        0     0    15     3     0    64       8.2   2.9 s       
##  5 s5       13     5     3    10     7    61       3.9   3.1 c       
##  6 s6       31    21    13    16     5    94       2.6   3.5 g       
##  7 s7        9     6     0    11     2    53       4.6   2.9 s       
##  8 s8        2     0     0     0     1    61       5.1   3.3 c       
##  9 s9       17     7    10    14     6    68       3.9   3.4 c       
## 10 s10       0     5    26     9     0    69      10     3   s       
## # ... with 20 more rows
```
…
*Of course* there is a `tidyverse` way to do
this. Conceptually, it's not all that different from the loop here,
but there is less housekeeping to do. The first thing we need is a
data frame that has all combinations of 1 through 30 with each other,
which you know how to do:


```r
ddd=crossing(i=1:30,j=1:30)
ddd
```

```
## # A tibble: 900 x 2
##        i     j
##    <int> <int>
##  1     1     1
##  2     1     2
##  3     1     3
##  4     1     4
##  5     1     5
##  6     1     6
##  7     1     7
##  8     1     8
##  9     1     9
## 10     1    10
## # ... with 890 more rows
```
…
 

Now we finally see why I wrote `braycurtis.spec` the way I did:
the "for each" things, the `i` and `j` go first in the
`map`, then the function that is run for-each, and finally any
extra input to the function that is the same every time (the data
frame, here). 


```r
ddd
```

```
## # A tibble: 900 x 3
##        i     j    bc
##    <int> <int> <dbl>
##  1     1     1 0    
##  2     1     2 0.457
##  3     1     3 0.296
##  4     1     4 0.467
##  5     1     5 0.477
##  6     1     6 0.522
##  7     1     7 0.455
##  8     1     8 0.933
##  9     1     9 0.333
## 10     1    10 0.403
## # ... with 890 more rows
```
…
 

Check.

This, you'll notice, is "long format", but we want a $30\times 30$
matrix of dissimilarities rather a 900-long data frame. This means
making it wide:


```r
ddd %>% spread(j,bc)
```

```
## # A tibble: 30 x 31
##        i   `1`   `2`   `3`   `4`   `5`   `6`   `7`   `8`   `9`  `10`  `11`
##    <int> <dbl> <dbl> <dbl> <dbl> <dbl> <dbl> <dbl> <dbl> <dbl> <dbl> <dbl>
##  1     1 0     0.457 0.296 0.467 0.477 0.522 0.455 0.933 0.333 0.403 0.357
##  2     2 0.457 0     0.481 0.556 0.348 0.229 0.415 0.930 0.222 0.447 0.566
##  3     3 0.296 0.481 0     0.467 0.508 0.522 0.491 1     0.407 0.343 0.214
##  4     4 0.467 0.556 0.467 0     0.786 0.692 0.870 1     0.639 0.379 0.532
##  5     5 0.477 0.348 0.508 0.786 0     0.419 0.212 0.854 0.196 0.564 0.373
##  6     6 0.522 0.229 0.522 0.692 0.419 0     0.509 0.933 0.243 0.571 0.530
##  7     7 0.455 0.415 0.491 0.870 0.212 0.509 0     0.806 0.317 0.588 0.509
##  8     8 0.933 0.930 1     1     0.854 0.933 0.806 0     0.895 1     0.938
##  9     9 0.333 0.222 0.407 0.639 0.196 0.243 0.317 0.895 0     0.489 0.349
## 10    10 0.403 0.447 0.343 0.379 0.564 0.571 0.588 1     0.489 0     0.449
## # ... with 20 more rows, and 19 more variables: `12` <dbl>, `13` <dbl>,
## #   `14` <dbl>, `15` <dbl>, `16` <dbl>, `17` <dbl>, `18` <dbl>,
## #   `19` <dbl>, `20` <dbl>, `21` <dbl>, `22` <dbl>, `23` <dbl>,
## #   `24` <dbl>, `25` <dbl>, `26` <dbl>, `27` <dbl>, `28` <dbl>,
## #   `29` <dbl>, `30` <dbl>
```
…
```r
swiss
```

```
## # A tibble: 200 x 7
##    length  left right bottom   top  diag status 
##     <dbl> <dbl> <dbl>  <dbl> <dbl> <dbl> <chr>  
##  1   215.  131   131.    9     9.7  141  genuine
##  2   215.  130.  130.    8.1   9.5  142. genuine
##  3   215.  130.  130.    8.7   9.6  142. genuine
##  4   215.  130.  130.    7.5  10.4  142  genuine
##  5   215   130.  130.   10.4   7.7  142. genuine
##  6   216.  131.  130.    9    10.1  141. genuine
##  7   216.  130.  130.    7.9   9.6  142. genuine
##  8   214.  130.  129.    7.2  10.7  142. genuine
##  9   215.  129.  130.    8.2  11    142. genuine
## 10   215.  130.  130.    9.2  10    141. genuine
## # ... with 190 more rows
```
…
```r
cars
```

```
## # A tibble: 32 x 7
##    Carname             mpg  disp    hp  drat    wt  qsec
##    <chr>             <dbl> <dbl> <int> <dbl> <dbl> <dbl>
##  1 Mazda RX4          21    160    110  3.9   2.62  16.5
##  2 Mazda RX4 Wag      21    160    110  3.9   2.88  17.0
##  3 Datsun 710         22.8  108     93  3.85  2.32  18.6
##  4 Hornet 4 Drive     21.4  258    110  3.08  3.22  19.4
##  5 Hornet Sportabout  18.7  360    175  3.15  3.44  17.0
##  6 Valiant            18.1  225    105  2.76  3.46  20.2
##  7 Duster 360         14.3  360    245  3.21  3.57  15.8
##  8 Merc 240D          24.4  147.    62  3.69  3.19  20  
##  9 Merc 230           22.8  141.    95  3.92  3.15  22.9
## 10 Merc 280           19.2  168.   123  3.92  3.44  18.3
## # ... with 22 more rows
```
…
```r
decathlon0
```

```
## # A tibble: 24 x 11
##    name  x100m long.jump shot.put high.jump x400m x110mh discus pole.vault
##    <chr> <dbl>     <dbl>    <dbl>     <dbl> <dbl>  <dbl>  <dbl>      <dbl>
##  1 Asht…  10.4      7.73     14.4      1.93  46.0   13.7   45          5.2
##  2 Dami…  10.4      7.39     14.2      2.05  48.4   14.0   44.1        4.8
##  3 Rico…  10.6      7.22     14.8      1.99  48.0   13.9   48.7        4.9
##  4 Miha…  10.7      7.51     13.4      1.96  47.7   14.6   44.1        4.9
##  5 Mich…  10.7      7.85     14.6      1.99  47.7   14.3   46.4        5  
##  6 Carl…  10.8      7.54     14.5      1.96  48.8   14.0   45.8        5.1
##  7 Gunn…  10.8      7.8      14.7      2.14  48.6   14.6   42.4        4.6
##  8 Eelc…  10.8      7.65     14.1      2.02  48.2   14.2   39.2        5.3
##  9 Pasc…  11.0      7.19     15.9      1.99  48.4   14.5   45.7        4.7
## 10 Will…  11.0      7.44     13.9      2.05  48.3   14.3   43.2        4.5
## # ... with 14 more rows, and 2 more variables: javelin <dbl>, x1500m <dbl>
```
…
```r
bridges0
```

```
## # A tibble: 108 x 13
##    id    river location erected purpose length lanes clear_g t_d  
##    <chr> <chr>    <dbl> <chr>   <chr>   <chr>  <int> <chr>   <chr>
##  1 E1    M            3 CRAFTS  HIGHWAY <NA>       2 N       THRO…
##  2 E2    A           25 CRAFTS  HIGHWAY MEDIUM     2 N       THRO…
##  3 E3    A           39 CRAFTS  AQUEDU… <NA>       1 N       THRO…
##  4 E5    A           29 CRAFTS  HIGHWAY MEDIUM     2 N       THRO…
##  5 E6    M           23 CRAFTS  HIGHWAY <NA>       2 N       THRO…
##  6 E7    A           27 CRAFTS  HIGHWAY SHORT      2 N       THRO…
##  7 E8    A           28 CRAFTS  AQUEDU… MEDIUM     1 N       THRO…
##  8 E9    M            3 CRAFTS  HIGHWAY MEDIUM     2 N       THRO…
##  9 E10   A           39 CRAFTS  AQUEDU… <NA>       1 N       DECK 
## 10 E11   A           29 CRAFTS  HIGHWAY MEDIUM     2 N       THRO…
## # ... with 98 more rows, and 4 more variables: material <chr>,
## #   span <chr>, rel_l <chr>, type <chr>
```
…
Solution


This sounds like a lot to do, but is actually only this:

```r
bridges1 = bridges0 %>% mutate(is_complete=complete.cases(bridges0))
bridges1 %>% select(length,is_complete)
```

```
## # A tibble: 108 x 2
##    length is_complete
##    <chr>  <lgl>      
##  1 <NA>   FALSE      
##  2 MEDIUM TRUE       
##  3 <NA>   FALSE      
##  4 MEDIUM TRUE       
##  5 <NA>   FALSE      
##  6 SHORT  TRUE       
##  7 MEDIUM TRUE       
##  8 MEDIUM TRUE       
##  9 <NA>   FALSE      
## 10 MEDIUM TRUE       
## # ... with 98 more rows
```
…
Solution


We need to pick out only those rows for which
`is_complete` is `TRUE`; picking out rows is
`filter`: 

```r
bridges = bridges1 %>% filter(is_complete)
bridges
```

```
## # A tibble: 70 x 14
##    id    river location erected purpose length lanes clear_g t_d  
##    <chr> <chr>    <dbl> <chr>   <chr>   <chr>  <int> <chr>   <chr>
##  1 E2    A           25 CRAFTS  HIGHWAY MEDIUM     2 N       THRO…
##  2 E5    A           29 CRAFTS  HIGHWAY MEDIUM     2 N       THRO…
##  3 E7    A           27 CRAFTS  HIGHWAY SHORT      2 N       THRO…
##  4 E8    A           28 CRAFTS  AQUEDU… MEDIUM     1 N       THRO…
##  5 E9    M            3 CRAFTS  HIGHWAY MEDIUM     2 N       THRO…
##  6 E11   A           29 CRAFTS  HIGHWAY MEDIUM     2 N       THRO…
##  7 E14   M            6 CRAFTS  HIGHWAY MEDIUM     2 N       THRO…
##  8 E16   A           25 CRAFTS  HIGHWAY MEDIUM     2 N       THRO…
##  9 E18   A           28 CRAFTS  RR      MEDIUM     2 N       THRO…
## 10 E19   A           29 CRAFTS  HIGHWAY MEDIUM     2 N       THRO…
## # ... with 60 more rows, and 5 more variables: material <chr>,
## #   span <chr>, rel_l <chr>, type <chr>, is_complete <lgl>
```

     

This also works:


```r
bridges = bridges1 %>% filter(is_complete==TRUE)
bridges
```

```
## # A tibble: 70 x 14
##    id    river location erected purpose length lanes clear_g t_d  
##    <chr> <chr>    <dbl> <chr>   <chr>   <chr>  <int> <chr>   <chr>
##  1 E2    A           25 CRAFTS  HIGHWAY MEDIUM     2 N       THRO…
##  2 E5    A           29 CRAFTS  HIGHWAY MEDIUM     2 N       THRO…
##  3 E7    A           27 CRAFTS  HIGHWAY SHORT      2 N       THRO…
##  4 E8    A           28 CRAFTS  AQUEDU… MEDIUM     1 N       THRO…
##  5 E9    M            3 CRAFTS  HIGHWAY MEDIUM     2 N       THRO…
##  6 E11   A           29 CRAFTS  HIGHWAY MEDIUM     2 N       THRO…
##  7 E14   M            6 CRAFTS  HIGHWAY MEDIUM     2 N       THRO…
##  8 E16   A           25 CRAFTS  HIGHWAY MEDIUM     2 N       THRO…
##  9 E18   A           28 CRAFTS  RR      MEDIUM     2 N       THRO…
## 10 E19   A           29 CRAFTS  HIGHWAY MEDIUM     2 N       THRO…
## # ... with 60 more rows, and 5 more variables: material <chr>,
## #   span <chr>, rel_l <chr>, type <chr>, is_complete <lgl>
```
…
Solution


First thing, either way, is to find out how many bridges we have left:

```r
bridges
```

```
## # A tibble: 70 x 14
##    id    river location erected purpose length lanes clear_g t_d  
##    <chr> <chr>    <dbl> <chr>   <chr>   <chr>  <int> <chr>   <chr>
##  1 E2    A           25 CRAFTS  HIGHWAY MEDIUM     2 N       THRO…
##  2 E5    A           29 CRAFTS  HIGHWAY MEDIUM     2 N       THRO…
##  3 E7    A           27 CRAFTS  HIGHWAY SHORT      2 N       THRO…
##  4 E8    A           28 CRAFTS  AQUEDU… MEDIUM     1 N       THRO…
##  5 E9    M            3 CRAFTS  HIGHWAY MEDIUM     2 N       THRO…
##  6 E11   A           29 CRAFTS  HIGHWAY MEDIUM     2 N       THRO…
##  7 E14   M            6 CRAFTS  HIGHWAY MEDIUM     2 N       THRO…
##  8 E16   A           25 CRAFTS  HIGHWAY MEDIUM     2 N       THRO…
##  9 E18   A           28 CRAFTS  RR      MEDIUM     2 N       THRO…
## 10 E19   A           29 CRAFTS  HIGHWAY MEDIUM     2 N       THRO…
## # ... with 60 more rows, and 5 more variables: material <chr>,
## #   span <chr>, rel_l <chr>, type <chr>, is_complete <lgl>
```
…
 

and then use `map2_int` (since our dissimilarity function
returns a whole number):


```r
mm = mm %>% mutate(diff=map2_int(i,j,row_diff,bridges))
mm
```

```
## # A tibble: 4,900 x 3
##        i     j  diff
##    <int> <int> <int>
##  1     1     1     0
##  2     1     2     0
##  3     1     3     2
##  4     1     4     4
##  5     1     5     3
##  6     1     6     1
##  7     1     7     2
##  8     1     8     4
##  9     1     9     3
## 10     1    10     1
## # ... with 4,890 more rows
```

 

This is long format, though, so we need to `spread` the
`j` column to get a square array of dissimilarities:


```r
mm = mm %>% spread(j,diff)
mm
```

```
## # A tibble: 70 x 71
##        i   `1`   `2`   `3`   `4`   `5`   `6`   `7`   `8`   `9`  `10`
##    <int> <int> <int> <int> <int> <int> <int> <int> <int> <int> <int>
##  1     1     0     0     2     4     3     1     2     4     3     1
##  2     2     0     0     2     4     3     1     2     4     3     1
##  3     3     2     2     0     6     5     1     2     4     5     1
##  4     4     4     4     6     0     3     5     6     4     3     5
##  5     5     3     3     5     3     0     4     3     3     3     4
##  6     6     1     1     1     5     4     0     1     3     4     0
##  7     7     2     2     2     6     3     1     0     4     5     1
##  8     8     4     4     4     4     3     3     4     0     4     3
##  9     9     3     3     5     3     3     4     5     4     0     4
## 10    10     1     1     1     5     4     0     1     3     4     0
## # ... with 60 more rows, and 60 more variables: `11` <int>,
## #   `12` <int>, `13` <int>, `14` <int>, `15` <int>, `16` <int>,
## #   `17` <int>, `18` <int>, `19` <int>, `20` <int>, `21` <int>,
## #   `22` <int>, `23` <int>, `24` <int>, `25` <int>, `26` <int>,
## #   `27` <int>, `28` <int>, `29` <int>, `30` <int>, `31` <int>,
## #   `32` <int>, `33` <int>, `34` <int>, `35` <int>, `36` <int>,
## #   `37` <int>, `38` <int>, `39` <int>, `40` <int>, `41` <int>,
## #   `42` <int>, `43` <int>, `44` <int>, `45` <int>, `46` <int>,
## #   `47` <int>, `48` <int>, `49` <int>, `50` <int>, `51` <int>,
…
```
## See spec(...) for full column specifications.
```

```r
mmm
```

```
## # A tibble: 70 x 71
##        i   `1`   `2`   `3`   `4`   `5`   `6`   `7`   `8`   `9`  `10`
##    <int> <int> <int> <int> <int> <int> <int> <int> <int> <int> <int>
##  1     1     0     0     2     4     3     1     2     4     3     1
##  2     2     0     0     2     4     3     1     2     4     3     1
##  3     3     2     2     0     6     5     1     2     4     5     1
##  4     4     4     4     6     0     3     5     6     4     3     5
##  5     5     3     3     5     3     0     4     3     3     3     4
##  6     6     1     1     1     5     4     0     1     3     4     0
##  7     7     2     2     2     6     3     1     0     4     5     1
##  8     8     4     4     4     4     3     3     4     0     4     3
##  9     9     3     3     5     3     3     4     5     4     0     4
## 10    10     1     1     1     5     4     0     1     3     4     0
## # ... with 60 more rows, and 60 more variables: `11` <int>,
## #   `12` <int>, `13` <int>, `14` <int>, `15` <int>, `16` <int>,
## #   `17` <int>, `18` <int>, `19` <int>, `20` <int>, `21` <int>,
## #   `22` <int>, `23` <int>, `24` <int>, `25` <int>, `26` <int>,
## #   `27` <int>, `28` <int>, `29` <int>, `30` <int>, `31` <int>,
## #   `32` <int>, `33` <int>, `34` <int>, `35` <int>, `36` <int>,
## #   `37` <int>, `38` <int>, `39` <int>, `40` <int>, `41` <int>,
## #   `42` <int>, `43` <int>, `44` <int>, `45` <int>, `46` <int>,
## #   `47` <int>, `48` <int>, `49` <int>, `50` <int>, `51` <int>,
…
