…
```r
beer
```

```
## # A tibble: 32 x 11
##    student AnchorS  Bass Becks Corona GordonB Guinness Heineken PetesW SamAdams
##    <chr>     <dbl> <dbl> <dbl>  <dbl>   <dbl>    <dbl>    <dbl>  <dbl>    <dbl>
##  1 S001          5     9     7      1       7        6        6      5        9
##  2 S008          7     5     6      8       8        4        8      8        7
##  3 S015          7     7     5      6       6        1        8      4        7
##  4 S022          7     7     5      2       5        8        4      6        8
##  5 S029          9     7     3      1       6        8        2      7        6
##  6 S036          7     6     4      3       7        6        6      5        4
##  7 S043          5     5     5      6       6        4        7      5        5
##  8 S050          5     3     1      5       5        5        3      5        5
##  9 S057          9     3     2      6       4        6        1      5        3
## 10 S064          2     6     6      5       6        4        8      4        4
## # … with 22 more rows, and 1 more variable: SierraN <dbl>
```
…
