…
Solution


Read into a temporary data frame, and then process:

```r
my_url <- "http://www.utsc.utoronto.ca/~butler/d29/weather_2014.csv"
weather.0 <- read_csv(my_url)
weather.0
```

```
## # A tibble: 365 x 14
##    day.count   day month season l.temp h.temp ave.temp l.temp.time h.temp.time
##        <dbl> <dbl> <dbl> <chr>   <dbl>  <dbl>    <dbl> <time>      <time>     
##  1         1     1     1 Winter   12.7   14       13.4 01:25       23:50      
##  2         2     2     1 Winter   11.3   14.7     13.5 07:30       11:15      
##  3         3     3     1 Winter   12.6   14.7     13.6 21:00       14:00      
##  4         4     4     1 Winter    7.7   13.9     11.3 10:35       01:50      
##  5         5     5     1 Winter    8.8   14.6     13   01:40       12:55      
##  6         6     6     1 Winter   11.8   14.4     13.1 19:35       00:05      
##  7         7     7     1 Winter   11.4   14.8     13.5 07:25       14:30      
##  8         8     8     1 Winter   12.4   15.6     14.1 23:50       13:25      
##  9         9     9     1 Winter    9.2   18.4     12.9 07:10       14:05      
## 10        10    10     1 Winter    8.3   14.8     11   07:55       12:20      
## # … with 355 more rows, and 5 more variables: rain <dbl>, ave.wind <dbl>,
## #   gust.wind <dbl>, gust.wind.time <time>, dir.wind <chr>
```

     

There are lots of columns, of which we only want a few:


```r
(weather.0 %>% select(l.temp:ave.temp, rain:gust.wind) -> weather)
```

```
## # A tibble: 365 x 6
##    l.temp h.temp ave.temp  rain ave.wind gust.wind
##     <dbl>  <dbl>    <dbl> <dbl>    <dbl>     <dbl>
##  1   12.7   14       13.4  32       11.4      53.1
##  2   11.3   14.7     13.5  64.8      5.6      41.8
##  3   12.6   14.7     13.6  12.7      4.3      38.6
##  4    7.7   13.9     11.3  20.1     10.3      66  
##  5    8.8   14.6     13     9.4     11.6      51.5
##  6   11.8   14.4     13.1  38.9      9.9      57.9
##  7   11.4   14.8     13.5   2        6.6      38.6
##  8   12.4   15.6     14.1   1.5      5.9      33.8
##  9    9.2   18.4     12.9   0        0.2      16.1
## 10    8.3   14.8     11     0        1.4      24.1
## # … with 355 more rows
```
…
      

```r
as_tibble(weather.1$scores) %>%
  select(1:3) %>%
  bind_cols(weather) %>%
  mutate(day = row_number()) -> d
d %>% print(n = 20)
```

```
## # A tibble: 365 x 10
##    Comp.1   Comp.2   Comp.3 l.temp h.temp ave.temp  rain ave.wind gust.wind   day
##     <dbl>    <dbl>    <dbl>  <dbl>  <dbl>    <dbl> <dbl>    <dbl>     <dbl> <int>
##  1 -2.84   3.13    -0.00402   12.7   14       13.4  32       11.4      53.1     1
##  2 -2.79   2.31     3.64      11.3   14.7     13.5  64.8      5.6      41.8     2
##  3 -1.11   0.255    0.263     12.6   14.7     13.6  12.7      4.3      38.6     3
##  4 -3.62   2.47    -0.992      7.7   13.9     11.3  20.1     10.3      66       4
##  5 -2.67   2.03    -1.68       8.8   14.6     13     9.4     11.6      51.5     5
##  6 -3.09   3.14     0.664     11.8   14.4     13.1  38.9      9.9      57.9     6
##  7 -1.22   0.328   -0.958     11.4   14.8     13.5   2        6.6      38.6     7
##  8 -0.734  0.102   -0.743     12.4   15.6     14.1   1.5      5.9      33.8     8
##  9  0.210 -2.26     0.534      9.2   18.4     12.9   0        0.2      16.1     9
## 10 -0.825 -2.00     0.109      8.3   14.8     11     0        1.4      24.1    10
## 11 -1.01  -2.72     0.294      5.8   14.8      9.5   0.3      1.1      16.1    11
## 12 -1.68   0.0710  -0.0803     9.4   15.2     12.1  10.7      4.7      41.8    12
## 13 -2.12  -0.822    0.653      7.3   12.9     10.2  15.7      3.1      35.4    13
## 14 -1.34   0.00249 -0.169     11.4   13.9     12.8   8.1      4.7      38.6    14
## 15 -2.52   0.929    0.955      9.4   13.1     12    29        5.9      43.5    15
## 16 -2.38   0.200   -0.669      9     12.2     10.8   6.9      5.4      49.9    16
## 17 -3.18   0.626    0.431      7.7   11.4      9.3  25.4      7.2      41.8    17
## 18 -1.95  -1.82     1.28       7.5   10.9      9    17        1.4      24.1    18
## 19 -2.13  -1.60    -0.293      6.4   11.4      8.7   2.5      3.3      32.2    19
## 20 -1.29  -2.62     0.448      6.9   12.2      9.2   2.8      1.1      17.7    20
## # … with 345 more rows
```
…
(h) Find a day that scores low on component 1, and explain briefly why
it came out that way (by looking at the measured variables).
 
Solution


We can do this one and the ones following by running
`arrange` appropriately:

```r
d %>% arrange(Comp.1)
```

```
## # A tibble: 365 x 10
##    Comp.1 Comp.2 Comp.3 l.temp h.temp ave.temp  rain ave.wind gust.wind   day
##     <dbl>  <dbl>  <dbl>  <dbl>  <dbl>    <dbl> <dbl>    <dbl>     <dbl> <int>
##  1  -5.29  4.64  -0.294    7     14.4      9.9  43.2     13        86.9    40
##  2  -4.89  3.50   1.64     6.5   12.9     10.3  57.4     10.3      66      35
##  3  -4.64  5.33  -0.653    9.3   15.3     12.5  43.4     16.6      74      37
##  4  -4.57  2.19  -1.49     5.5   10.7      8.8  17       11.1      69.2    41
##  5  -4.48  2.11   1.90     6.8   11.5      8.9  50.5      6.8      61.2    34
##  6  -4.36  4.45   1.06     9.1   15.2     12.2  55.1     12.8      66      45
##  7  -3.82  2.24   0.532    7.8   12.9     10.7  34.8      8.1      62.8    39
##  8  -3.62  2.47  -0.992    7.7   13.9     11.3  20.1     10.3      66       4
##  9  -3.44  0.576 -2.10     5.7   11.4      8.4   0        9.8      51.5   363
## 10  -3.36  2.19  -0.705    9.1   13       11.3  20.3      9.3      62.8    38
## # … with 355 more rows
```
…
(i) Find a day that scores high on component 2, and explain
briefly why it came out that way.
 
Solution



```r
d %>% arrange(desc(Comp.2))
```

```
## # A tibble: 365 x 10
##     Comp.1 Comp.2  Comp.3 l.temp h.temp ave.temp  rain ave.wind gust.wind   day
##      <dbl>  <dbl>   <dbl>  <dbl>  <dbl>    <dbl> <dbl>    <dbl>     <dbl> <int>
##  1 -4.64     5.33 -0.653     9.3   15.3     12.5  43.4     16.6      74      37
##  2 -5.29     4.64 -0.294     7     14.4      9.9  43.2     13        86.9    40
##  3 -4.36     4.45  1.06      9.1   15.2     12.2  55.1     12.8      66      45
##  4 -1.61     4.33  3.43     17.7   19.1     18.3  68.3      8.3      46.7   261
##  5 -1.02     3.63  1.36     16.8   20.4     19    39.1      6.9      59.5   289
##  6  2.42     3.51 -1.39     20.9   31.2     25.7   0        8.8      46.7   166
##  7 -4.89     3.50  1.64      6.5   12.9     10.3  57.4     10.3      66      35
##  8  0.0301   3.49 -0.0846   18.5   22.3     20.3  22.9     10.3      43.5   260
##  9 -0.745    3.45  1.99     15.9   21.4     19.9  46.2      7.7      45.1   281
## 10 -0.105    3.20 -0.493    17.9   21.8     19.5  16.5      9.3      49.9   290
## # … with 355 more rows
```
…
 

(j) Find a day that scores high on component 3, and explain
briefly why it came out high.
 
Solution



```r
d %>% arrange(desc(Comp.3))
```

```
## # A tibble: 365 x 10
##     Comp.1 Comp.2 Comp.3 l.temp h.temp ave.temp  rain ave.wind gust.wind   day
##      <dbl>  <dbl>  <dbl>  <dbl>  <dbl>    <dbl> <dbl>    <dbl>     <dbl> <int>
##  1 -2.32    2.23    4.92   11.8   17.2     14.6  74.9      2.8      41.8   307
##  2 -2.79    2.31    3.64   11.3   14.7     13.5  64.8      5.6      41.8     2
##  3  0.0819  2.90    3.59   16.1   26.6     20.3  54.4      2        49.9   264
##  4 -1.61    4.33    3.43   17.7   19.1     18.3  68.3      8.3      46.7   261
##  5 -0.759   2.48    3.42   15.7   19.5     18.6  55.6      4.5      37     288
##  6 -2.21    3.12    2.15   12.8   17.7     15.8  50.5      7.2      53.1   317
##  7 -0.745   3.45    1.99   15.9   21.4     19.9  46.2      7.7      45.1   281
##  8 -4.48    2.11    1.90    6.8   11.5      8.9  50.5      6.8      61.2    34
##  9 -1.77    0.693   1.72   10.7   15.6     13    32.8      4        38.6   312
## 10 -4.89    3.50    1.64    6.5   12.9     10.3  57.4     10.3      66      35
## # … with 355 more rows
```
…
```r
air
```

```
## # A tibble: 42 x 7
##     wind solar.radiation    CO    NO   NO2    O3    HC
##    <dbl>           <dbl> <dbl> <dbl> <dbl> <dbl> <dbl>
##  1     8              98     7     2    12     8     2
##  2     7             107     4     3     9     5     3
##  3     7             103     4     3     5     6     3
##  4    10              88     5     2     8    15     4
##  5     6              91     4     2     8    10     3
##  6     8              90     5     2    12    12     4
##  7     9              84     7     4    12    15     5
##  8     5              72     6     4    21    14     4
##  9     7              82     5     1    11    11     3
## 10     8              64     5     2    13     9     4
## # … with 32 more rows
```
…
```r
air.1$scores %>%
  as_tibble() %>%
  bind_cols(air) %>%
  mutate(row = row_number()) -> dd
dd
```

```
## # A tibble: 42 x 15
##     Comp.1 Comp.2 Comp.3 Comp.4  Comp.5 Comp.6 Comp.7  wind solar.radiation    CO    NO   NO2    O3
##      <dbl>  <dbl>  <dbl>  <dbl>   <dbl>  <dbl>  <dbl> <dbl>           <dbl> <dbl> <dbl> <dbl> <dbl>
##  1 -0.953  -0.975 -0.427  1.45   2.04   -0.728 -0.571     8              98     7     2    12     8
##  2 -0.0494 -0.429 -0.293  2.11  -0.783   0.162  0.158     7             107     4     3     9     5
##  3  0.538  -0.649 -0.552  1.88  -0.792   1.12  -0.174     7             103     4     3     5     6
##  4 -0.375  -0.361  2.00   0.189  0.292   1.47  -0.102    10              88     5     2     8    15
##  5  0.197  -1.10  -0.449  0.550 -0.885   0.119 -0.158     6              91     4     2     8    10
##  6 -1.12   -0.230  1.35   0.285 -0.427   0.110 -0.232     8              90     5     2    12    12
##  7 -3.15    1.07   1.62   0.186  0.0374  1.84  -0.415     9              84     7     4    12    15
##  8 -3.98    0.926 -0.379 -0.619 -0.810  -1.29   0.735     5              72     6     4    21    14
##  9 -0.152  -0.974  0.337 -0.145  0.139  -0.681 -0.539     7              82     5     1    11    11
## 10 -0.784   0.939  0.985 -0.632 -0.219  -0.303 -0.375     8              64     5     2    13     9
## # … with 32 more rows, and 2 more variables: HC <dbl>, row <int>
```
…
```r
air %>% mutate_all(~ percent_rank(.)) -> pct_rank
pct_rank
```

```
## # A tibble: 42 x 7
##     wind solar.radiation    CO    NO   NO2    O3    HC
##    <dbl>           <dbl> <dbl> <dbl> <dbl> <dbl> <dbl>
##  1 0.488           0.951 0.902 0.317 0.707 0.439 0    
##  2 0.317           1     0.146 0.683 0.366 0.171 0.171
##  3 0.317           0.976 0.146 0.683 0     0.244 0.171
##  4 0.878           0.829 0.610 0.317 0.244 0.878 0.780
##  5 0.122           0.902 0.146 0.317 0.244 0.561 0.171
##  6 0.488           0.878 0.610 0.317 0.707 0.780 0.780
##  7 0.756           0.707 0.902 0.878 0.707 0.878 1    
##  8 0               0.390 0.829 0.878 1     0.829 0.780
##  9 0.317           0.659 0.610 0     0.610 0.707 0.171
## 10 0.488           0.195 0.610 0.317 0.829 0.512 0.780
## # … with 32 more rows
```
…
```
## 
## ── Column specification ────────────────────────────────────────────────────────────────────────────
## cols(
##   .default = col_double()
## )
## ℹ Use `spec()` for the full column specifications.
```

```r
pers
```

```
## # A tibble: 459 x 45
##       id PERS01 PERS02 PERS03 PERS04 PERS05 PERS06 PERS07 PERS08 PERS09 PERS10 PERS11 PERS12 PERS13
##    <dbl>  <dbl>  <dbl>  <dbl>  <dbl>  <dbl>  <dbl>  <dbl>  <dbl>  <dbl>  <dbl>  <dbl>  <dbl>  <dbl>
##  1     1      5      4      5      1      4      3      3      1      2      3      2      4      5
##  2     2      1      1      5      2      1      2      5      1      5      1      5      3      5
##  3     3      4      1      5      3      3      4      5      3      1      4      2      1      5
##  4     4      4      2      5      1      4      3      4      4      4      5      4      1      4
##  5     5      2      3      5      1      2      4      5      2      3      3      4      2      5
##  6     6      1      1      5      4      3      4      4      2      1      4      3      3      5
##  7     7      3      2      5      1      2      1      1      2      5      4      4      1      5
##  8     8      5      2      4      2      4      1      4      3      3      5      4      1      4
##  9     9      5      1      4      3      2      1      4      4      2      3      4      1      4
## 10    10      4      1      5      1      4      3      4      1      5      4      5      1      5
## # … with 449 more rows, and 31 more variables: PERS14 <dbl>, PERS15 <dbl>, PERS16 <dbl>,
## #   PERS17 <dbl>, PERS18 <dbl>, PERS19 <dbl>, PERS20 <dbl>, PERS21 <dbl>, PERS22 <dbl>,
## #   PERS23 <dbl>, PERS24 <dbl>, PERS25 <dbl>, PERS26 <dbl>, PERS27 <dbl>, PERS28 <dbl>,
## #   PERS29 <dbl>, PERS30 <dbl>, PERS31 <dbl>, PERS32 <dbl>, PERS33 <dbl>, PERS34 <dbl>,
## #   PERS35 <dbl>, PERS36 <dbl>, PERS37 <dbl>, PERS38 <dbl>, PERS39 <dbl>, PERS40 <dbl>,
## #   PERS41 <dbl>, PERS42 <dbl>, PERS43 <dbl>, PERS44 <dbl>
```
…
Another thing you might be concerned about is whether these data are
"tidy" or not. To some extent, it depends on what you are going to
do with it. You could say that the `PERS` columns are all
survey-responses, just to different questions, and you might think of
doing something like this:


```r
pers %>% pivot_longer(-id, names_to="item", values_to="response")
```

```
## # A tibble: 20,196 x 3
##       id item   response
##    <dbl> <chr>     <dbl>
##  1     1 PERS01        5
##  2     1 PERS02        4
##  3     1 PERS03        5
##  4     1 PERS04        1
##  5     1 PERS05        4
##  6     1 PERS06        3
##  7     1 PERS07        3
##  8     1 PERS08        1
##  9     1 PERS09        2
## 10     1 PERS10        3
## # … with 20,186 more rows
```
…
That gives me an idea, though. 


```r
pers %>%
  pivot_longer(-id, names_to="item", values_to="rating")
```

```
## # A tibble: 20,196 x 3
##       id item   rating
##    <dbl> <chr>   <dbl>
##  1     1 PERS01      5
##  2     1 PERS02      4
##  3     1 PERS03      5
##  4     1 PERS04      1
##  5     1 PERS05      4
##  6     1 PERS06      3
##  7     1 PERS07      3
##  8     1 PERS08      1
##  9     1 PERS09      2
## 10     1 PERS10      3
## # … with 20,186 more rows
```
…
```r
pers %>%
  pivot_longer(-id, names_to="item", values_to="rating") %>% 
  group_by(id) %>%
  summarize(m = mean(rating)) %>%
  filter(is.na(m))
```

```
## # A tibble: 26 x 2
##       id     m
##    <dbl> <dbl>
##  1    12    NA
##  2    40    NA
##  3    45    NA
##  4    49    NA
##  5    52    NA
##  6    58    NA
##  7    79    NA
##  8    84    NA
##  9    96    NA
## 10   159    NA
## # … with 16 more rows
```
…
So now we define a column `has_missing` that is true if the
subject has any missing values and false otherwise:


```r
pers %>%
  pivot_longer(-id, names_to="item", values_to="rating") %>% 
  group_by(id) %>%
  summarize(m = mean(rating)) %>%
  mutate(has_missing = is.na(m)) -> pers.hm
pers.hm 
```

```
## # A tibble: 459 x 3
##       id     m has_missing
##    <dbl> <dbl> <lgl>      
##  1     1  3.41 FALSE      
##  2     2  2.98 FALSE      
##  3     3  3.34 FALSE      
##  4     4  3.55 FALSE      
##  5     5  3.32 FALSE      
##  6     6  3.20 FALSE      
##  7     7  2.84 FALSE      
##  8     8  3.18 FALSE      
##  9     9  3.34 FALSE      
## 10    10  3.18 FALSE      
## # … with 449 more rows
```
…
```r
pers %>% bind_cols(pers.hm)
```

```
## New names:
## * id -> id...1
## * id -> id...46
```

```
## # A tibble: 459 x 48
##    id...1 PERS01 PERS02 PERS03 PERS04 PERS05 PERS06 PERS07 PERS08 PERS09 PERS10 PERS11 PERS12 PERS13
##     <dbl>  <dbl>  <dbl>  <dbl>  <dbl>  <dbl>  <dbl>  <dbl>  <dbl>  <dbl>  <dbl>  <dbl>  <dbl>  <dbl>
##  1      1      5      4      5      1      4      3      3      1      2      3      2      4      5
##  2      2      1      1      5      2      1      2      5      1      5      1      5      3      5
##  3      3      4      1      5      3      3      4      5      3      1      4      2      1      5
##  4      4      4      2      5      1      4      3      4      4      4      5      4      1      4
##  5      5      2      3      5      1      2      4      5      2      3      3      4      2      5
##  6      6      1      1      5      4      3      4      4      2      1      4      3      3      5
##  7      7      3      2      5      1      2      1      1      2      5      4      4      1      5
##  8      8      5      2      4      2      4      1      4      3      3      5      4      1      4
##  9      9      5      1      4      3      2      1      4      4      2      3      4      1      4
## 10     10      4      1      5      1      4      3      4      1      5      4      5      1      5
## # … with 449 more rows, and 34 more variables: PERS14 <dbl>, PERS15 <dbl>, PERS16 <dbl>,
## #   PERS17 <dbl>, PERS18 <dbl>, PERS19 <dbl>, PERS20 <dbl>, PERS21 <dbl>, PERS22 <dbl>,
## #   PERS23 <dbl>, PERS24 <dbl>, PERS25 <dbl>, PERS26 <dbl>, PERS27 <dbl>, PERS28 <dbl>,
## #   PERS29 <dbl>, PERS30 <dbl>, PERS31 <dbl>, PERS32 <dbl>, PERS33 <dbl>, PERS34 <dbl>,
## #   PERS35 <dbl>, PERS36 <dbl>, PERS37 <dbl>, PERS38 <dbl>, PERS39 <dbl>, PERS40 <dbl>,
## #   PERS41 <dbl>, PERS42 <dbl>, PERS43 <dbl>, PERS44 <dbl>, id...46 <dbl>, m <dbl>,
## #   has_missing <lgl>
```
…
```r
scores.1 <- as_tibble(pers.ok.1$scores) %>%
  bind_cols(pers.ok) %>%
  mutate(id = row_number())
scores.1
```

```
## # A tibble: 433 x 50
##    Factor1 Factor2 Factor3 Factor4 Factor5    id PERS01 PERS02 PERS03 PERS04 PERS05 PERS06 PERS07
##      <dbl>   <dbl>   <dbl>   <dbl>   <dbl> <int>  <dbl>  <dbl>  <dbl>  <dbl>  <dbl>  <dbl>  <dbl>
##  1  1.11     0.543   0.530  -0.978 -0.528      1      5      4      5      1      4      3      3
##  2  0.930   -1.62   -0.823   1.11  -2.49       2      1      1      5      2      1      2      5
##  3  0.0405  -0.908   1.01    0.415 -0.169      3      4      1      5      3      3      4      5
##  4  0.123   -0.600   0.442   0.753  0.774      4      4      2      5      1      4      3      4
##  5  1.28    -1.30   -0.194  -0.170 -1.11       5      2      3      5      1      2      4      5
##  6  0.671   -2.10    1.09    0.507 -0.0442     6      1      1      5      4      3      4      4
##  7  0.474    0.467  -2.12    0.892 -2.57       7      3      2      5      1      2      1      1
##  8 -0.589    0.747  -0.257   1.18  -0.517      8      5      2      4      2      4      1      4
##  9 -0.836    1.02    0.620   1.36  -0.705      9      5      1      4      3      2      1      4
## 10  0.984    0.298  -1.06    0.681 -0.553     10      4      1      5      1      4      3      4
## # … with 423 more rows, and 37 more variables: PERS08 <dbl>, PERS09 <dbl>, PERS10 <dbl>,
## #   PERS11 <dbl>, PERS12 <dbl>, PERS13 <dbl>, PERS14 <dbl>, PERS15 <dbl>, PERS16 <dbl>,
## #   PERS17 <dbl>, PERS18 <dbl>, PERS19 <dbl>, PERS20 <dbl>, PERS21 <dbl>, PERS22 <dbl>,
## #   PERS23 <dbl>, PERS24 <dbl>, PERS25 <dbl>, PERS26 <dbl>, PERS27 <dbl>, PERS28 <dbl>,
## #   PERS29 <dbl>, PERS30 <dbl>, PERS31 <dbl>, PERS32 <dbl>, PERS33 <dbl>, PERS34 <dbl>,
## #   PERS35 <dbl>, PERS36 <dbl>, PERS37 <dbl>, PERS38 <dbl>, PERS39 <dbl>, PERS40 <dbl>,
## #   PERS41 <dbl>, PERS42 <dbl>, PERS43 <dbl>, PERS44 <dbl>
```
…
