…
```r
vote0
```

```
## # A tibble: 1,257 x 5
##       id class        age   sex    vote        
##    <dbl> <chr>        <chr> <chr>  <chr>       
##  1     1 upper middle >75   male   conservative
##  2     2 upper middle >75   male   conservative
##  3     3 upper middle >75   male   conservative
##  4     4 upper middle >75   male   conservative
##  5     5 upper middle >75   female conservative
##  6     6 upper middle >75   female conservative
##  7     7 upper middle >75   female conservative
##  8     8 upper middle >75   female conservative
##  9     9 upper middle >75   female conservative
## 10    10 upper middle >75   female conservative
## # … with 1,247 more rows
```
…
Solution


I changed my mind about how to do this from last year. Using
`count` is alarmingly more direct than the method I had before:

```r
votes <- vote0 %>% count(class, age, sex, vote)
votes
```

```
## # A tibble: 58 x 5
##    class        age   sex    vote             n
##    <chr>        <chr> <chr>  <chr>        <int>
##  1 lower middle <26   female conservative    13
##  2 lower middle <26   female labour           7
##  3 lower middle <26   male   conservative     9
##  4 lower middle <26   male   labour           9
##  5 lower middle >75   female conservative     9
##  6 lower middle >75   female labour           2
##  7 lower middle >75   male   conservative     8
##  8 lower middle >75   male   labour           4
##  9 lower middle 26-40 female conservative    17
## 10 lower middle 26-40 female labour          13
## # … with 48 more rows
```
…
