Problems and Solutions in Applied Statistics
…
Take a look at what got read in. Do you
have data for all 24 runs?

Solution

Type the name of the data frame in a code chunk (a new one, or
add it to the end of the previous one). Because this is actually
a “tibble”, which is what read_delim reads in,
you’ll only actually see the first 10 lines, but it will tell
you how many lines there are altogether, and you can click on
the appropriate thing to see the rest of it.

juice  

## # A tibble: 24 x 3
##      run sweetness pectin
##    <int>     <dbl>  <int>
##  1     1       5.2    220
##  2     2       5.5    227
##  3     3       6      259
##  4     4       5.9    210
##  5     5       5.8    224
##  6     6       6      215
##  7     7       5.8    231
##  8     8       5.6    268
##  9     9       5.6    239
## 10    10       5.9    212
## # ... with 14 more rows
…
