Problems and Solutions in Applied Statistics
…
This shows you which variables the data set has (some of the names got
a bit mangled), and it shows you that they are all integers except for
the birth weight (a decimal number).

The easiest way to find out how many rows and columns there are is
simply to list the data frame:

bw

## # A tibble: 500 x 10
##    `Father Age` `Mother Age` `Weeks Gestatio… `Pre-natal Visi…
##           <int>        <int>            <int>            <int>
##  1           27           26               38               14
##  2           35           33               40               11
##  3           34           22               37               10
##  4           NA           16               38                9
##  5           35           33               39               12
##  6           32           24               36               12
##  7           33           33               38               15
##  8           38           35               38               16
##  9           28           29               40                5
## 10           NA           19               34               10
## # ... with 490 more rows, and 6 more variables: `Marital Status` <int>,
## #   `Mother Weight Gained` <int>, `Low Birthweight?` <int>, `Weight
## #   (pounds)` <dbl>, `Premie?` <int>, `Few Visits?` <int>
…
