Problems and Solutions in Applied Statistics
…
Read in and display the data. This, I think, is the easiest way.

url="http://www.utsc.utoronto.ca/~butler/c32/compatt.txt"
anxiety=read_delim(url," ")

## Parsed with column specification:
## cols(
##   gender = col_character(),
##   CAS = col_double(),
##   CARS = col_double()
## )

anxiety

## # A tibble: 35 x 3
##    gender   CAS  CARS
##    <chr>  <dbl> <dbl>
##  1 female  2.85  2.9 
##  2 male    2.6   2.32
##  3 female  2.2   1   
##  4 male    2.65  2.58
##  5 male    2.6   2.58
##  6 male    3.2   3.05
##  7 male    3.65  3.74
##  8 female  2.55  1.9 
##  9 male    3.15  3.32
## 10 male    2.8   2.74
## # ... with 25 more rows
…
