Problems and Solutions in Applied Statistics
…
I see this:

myurl="http://www.utsc.utoronto.ca/~butler/c32/pluggedin.txt"
plugged=read_delim(myurl," ")

## Parsed with column specification:
## cols(
##   year = col_integer(),
##   hours = col_integer()
## )

plugged

## # A tibble: 30 x 2
##     year hours
##    <int> <int>
##  1  1999     4
##  2  1999     5
##  3  1999     7
##  4  1999     7
##  5  1999     5
##  6  1999     7
##  7  1999     5
##  8  1999     6
##  9  1999     5
## 10  1999     6
## # ... with 20 more rows
…
