Problems and Solutions in Applied Statistics
…
my_url='http://www.utsc.utoronto.ca/~butler/c32/parking.xlsx'
local="parking.xlsx"
download.file(my_url, local, mode="wb")

When you’ve gotten the spreadsheet into your project folder via one of
those two ways, you go ahead and do this:

library(readxl)
parking=read_excel("parking.xlsx",sheet=2)
parking

## # A tibble: 93 x 2
##    distance gender
##       <dbl> <chr> 
##  1      0.5 male  
##  2      1   male  
##  3      1.5 male  
##  4      1.5 male  
##  5      1.5 male  
##  6      3   male  
##  7      3.5 male  
##  8      5   male  
##  9      6   male  
## 10      6   male  
## # ... with 83 more rows
…
parking2=read_csv("parking2.csv")

## Parsed with column specification:
## cols(
##   distance = col_double(),
##   gender = col_character()
## )

parking2

## # A tibble: 93 x 2
##    distance gender
##       <dbl> <chr> 
##  1      0.5 male  
##  2      1   male  
##  3      1.5 male  
##  4      1.5 male  
##  5      1.5 male  
##  6      3   male  
##  7      3.5 male  
##  8      5   male  
##  9      6   male  
## 10      6   male  
## # ... with 83 more rows
…
