Problems and Solutions in Applied Statistics
…
5.141 Observations: 87

5.142 Variables: 3

5.143 $ Year  1917, 1918, 1919, 1920, 1921, 1922, 1923, 1924, 19…

5.144 $ JulianDate  120.4795, 131.3983, 123.6066, 132.4490, 131.2795, …

5.145 $ Date&Time  “April 30 at 11:30 AM”, “May 11 at 9:33 AM”, “May …
##
## Attaching package: ‘lubridate’
## The following object is masked from ‘package:base’:
##
## date
## # A tibble: 87 x 5
## Year JulianDate Date&Time longdt datetime

##     

## 1 1917 120. April 30 at 11:3… 1917 April 30 a… 1917-04-30 11:30:00
## 2 1918 131. May 11 at 9:33 AM 1918 May 11 at … 1918-05-11 09:33:00
## 3 1919 124. May 3 at 2:33 PM 1919 May 3 at 2… 1919-05-03 14:33:00
## 4 1920 132. May 11 at 10:46 … 1920 May 11 at … 1920-05-11 10:46:00
## 5 1921 131. May 11 at 6:42 AM 1921 May 11 at … 1921-05-11 06:42:00
## 6 1922 133. May 12 at 1:20 PM 1922 May 12 at … 1922-05-12 13:20:00
## 7 1923 129. May 9 at 2:00 AM 1923 May 9 at 2… 1923-05-09 02:00:00
## 8 1924 133. May 11 at 3:10 PM 1924 May 11 at … 1924-05-11 15:10:00
## 9 1925 128. May 7 at 6:32 PM 1925 May 7 at 6… 1925-05-07 18:32:00
## 10 1926 117. April 26 at 4:03… 1926 April 26 a… 1926-04-26 16:03:00
## # … with 77 more rows
## # A tibble: 87 x 3
## JulianDate jd datetime

##   

## 1 120. 120 1917-04-30 11:30:00
## 2 131. 131 1918-05-11 09:33:00
## 3 124. 123 1919-05-03 14:33:00
## 4 132. 132 1920-05-11 10:46:00
## 5 131. 131 1921-05-11 06:42:00
## 6 133. 132 1922-05-12 13:20:00
## 7 129. 129 1923-05-09 02:00:00
## 8 133. 132 1924-05-11 15:10:00
## 9 128. 127 1925-05-07 18:32:00
## 10 117. 116 1926-04-26 16:03:00
## # … with 77 more rows
## # A tibble: 61 x 3
## JulianDate jd datetime

##   

## 1 124. 123 1919-05-03 14:33:00
## 2 133. 132 1922-05-12 13:20:00
## 3 133. 132 1924-05-11 15:10:00
## 4 128. 127 1925-05-07 18:32:00
## 5 117. 116 1926-04-26 16:03:00
## 6 128. 127 1928-05-06 16:25:00
## 7 126. 125 1929-05-05 15:41:00
## 8 129. 128 1930-05-08 19:03:00
## 9 129. 128 1933-05-08 19:30:00
## 10 121. 120 1934-04-30 14:07:00
## # … with 51 more rows
## # A tibble: 61 x 3
## JulianDate jd datetime

##   

## 1 123.607 123 1919-05-03 14:33:00
## 2 132.556 132 1922-05-12 13:20:00
## 3 132.632 132 1924-05-11 15:10:00
## 4 127.773 127 1925-05-07 18:32:00
## 5 116.669 116 1926-04-26 16:03:00
## 6 127.684 127 1928-05-06 16:25:00
## 7 125.654 125 1929-05-05 15:41:00
## 8 128.794 128 1930-05-08 19:03:00
## 9 128.813 128 1933-05-08 19:30:00
## 10 120.588 120 1934-04-30 14:07:00
## # … with 51 more rows
## geom_smooth() using method = ‘loess’ and formula ‘y ~ x’
## Computerized accounting
## Parsed with column specification:
## cols(
## gender = col_character(),
## CAS = col_double(),
## CARS = col_double()
## )
## # A tibble: 35 x 3
## gender CAS CARS
##   
## 1 female 2.85 2.9
## 2 male 2.6 2.32
## 3 female 2.2 1

## 4 male 2.65 2.58
## 5 male 2.6 2.58
## 6 male 3.2 3.05
## 7 male 3.65 3.74
## 8 female 2.55 1.9
## 9 male 3.15 3.32
## 10 male 2.8 2.74
## # … with 25 more rows
…
## yellow = col_double(),
## green = col_double()
## )
## # A tibble: 8 x 5
## plant blue red yellow green
##     
## 1 1 5.34 13.7 4.61 2.72
## 2 2 7.45 13.0 6.63 1.08
## 3 3 7.15 10.2 5.29 3.97
## 4 4 5.53 13.1 5.29 2.66
## 5 5 6.34 11.1 4.76 3.69
## 6 6 7.16 11.4 5.57 1.96
## 7 7 7.77 14.0 6.57 3.38
## 8 8 5.09 13.5 5.25 1.87
## # A tibble: 32 x 3
## plant colour growthrate
##   
## 1 1 blue 5.34
## 2 2 blue 7.45
## 3 3 blue 7.15
## 4 4 blue 5.53
## 5 5 blue 6.34
## 6 6 blue 7.16
## 7 7 blue 7.77
## 8 8 blue 5.09
## 9 1 red 13.7
## 10 2 red 13.0
## # … with 22 more rows
## plant,colour,growthrate
## 1,blue,5.34
## 2,blue,7.45
## 3,blue,7.15
## 4,blue,5.53
## 5,blue,6.34
## 6,blue,7.16
## 7,blue,7.77
…
## disease:Species 1 15.518 41.918 15.518 8.171e-05 *
## —
## Signif. codes: 0 ‘’ 0.001 ’’ 0.01 ’’ 0.05 ‘.’ 0.1 ‘’ 1
## Ken’s cars
## Parsed with column specification:
## cols(
## car = col_character(),
## MPG = col_double(),
## weight = col_double(),
## cylinders = col_integer(),
## hp = col_integer(),
## country = col_character()
## )
## # A tibble: 38 x 6
## car MPG weight cylinders hp country
##      

## 1 Buick Skylark 28.4 2.67 4 90 U.S.

## 2 Dodge Omni 30.9 2.23 4 75 U.S.

## 3 Mercury Zephyr 20.8 3.07 6 85 U.S.

## 4 Fiat Strada 37.3 2.13 4 69 Italy

## 5 Peugeot 694 SL 16.2 3.41 6 133 France
## 6 VW Rabbit 31.9 1.92 4 71 Germany
## 7 Plymouth Horizon 34.2 2.2 4 70 U.S.

## 8 Mazda GLC 34.1 1.98 4 65 Japan

## 9 Buick Estate Wagon 16.9 4.36 8 155 U.S.

## 10 Audi 5000 20.3 2.83 5 103 Germany
## # … with 28 more rows
## # A tibble: 38 x 2
## car country
##  

## 1 Buick Skylark U.S.

## 2 Dodge Omni U.S.

## 3 Mercury Zephyr U.S.

## 4 Fiat Strada Italy

## 5 Peugeot 694 SL France
## 6 VW Rabbit Germany
## 7 Plymouth Horizon U.S.

## 8 Mazda GLC Japan

## 9 Buick Estate Wagon U.S.

## 10 Audi 5000 Germany
## # … with 28 more rows
## # A tibble: 38 x 3
## car cylinders country
##   

## 1 Buick Skylark 4 U.S.

## 2 Dodge Omni 4 U.S.

## 3 Mercury Zephyr 6 U.S.

## 4 Fiat Strada 4 Italy

## 5 Peugeot 694 SL 6 France
## 6 VW Rabbit 4 Germany
## 7 Plymouth Horizon 4 U.S.

## 8 Mazda GLC 4 Japan

## 9 Buick Estate Wagon 8 U.S.

## 10 Audi 5000 5 Germany
## # … with 28 more rows
## # A tibble: 38 x 5
## car MPG weight cylinders country
##     

## 1 Buick Skylark 28.4 2.67 4 U.S.

## 2 Dodge Omni 30.9 2.23 4 U.S.

## 3 Mercury Zephyr 20.8 3.07 6 U.S.

## 4 Fiat Strada 37.3 2.13 4 Italy

## 5 Peugeot 694 SL 16.2 3.41 6 France
## 6 VW Rabbit 31.9 1.92 4 Germany
## 7 Plymouth Horizon 34.2 2.2 4 U.S.

## 8 Mazda GLC 34.1 1.98 4 Japan

## 9 Buick Estate Wagon 16.9 4.36 8 U.S.

## 10 Audi 5000 20.3 2.83 5 Germany
## # … with 28 more rows
…
