Chapter 31 Analysis of covariance | Problems and Solutions in Applied Statistics
…
my_url <- "http://ritsokiguess.site/datafiles/productivity.txt"
productivity <- read_delim(my_url, " ")

## 
## ── Column specification ──────────────────────────────────────────────────────────────────────────────────────────────────────────────────────────────────────────────────────────────────────
## cols(
##   expenditure = col_character(),
##   improvement = col_double(),
##   last = col_double()
## )

productivity

## # A tibble: 27 x 3
##    expenditure improvement  last
##    <chr>             <dbl> <dbl>
##  1 low                 7.6   8.2
##  2 low                 8.2   7.9
##  3 low                 6.8   7  
##  4 low                 5.8   5.7
##  5 low                 6.9   7.2
##  6 low                 6.6   7  
##  7 low                 6.3   6.5
##  8 low                 7.7   7.9
##  9 low                 6     6.3
## 10 moderate            6.7   8.8
## # … with 17 more rows
…
my_url <- "http://ritsokiguess.site/datafiles/leprosy.txt"
lepro <- read_table(my_url)

## 
## ── Column specification ──────────────────────────────────────────────────────────────────────────────────────────────────────────────────────────────────────────────────────────────────────
## cols(
##   drug = col_character(),
##   pre = col_double(),
##   post = col_double()
## )

lepro

## # A tibble: 30 x 3
##    drug    pre  post
##    <chr> <dbl> <dbl>
##  1 A        11     6
##  2 A         6     4
##  3 D         6     0
##  4 D         8     4
##  5 F        16    13
##  6 F        16    12
##  7 A         8     0
##  8 A        10    13
##  9 D         6     2
## 10 D        19    14
## # … with 20 more rows
…
