Chapter 13 Analysis of variance | Problems and Solutions in Applied Statistics
…
read_csv:

my_url <- "http://ritsokiguess.site/datafiles/movie-lengths.csv"
movies <- read_csv(my_url)

## 
## ── Column specification ──────────────────────────────────────────────────────────────────────────────────────────────────────────────────────────────────────────────────────────────────────
## cols(
##   length = col_double(),
##   rating = col_character()
## )

movies

## # A tibble: 60 x 2
##    length rating
##     <dbl> <chr> 
##  1     25 G     
##  2     75 G     
##  3     88 G     
##  4     63 G     
##  5     76 G     
##  6     97 G     
##  7     68 G     
##  8     82 G     
##  9     98 G     
## 10     74 G     
## # … with 50 more rows
…
my_url <- "http://ritsokiguess.site/datafiles/movie-lengths.csv"
movies <- read_csv(my_url)

## 
## ── Column specification ──────────────────────────────────────────────────────────────────────────────────────────────────────────────────────────────────────────────────────────────────────
## cols(
##   length = col_double(),
##   rating = col_character()
## )

movies

## # A tibble: 60 x 2
##    length rating
##     <dbl> <chr> 
##  1     25 G     
##  2     75 G     
##  3     88 G     
##  4     63 G     
##  5     76 G     
##  6     97 G     
##  7     68 G     
##  8     82 G     
##  9     98 G     
## 10     74 G     
## # … with 50 more rows
…
Solution

We are combining several columns into one, so this is pivot_longer:

caffeine.untidy %>% 
  pivot_longer(-Sub, names_to = "amount", values_to = "score") -> caffeine

I didn’t ask you to list the resulting data frame, but it is smart to
at least look for yourself, to make sure pivot_longer has done
what you expected.

caffeine

## # A tibble: 36 x 3
##      Sub amount   score
##    <dbl> <chr>    <dbl>
##  1     1 High        72
##  2     1 Moderate    68
##  3     1 None        68
##  4     2 High        65
##  5     2 Moderate    80
##  6     2 None        74
##  7     3 High        68
##  8     3 Moderate    64
##  9     3 None        59
## 10     4 High        83
## # … with 26 more rows
…
This is (evidently) a .csv, so:

my_url <- "http://ritsokiguess.site/datafiles/reggae.csv"
reggae <- read_csv(my_url)

## 
## ── Column specification ──────────────────────────────────────────────────────────────────────────────────────────────────────────────────────────────────────────────────────────────────────
## cols(
##   home = col_character(),
##   rating = col_double()
## )

reggae

## # A tibble: 729 x 2
##    home     rating
##    <chr>     <dbl>
##  1 big city      1
##  2 big city      2
##  3 big city      2
##  4 big city      2
##  5 big city      2
##  6 big city      2
##  7 big city      2
##  8 big city      2
##  9 big city      3
## 10 big city      3
## # … with 719 more rows
…
The definition of sim happens by group, or rowwise, by home (however you want to look at it). Next, we need to spread out those sim values so that we’ll have one row per bootstrap sample:

reggae %>% 
  nest_by(home) %>% 
  mutate(sim = list(1:1000)) %>% 
  unnest(sim) 

## # A tibble: 4,000 x 3
## # Groups:   home [4]
##    home                   data   sim
##    <chr>    <list<tibble[,1]>> <int>
##  1 big city           [89 × 1]     1
##  2 big city           [89 × 1]     2
##  3 big city           [89 × 1]     3
##  4 big city           [89 × 1]     4
##  5 big city           [89 × 1]     5
##  6 big city           [89 × 1]     6
##  7 big city           [89 × 1]     7
##  8 big city           [89 × 1]     8
##  9 big city           [89 × 1]     9
## 10 big city           [89 × 1]    10
## # … with 3,990 more rows
…
Exactly the usual:

my_url <- "http://ritsokiguess.site/datafiles/gss_tv.csv"
gss <- read_csv(my_url)

## 
## ── Column specification ──────────────────────────────────────────────────────────────────────────────────────────────────────────────────────────────────────────────────────────────────────
## cols(
##   degree = col_character(),
##   tvhours = col_double()
## )

gss

## # A tibble: 905 x 2
##    degree   tvhours
##    <chr>      <dbl>
##  1 HSorLess       1
##  2 HSorLess       1
##  3 HSorLess       4
##  4 HSorLess       3
##  5 HSorLess       6
##  6 College        1
##  7 HSorLess       5
##  8 College        1
##  9 College        3
## 10 HSorLess       1
## # … with 895 more rows
…
my_url <- "http://ritsokiguess.site/datafiles/writers.csv"
writers <- read_csv(my_url)

## 
## ── Column specification ──────────────────────────────────────────────────────────────────────────────────────────────────────────────────────────────────────────────────────────────────────
## cols(
##   Type1 = col_double(),
##   Type = col_character(),
##   Age = col_double()
## )

writers

## # A tibble: 123 x 3
##    Type1 Type     Age
##    <dbl> <chr>  <dbl>
##  1     1 Novels    57
##  2     1 Novels    90
##  3     1 Novels    67
##  4     1 Novels    56
##  5     1 Novels    90
##  6     1 Novels    72
##  7     1 Novels    56
##  8     1 Novels    90
##  9     1 Novels    80
## 10     1 Novels    74
## # … with 113 more rows
…
The usual. This is a straightforward one:

my_url <- "http://ritsokiguess.site/datafiles/student_relig.csv"
student <- read_csv(my_url)

## 
## ── Column specification ──────────────────────────────────────────────────────────────────────────────────────────────────────────────────────────────────────────────────────────────────────
## cols(
##   ReligImp = col_character(),
##   StudyHrs = col_double()
## )

student

## # A tibble: 686 x 2
##    ReligImp StudyHrs
##    <chr>       <dbl>
##  1 Fairly          3
##  2 Fairly         30
##  3 Fairly         16
##  4 Not             4
##  5 Not            12
##  6 Fairly         20
##  7 Fairly          4
##  8 Not            15
##  9 Fairly          7
## 10 Fairly         40
## # … with 676 more rows
…
## 
## ── Column specification ──────────────────────────────────────────────────────────────────────────────────────────────────────────────────────────────────────────────────────────────────────
## cols(
##   Sex = col_character(),
##   GPA = col_double(),
##   ReligImp = col_character(),
##   MissClass = col_double(),
##   Seat = col_character(),
##   PartyDays = col_double(),
##   StudyHrs = col_double()
## )

student0

## # A tibble: 690 x 7
##    Sex      GPA ReligImp MissClass Seat   PartyDays StudyHrs
##    <chr>  <dbl> <chr>        <dbl> <chr>      <dbl>    <dbl>
##  1 Female  3.7  Fairly           1 Back           5        3
##  2 Male    3.2  Fairly           3 Front          3       30
##  3 Female  3.01 Fairly           0 Middle         8       16
##  4 Female  3.77 Not              0 Middle         0        4
##  5 Male    3.28 Not              0 Middle         8       12
##  6 Female  2.8  Fairly           0 Middle         2       20
##  7 Male    2.5  Fairly           3 Back           1        4
##  8 Male    3.11 Not              0 Front          2       15
##  9 Male    3.15 Fairly           2 Back          15        7
## 10 Male    3.44 Fairly           0 Middle         1       40
## # … with 680 more rows
…
For factors, you also get how many observations there are in each category, and the number of missing values, which we didn’t get before.
However, ReligImp does not have any missing values.

I said there were four missing values for study hours, that is, four students who left that blank on their survey.
We want to get rid of those students (that is, remove those whole rows), and, to simplify things for you, let’s keep only the study hours and importance of religion columns. That goes like this:

student0 %>% drop_na(StudyHrs) %>% 
select(ReligImp, StudyHrs)

## # A tibble: 686 x 2
##    ReligImp StudyHrs
##    <chr>       <dbl>
##  1 Fairly          3
##  2 Fairly         30
##  3 Fairly         16
##  4 Not             4
##  5 Not            12
##  6 Fairly         20
##  7 Fairly          4
##  8 Not            15
##  9 Fairly          7
## 10 Fairly         40
## # … with 676 more rows
…
