Problems and Solutions in Applied Statistics
…
Extra: in case you are wondering where the parameters for the prior came from: in this case, I looked on the Wikipedia page for the beta distribution and saw that \(\alpha=\beta=2\) is a good shape, so I used that.
In practice, getting a reasonable prior is a more difficult problem, called “elicitation”.
What you have to do is ask a subject matter expert what they think p might be, giving you a range of values such as a guessed-at 95% confidence interval, like “I think p is almost certainly between 0.1 and 0.6”.
Then you as a statistician have to choose values for alpha and beta that match this, probably by trial and error.
The beta distribution is part of R, so this is doable, for example like this:

crossing(alpha = 1:10, beta = 1:10) %>%
  mutate(
    lower = qbeta(0.025, alpha, beta),
    upper = qbeta(0.975, alpha, beta)
  ) %>%
  mutate(sse = (lower - 0.1)^2 + (upper - 0.6)^2) %>%
  arrange(sse)

## # A tibble: 100 x 5
##    alpha  beta  lower upper      sse
##    <int> <int>  <dbl> <dbl>    <dbl>
##  1     4     8 0.109  0.610 0.000181
##  2     3     7 0.0749 0.600 0.000632
##  3     4     9 0.0992 0.572 0.000793
##  4     5    10 0.128  0.581 0.00112 
##  5     5     9 0.139  0.614 0.00169 
##  6     3     6 0.0852 0.651 0.00280 
##  7     3     8 0.0667 0.556 0.00303 
##  8     4     7 0.122  0.652 0.00322 
##  9     4    10 0.0909 0.538 0.00391 
## 10     6    10 0.163  0.616 0.00428 
## # … with 90 more rows
…
