Chapter 25 Bayesian Statistics with Stan | Problems and Solutions in Applied Statistics
…
Extra: in case you are wondering where the parameters for the prior came from: in this case, I looked on the Wikipedia page for the beta distribution and saw that \(\alpha=\beta=2\) is a good shape, so I used that.
In practice, getting a reasonable prior is a more difficult problem, called “elicitation”.
What you have to do is ask a subject matter expert what they think p might be, giving you a range of values such as a guessed-at 95% confidence interval, like “I think p is almost certainly between 0.1 and 0.6”.
Then you as a statistician have to choose values for alpha and beta that match this, probably by trial and error.
The beta distribution is part of R, so this is doable, for example like this:

crossing(alpha = 1:10, beta = 1:10) %>%
  mutate(
    lower = qbeta(0.025, alpha, beta),
    upper = qbeta(0.975, alpha, beta)
  ) %>%
  mutate(sse = (lower - 0.1)^2 + (upper - 0.6)^2) %>%
  arrange(sse)

## # A tibble: 100 x 5
##    alpha  beta  lower upper      sse
##    <int> <int>  <dbl> <dbl>    <dbl>
##  1     4     8 0.109  0.610 0.000181
##  2     3     7 0.0749 0.600 0.000632
##  3     4     9 0.0992 0.572 0.000793
##  4     5    10 0.128  0.581 0.00112 
##  5     5     9 0.139  0.614 0.00169 
##  6     3     6 0.0852 0.651 0.00280 
##  7     3     8 0.0667 0.556 0.00303 
##  8     4     7 0.122  0.652 0.00322 
##  9     4    10 0.0909 0.538 0.00391 
## 10     6    10 0.163  0.616 0.00428 
## # … with 90 more rows
…
\(\blacksquare\)

What can we say about the vocabulary size of a randomly
selected child of age 5 (a new one, not the one in the original data
set)? Use an appropriate predictive distribution.

Solution

If you have done a regression course, you might recognize this as being the Bayesian version of a prediction interval. How might we make a predictive distribution for this? Well, first we need to extract the sampled values from the posteriors:

as_draws_df(reg.1$draws()) %>%
  as_tibble() -> sims
sims

## # A tibble: 4,000 x 7
##     lp__     a     b sigma .chain .iteration .draw
##    <dbl> <dbl> <dbl> <dbl>  <int>      <int> <int>
##  1  372. -666.  564.  217.      1          1     1
##  2  374. -576.  493.  188.      1          2     2
##  3  374. -631.  543.  186.      1          3     3
##  4  375. -596.  505.  193.      1          4     4
##  5  375. -580.  521.  195.      1          5     5
##  6  374. -503.  490.  194.      1          6     6
##  7  372. -545.  472.  208.      1          7     7
##  8  374. -507.  488.  215.      1          8     8
##  9  374. -645.  509.  184.      1          9     9
## 10  374. -615.  539.  172.      1         10    10
## # … with 3,990 more rows

and now we need to simulate some response values for our notional child of age 5. That means simulating for an x of 5, using each of those values of a, b and sigma:

sims %>%
  rowwise() %>% 
  mutate(sim_vocab = rnorm(1, a + b * 5, sigma)) -> sims2
sims2

## # A tibble: 4,000 x 8
## # Rowwise: 
##     lp__     a     b sigma .chain .iteration .draw sim_vocab
##    <dbl> <dbl> <dbl> <dbl>  <int>      <int> <int>     <dbl>
##  1  372. -666.  564.  217.      1          1     1     1959.
##  2  374. -576.  493.  188.      1          2     2     1859.
##  3  374. -631.  543.  186.      1          3     3     2247.
##  4  375. -596.  505.  193.      1          4     4     1766.
##  5  375. -580.  521.  195.      1          5     5     1706.
##  6  374. -503.  490.  194.      1          6     6     2163.
##  7  372. -545.  472.  208.      1          7     7     1425.
##  8  374. -507.  488.  215.      1          8     8     1909.
##  9  374. -645.  509.  184.      1          9     9     2127.
## 10  374. -615.  539.  172.      1         10    10     2200.
## # … with 3,990 more rows
…
The posterior predictive distribution is rather odd here: the only possible values that can be observed are 0 and 1. Nonetheless, obtain the posterior predictive distribution for these data, and explain briefly why it is not surprising that it came out as it did.

Solution

With cmdstanr, start from what I called bern.2.40

The way to obtain the (sampled) posterior predictive distribution is to get the posterior distribution of values of \(p\) in a dataframe, and make a new column as random values from the data-generating mechanism (here Bernoulli). This is easier to do and then talk about:

bern.2 %>% 
  as_tibble() %>% 
  mutate(x = rbernoulli(4000, p)) -> ppd
ppd

## # A tibble: 4,000 x 6
##     lp__     p .chain .iteration .draw x    
##    <dbl> <dbl>  <int>      <int> <int> <lgl>
##  1 -7.64 0.669      1          1     1 FALSE
##  2 -7.64 0.669      1          2     2 FALSE
##  3 -7.99 0.773      1          3     3 TRUE 
##  4 -7.75 0.600      1          4     4 TRUE 
##  5 -9.43 0.877      1          5     5 TRUE 
##  6 -9.45 0.878      1          6     6 TRUE 
##  7 -7.89 0.758      1          7     7 TRUE 
##  8 -8.52 0.825      1          8     8 TRUE 
##  9 -8.34 0.811      1          9     9 TRUE 
## 10 -7.65 0.683      1         10    10 FALSE
## # … with 3,990 more rows
…
which shows the majority of successes in the posterior predictive distribution. The idea is that the data and the posterior predictive distribution ought to be similar, and we did indeed have a majority of successes in our data as well.

You might have been perplexed by the 4000 in the code above. bernoulli is vectorized, meaning that if you give it a vector of values for p, it will generate Bernoulli trials for each one in turn, and the whole result should be 4000 values long altogether. We’ll see a way around that in a moment, but you could also do this using rbinom (random binomials) if you do it right:

bern.2 %>% 
  as_tibble() %>% 
  mutate(x = rbinom(4000, 1, p)) 

## # A tibble: 4,000 x 6
##     lp__     p .chain .iteration .draw     x
##    <dbl> <dbl>  <int>      <int> <int> <int>
##  1 -7.64 0.669      1          1     1     1
##  2 -7.64 0.669      1          2     2     1
##  3 -7.99 0.773      1          3     3     1
##  4 -7.75 0.600      1          4     4     1
##  5 -9.43 0.877      1          5     5     0
##  6 -9.45 0.878      1          6     6     1
##  7 -7.89 0.758      1          7     7     0
##  8 -8.52 0.825      1          8     8     1
##  9 -8.34 0.811      1          9     9     0
## 10 -7.65 0.683      1         10    10     0
## # … with 3,990 more rows

There are 4000 random binomials altogether, and each one has one trial. This is confusing, and a less confusing way around this is to work one row at time with rowwise:

bern.2 %>% 
  as_tibble() %>% 
  rowwise() %>% 
  mutate(x = rbernoulli(1, p))

## # A tibble: 4,000 x 6
## # Rowwise: 
##     lp__     p .chain .iteration .draw x    
##    <dbl> <dbl>  <int>      <int> <int> <lgl>
##  1 -7.64 0.669      1          1     1 FALSE
##  2 -7.64 0.669      1          2     2 TRUE 
##  3 -7.99 0.773      1          3     3 TRUE 
##  4 -7.75 0.600      1          4     4 FALSE
##  5 -9.43 0.877      1          5     5 TRUE 
##  6 -9.45 0.878      1          6     6 TRUE 
##  7 -7.89 0.758      1          7     7 TRUE 
##  8 -8.52 0.825      1          8     8 FALSE
##  9 -8.34 0.811      1          9     9 FALSE
## 10 -7.65 0.683      1         10    10 TRUE 
## # … with 3,990 more rows

or

bern.2 %>% 
  as_tibble() %>% 
  rowwise() %>%
  mutate(x = rbinom(1, 1, p)) 

## # A tibble: 4,000 x 6
## # Rowwise: 
##     lp__     p .chain .iteration .draw     x
##    <dbl> <dbl>  <int>      <int> <int> <int>
##  1 -7.64 0.669      1          1     1     1
##  2 -7.64 0.669      1          2     2     1
##  3 -7.99 0.773      1          3     3     1
##  4 -7.75 0.600      1          4     4     1
##  5 -9.43 0.877      1          5     5     1
##  6 -9.45 0.878      1          6     6     1
##  7 -7.89 0.758      1          7     7     1
##  8 -8.52 0.825      1          8     8     1
##  9 -8.34 0.811      1          9     9     1
## 10 -7.65 0.683      1         10    10     0
## # … with 3,990 more rows
…
Knowing that Stan only has real and int, it labels the groups with numbers, and keeps track of how many groups there are as well as how many observations. These are all things that Stan needs to know. See slides 32 and 34 of my lecture notes, where I prepare to fit an ANOVA model. The tidybayes way is, I have to say, much cleaner than the way I did it in the lecture notes. After you have fitted the model, tidybayes lets you go back and re-associate the real group names with the ones Stan used, so that you could get a posterior mean and interval for each of the two groups.

After obtaining the posterior distribution, tidybayes also helps in understanding it. This is how you get hold of the sampled values. Install laRs using

devtools::install_github("Agasax/laRs")

library(laRs) # i
bern.2 %>% tidy_cmdstanr() %>% 
  spread_draws(p)

## # A tibble: 4,000 x 4
##    .chain .iteration .draw     p
##     <int>      <int> <int> <dbl>
##  1      1          1     1 0.669
##  2      1          2     2 0.669
##  3      1          3     3 0.773
##  4      1          4     4 0.600
##  5      1          5     5 0.877
##  6      1          6     6 0.878
##  7      1          7     7 0.758
##  8      1          8     8 0.825
##  9      1          9     9 0.811
## 10      1         10    10 0.683
## # … with 3,990 more rows
…
