Problems and Solutions in Applied Statistics
…
This shows you which variables the data set has (some of the names got
a bit mangled), and it shows you that they are all integers except for
the birth weight (a decimal number).

The easiest way to find out how many rows and columns there are is
simply to list the data frame:

bw

## # A tibble: 500 x 10
##    `Father Age` `Mother Age` `Weeks Gestatio… `Pre-natal Visi…
##           <int>        <int>            <int>            <int>
##  1           27           26               38               14
##  2           35           33               40               11
##  3           34           22               37               10
##  4           NA           16               38                9
##  5           35           33               39               12
##  6           32           24               36               12
##  7           33           33               38               15
##  8           38           35               38               16
##  9           28           29               40                5
## 10           NA           19               34               10
## # ... with 490 more rows, and 6 more variables: `Marital Status` <int>,
## #   `Mother Weight Gained` <int>, `Low Birthweight?` <int>, `Weight
## #   (pounds)` <dbl>, `Premie?` <int>, `Few Visits?` <int>
…
## Warning in rbind(names(probs), probs_f): number of columns of result is not
## a multiple of vector length (arg 1)

## Warning: 87 parsing failures.
## row # A tibble: 5 x 5 col     row col   expected  actual    file                                     expected   <int> <chr> <chr>     <chr>     <chr>                                    actual 1     1 <NA>  1 columns 5 columns 'http://www.utsc.utoronto.ca/~butler/c3… file 2     2 <NA>  1 columns 5 columns 'http://www.utsc.utoronto.ca/~butler/c3… row 3     3 <NA>  1 columns 5 columns 'http://www.utsc.utoronto.ca/~butler/c3… col 4     4 <NA>  1 columns 5 columns 'http://www.utsc.utoronto.ca/~butler/c3… expected 5     5 <NA>  1 columns 5 columns 'http://www.utsc.utoronto.ca/~butler/c3…
## ... ................. ... .......................................................................... ........ .......................................................................... ...... .......................................................................... .... .......................................................................... ... .......................................................................... ... .......................................................................... ........ ..........................................................................
## See problems(...) for more details.

Ouch! A hint as to what went wrong comes from looking at the read-in
data frame:

x

## # A tibble: 87 x 1
##    `Year\tJulianDate\tDate&Time`
##    <chr>                        
##  1 "1917\t120.4795\tApril"      
##  2 "1918\t131.3983\tMay"        
##  3 "1919\t123.6066\tMay"        
##  4 "1920\t132.4490\tMay"        
##  5 "1921\t131.2795\tMay"        
##  6 "1922\t132.5559\tMay"        
##  7 "1923\t129.0837\tMay"        
##  8 "1924\t132.6323\tMay"        
##  9 "1925\t127.7726\tMay"        
## 10 "1926\t116.6691\tApril"      
## # ... with 77 more rows

Those “= symbols mean ``tab character”, which is our hint that
the values were separated by tabs rather than spaces.

More detail (if you can bear to see it) is here:

problems(x)

## # A tibble: 87 x 5
##      row col   expected  actual   file                                    
##    <int> <chr> <chr>     <chr>    <chr>                                   
##  1     1 <NA>  1 columns 5 colum… 'http://www.utsc.utoronto.ca/~butler/c3…
##  2     2 <NA>  1 columns 5 colum… 'http://www.utsc.utoronto.ca/~butler/c3…
##  3     3 <NA>  1 columns 5 colum… 'http://www.utsc.utoronto.ca/~butler/c3…
##  4     4 <NA>  1 columns 5 colum… 'http://www.utsc.utoronto.ca/~butler/c3…
##  5     5 <NA>  1 columns 5 colum… 'http://www.utsc.utoronto.ca/~butler/c3…
##  6     6 <NA>  1 columns 5 colum… 'http://www.utsc.utoronto.ca/~butler/c3…
##  7     7 <NA>  1 columns 5 colum… 'http://www.utsc.utoronto.ca/~butler/c3…
##  8     8 <NA>  1 columns 5 colum… 'http://www.utsc.utoronto.ca/~butler/c3…
##  9     9 <NA>  1 columns 5 colum… 'http://www.utsc.utoronto.ca/~butler/c3…
## 10    10 <NA>  1 columns 5 colum… 'http://www.utsc.utoronto.ca/~butler/c3…
## # ... with 77 more rows
…
Find a way of displaying how many rows and columns your
data frame has, and some of the values. Describe the first and last
of the variables that
you appear to have.

Solution

The easiest is just to display the tibble:

nenana

## # A tibble: 87 x 3
##     Year JulianDate `Date&Time`         
##    <int>      <dbl> <chr>               
##  1  1917       120. April 30 at 11:30 AM
##  2  1918       131. May 11 at 9:33 AM   
##  3  1919       124. May 3 at 2:33 PM    
##  4  1920       132. May 11 at 10:46 AM  
##  5  1921       131. May 11 at 6:42 AM   
##  6  1922       133. May 12 at 1:20 PM   
##  7  1923       129. May 9 at 2:00 AM    
##  8  1924       133. May 11 at 3:10 PM   
##  9  1925       128. May 7 at 6:32 PM    
## 10  1926       117. April 26 at 4:03 PM 
## # ... with 77 more rows
…
library(lubridate)

## 
## Attaching package: 'lubridate'

## The following object is masked from 'package:base':
## 
##     date

nenana %>% 
mutate(longdt=str_c(Year," ",`Date&Time`)) %>%
mutate(datetime=ymd_hm(longdt,tz="America/Anchorage"))

## # A tibble: 87 x 5
##     Year JulianDate `Date&Time`       longdt           datetime           
##    <int>      <dbl> <chr>             <chr>            <dttm>             
##  1  1917       120. April 30 at 11:3… 1917 April 30 a… 1917-04-30 11:30:00
##  2  1918       131. May 11 at 9:33 AM 1918 May 11 at … 1918-05-11 09:33:00
##  3  1919       124. May 3 at 2:33 PM  1919 May 3 at 2… 1919-05-03 14:33:00
##  4  1920       132. May 11 at 10:46 … 1920 May 11 at … 1920-05-11 10:46:00
##  5  1921       131. May 11 at 6:42 AM 1921 May 11 at … 1921-05-11 06:42:00
##  6  1922       133. May 12 at 1:20 PM 1922 May 12 at … 1922-05-12 13:20:00
##  7  1923       129. May 9 at 2:00 AM  1923 May 9 at 2… 1923-05-09 02:00:00
##  8  1924       133. May 11 at 3:10 PM 1924 May 11 at … 1924-05-11 15:10:00
##  9  1925       128. May 7 at 6:32 PM  1925 May 7 at 6… 1925-05-07 18:32:00
## 10  1926       117. April 26 at 4:03… 1926 April 26 a… 1926-04-26 16:03:00
## # ... with 77 more rows

I am not doing any further analysis with these, so just displaying them is good.

I have to do a preliminary step to get the date-times with their year in one place. str_c- glues pieces of text together: in this case, the year, a space, and then the rest of theDate&Time-. I stored this in longdt-. The secondmutate- is the business end of it: ymd_hm- takes a piece of text containing a year, month (by name or number), day, hours, minutes *in that order*, and extracts those things from it, storing the whole thing as an R date-time. Note that the AM/PM was handled properly. The benefit of doing that is we can extract anything from the dates, such as the month or day of week, or take differences between the dates. Or even check that the Julian dates were calculated correctly (thelubridate- function is called ``yday- for “day of year”):

nenana %>% 
mutate(longdt=str_c(Year," ",`Date&Time`)) %>%
mutate(datetime=ymd_hm(longdt,tz="America/Anchorage")) %>% 
mutate(jd=yday(datetime)) ->
nenana2
nenana2 %>% select(JulianDate,jd,datetime)

## # A tibble: 87 x 3
##    JulianDate    jd datetime           
##         <dbl> <dbl> <dttm>             
##  1       120.   120 1917-04-30 11:30:00
##  2       131.   131 1918-05-11 09:33:00
##  3       124.   123 1919-05-03 14:33:00
##  4       132.   132 1920-05-11 10:46:00
##  5       131.   131 1921-05-11 06:42:00
##  6       133.   132 1922-05-12 13:20:00
##  7       129.   129 1923-05-09 02:00:00
##  8       133.   132 1924-05-11 15:10:00
##  9       128.   127 1925-05-07 18:32:00
## 10       117.   116 1926-04-26 16:03:00
## # ... with 77 more rows

Hmm, some of those are off by one. What do the off-by-one ones have in common? Let’s look at more of them. ``round- rounds off to the nearest integer (since these are actually decimal numbers):

nenana2 %>% 
filter(round(JulianDate) != round(jd)) %>% 
select(JulianDate,jd,datetime)

## # A tibble: 61 x 3
##    JulianDate    jd datetime           
##         <dbl> <dbl> <dttm>             
##  1       124.   123 1919-05-03 14:33:00
##  2       133.   132 1922-05-12 13:20:00
##  3       133.   132 1924-05-11 15:10:00
##  4       128.   127 1925-05-07 18:32:00
##  5       117.   116 1926-04-26 16:03:00
##  6       128.   127 1928-05-06 16:25:00
##  7       126.   125 1929-05-05 15:41:00
##  8       129.   128 1930-05-08 19:03:00
##  9       129.   128 1933-05-08 19:30:00
## 10       121.   120 1934-04-30 14:07:00
## # ... with 51 more rows

The ones shown here are all after noon, and the Julian date in
the data file appears as one more than the one calculated by
lubridate-. What has actually happened is a quirk of how tibbles are displayed: they show 3 significant digits, *rounded*. The Julian dates given byyday- are the whole-number part, so the
ones in the data value are that plus more than 0.5, which will round
up. The first line of code below displays 6 significant digits
rather than only three:

options(pillar.sigfig=6)
nenana2 %>% 
filter(round(JulianDate) != round(jd)) %>% 
select(JulianDate,jd,datetime)

## # A tibble: 61 x 3
##    JulianDate    jd datetime           
##         <dbl> <dbl> <dttm>             
##  1    123.607   123 1919-05-03 14:33:00
##  2    132.556   132 1922-05-12 13:20:00
##  3    132.632   132 1924-05-11 15:10:00
##  4    127.773   127 1925-05-07 18:32:00
##  5    116.669   116 1926-04-26 16:03:00
##  6    127.684   127 1928-05-06 16:25:00
##  7    125.654   125 1929-05-05 15:41:00
##  8    128.794   128 1930-05-08 19:03:00
##  9    128.813   128 1933-05-08 19:30:00
## 10    120.588   120 1934-04-30 14:07:00
## # ... with 51 more rows
…
Read in and display the data. This, I think, is the easiest way.

url="http://www.utsc.utoronto.ca/~butler/c32/compatt.txt"
anxiety=read_delim(url," ")

## Parsed with column specification:
## cols(
##   gender = col_character(),
##   CAS = col_double(),
##   CARS = col_double()
## )

anxiety

## # A tibble: 35 x 3
##    gender   CAS  CARS
##    <chr>  <dbl> <dbl>
##  1 female  2.85  2.9 
##  2 male    2.6   2.32
##  3 female  2.2   1   
##  4 male    2.65  2.58
##  5 male    2.6   2.58
##  6 male    3.2   3.05
##  7 male    3.65  3.74
##  8 female  2.55  1.9 
##  9 male    3.15  3.32
## 10 male    2.8   2.74
## # ... with 25 more rows
…
