Chapter 21 Dates and times | Problems and Solutions in Applied Statistics
…
## 
## ── Column specification ──────────────────────────────────────────────────────────────────────────────────────────────────────────────────────────────────────────────────────────────────────
## cols(
##   .default = col_double(),
##   admitdate = col_character(),
##   disdate = col_character(),
##   fdate = col_character()
## )
## ℹ Use `spec()` for the full column specifications.

whas

## # A tibble: 500 x 22
##       id   age gender    hr sysbp diasbp   bmi   cvd   afb   sho   chf   av3 miord mitype  year admitdate  disdate    fdate        los dstat lenfol fstat
##    <dbl> <dbl>  <dbl> <dbl> <dbl>  <dbl> <dbl> <dbl> <dbl> <dbl> <dbl> <dbl> <dbl>  <dbl> <dbl> <chr>      <chr>      <chr>      <dbl> <dbl>  <dbl> <dbl>
##  1     1    83      0    89   152     78  25.5     1     1     0     0     0     1      0     1 13-01-1997 18-01-1997 31-12-2002     5     0   2178     0
##  2     2    49      0    84   120     60  24.0     1     0     0     0     0     0      1     1 19-01-1997 24-01-1997 31-12-2002     5     0   2172     0
##  3     3    70      1    83   147     88  22.1     0     0     0     0     0     0      1     1 01-01-1997 06-01-1997 31-12-2002     5     0   2190     0
##  4     4    70      0    65   123     76  26.6     1     0     0     1     0     0      1     1 17-02-1997 27-02-1997 11-12-1997    10     0    297     1
##  5     5    70      0    63   135     85  24.4     1     0     0     0     0     0      1     1 01-03-1997 07-03-1997 31-12-2002     6     0   2131     0
##  6     6    70      0    76    83     54  23.2     1     0     0     0     1     0      0     1 11-03-1997 12-03-1997 12-03-1997     1     1      1     1
##  7     7    57      0    73   191    116  39.5     1     0     0     0     0     0      1     1 10-03-1997 15-03-1997 31-12-2002     5     0   2122     0
##  8     8    55      0    91   147     95  27.1     1     0     0     0     0     0      1     1 11-01-1997 15-01-1997 15-02-2001     4     0   1496     1
##  9     9    88      1    63   209    100  27.4     1     0     0     1     0     0      0     1 31-12-1996 04-01-1997 09-07-1999     4     0    920     1
## 10    10    54      0   104   166    106  25.5     1     0     0     0     0     0      0     1 16-01-1997 21-01-1997 31-12-2002     5     0   2175     0
## # … with 490 more rows
…
Extra: this is an example of what’s called “survival data”: the purpose of the study was to see what affected how long a person survived after a heart attack. Each patient was followed up for the number of days in lenfol, but followup could have stopped for two (or more) reasons: the patient died (indicated by fstat being 1), or something else happened to them (fstat is 0), such as moving away from where the study was conducted, getting another disease, the funding for this study running out, or simply losing touch with the people doing the study. Such a patient is called “lost to followup” or “censored”, and all we know about their survival is that they were still alive when last seen, but we don’t know how long they lived after that.

For example:

whas %>% select(id, lenfol, fstat)

## # A tibble: 500 x 3
##       id lenfol fstat
##    <dbl>  <dbl> <dbl>
##  1     1   2178     0
##  2     2   2172     0
##  3     3   2190     0
##  4     4    297     1
##  5     5   2131     0
##  6     6      1     1
##  7     7   2122     0
##  8     8   1496     1
##  9     9    920     1
## 10    10   2175     0
## # … with 490 more rows
…
