Problems and Solutions in Applied Statistics
…
## yellow = col_double(),
## green = col_double()
## )
## # A tibble: 8 x 5
## plant blue red yellow green
##     
## 1 1 5.34 13.7 4.61 2.72
## 2 2 7.45 13.0 6.63 1.08
## 3 3 7.15 10.2 5.29 3.97
## 4 4 5.53 13.1 5.29 2.66
## 5 5 6.34 11.1 4.76 3.69
## 6 6 7.16 11.4 5.57 1.96
## 7 7 7.77 14.0 6.57 3.38
## 8 8 5.09 13.5 5.25 1.87
## # A tibble: 32 x 3
## plant colour growthrate
##   
## 1 1 blue 5.34
## 2 2 blue 7.45
## 3 3 blue 7.15
## 4 4 blue 5.53
## 5 5 blue 6.34
## 6 6 blue 7.16
## 7 7 blue 7.77
## 8 8 blue 5.09
## 9 1 red 13.7
## 10 2 red 13.0
## # … with 22 more rows
## plant,colour,growthrate
## 1,blue,5.34
## 2,blue,7.45
## 3,blue,7.15
## 4,blue,5.53
## 5,blue,6.34
## 6,blue,7.16
## 7,blue,7.77
…
## 1 Cameron McDonald
## 2 Durwin Yang

## 3 Ole Gunnar

## 4 Mahmudullah FALSE
## # A tibble: 4 x 2
## one two

##  
## 1 Cameron McDonald FALSE
## 2 Durwin Yang FALSE
## 3 Ole Gunnar Solskjaer TRUE
## 4 Mahmudullah FALSE
## # A tibble: 34 x 2
## species temp_pulse
##  

## 1 exclamationis 20.8_67.9
## 2 exclamationis 20.8_65.1
## 3 exclamationis 24_77.3

## 4 exclamationis 24_78.7

## 5 exclamationis 24_79.4

## 6 exclamationis 24_80.4

## 7 exclamationis 26.2_85.8
## 8 exclamationis 26.2_86.6
## 9 exclamationis 26.2_87.5
## 10 exclamationis 26.2_89.1
## # … with 24 more rows
## # A tibble: 34 x 3
## species temperature pulse_rate
##   

## 1 exclamationis 20.8 67.9

## 2 exclamationis 20.8 65.1

## 3 exclamationis 24 77.3

## 4 exclamationis 24 78.7

## 5 exclamationis 24 79.4

## 6 exclamationis 24 80.4

## 7 exclamationis 26.2 85.8

## 8 exclamationis 26.2 86.6

## 9 exclamationis 26.2 87.5

## 10 exclamationis 26.2 89.1

## # … with 24 more rows
## Warning in evalq(as.numeric(temperature),
## ): NAs introduced by coercion
## Warning in evalq(as.numeric(pulse_rate),
## ): NAs introduced by coercion
## # A tibble: 34 x 3
## species temperature pulse_rate
##   
## 1 exclamationis 20.8 67.9
## 2 exclamationis 20.8 65.1
## 3 exclamationis 24 77.3
## 4 exclamationis 24 78.7
## 5 exclamationis 24 79.4
## 6 exclamationis 24 80.4
## 7 exclamationis 26.2 85.8
## 8 exclamationis 26.2 86.6
## 9 exclamationis 26.2 87.5
## 10 exclamationis 26.2 89.1
## # … with 24 more rows
## Warning in evalq(as.numeric(temperature),
## ): NAs introduced by coercion
## Warning in evalq(as.numeric(pulse_rate),
## ): NAs introduced by coercion
## # A tibble: 34 x 3
## species temperature pulse_rate
##   
## 1 exclamationis 20.8 67.9
## 2 exclamationis 20.8 65.1
## 3 exclamationis 24 77.3
## 4 exclamationis 24 78.7
## 5 exclamationis 24 79.4
## 6 exclamationis 24 80.4
## 7 exclamationis 26.2 85.8
## 8 exclamationis 26.2 86.6
## 9 exclamationis 26.2 87.5
## 10 exclamationis 26.2 89.1
## # … with 24 more rows
## Warning in evalq(as.numeric(temperature),
## ): NAs introduced by coercion
## Warning in evalq(as.numeric(pulse_rate),
## ): NAs introduced by coercion
## # A tibble: 34 x 3
## species temperature pulse_rate
##   
## 1 exclamationis 20.8 67.9
## 2 exclamationis 20.8 65.1
## 3 exclamationis 24 77.3
## 4 exclamationis 24 78.7
## 5 exclamationis 24 79.4
## 6 exclamationis 24 80.4
## 7 exclamationis 26.2 85.8
## 8 exclamationis 26.2 86.6
## 9 exclamationis 26.2 87.5
## 10 exclamationis 26.2 89.1
## # … with 24 more rows
## Cars
## Parsed with column specification:
## cols(
## car = col_character(),
## MPG = col_double(),
## weight = col_double(),
## cylinders = col_double(),
## hp = col_double(),
## country = col_character()
## )
## # A tibble: 38 x 6
## car MPG weight cylinders hp country
##      

## 1 Buic~ 28.4 2.67 4 90 U.S.

## 2 Dodg~ 30.9 2.23 4 75 U.S.

## 3 Merc~ 20.8 3.07 6 85 U.S.

## 4 Fiat~ 37.3 2.13 4 69 Italy

## 5 Peug~ 16.2 3.41 6 133 France
## 6 VW R~ 31.9 1.92 4 71 Germany
## 7 Plym~ 34.2 2.2 4 70 U.S.

## 8 Mazd~ 34.1 1.98 4 65 Japan

## 9 Buic~ 16.9 4.36 8 155 U.S.

## 10 Audi~ 20.3 2.83 5 103 Germany
## # … with 28 more rows
## # A tibble: 38 x 2
## car country
##  

## 1 Buick Skylark U.S.

## 2 Dodge Omni U.S.

## 3 Mercury Zephyr U.S.

## 4 Fiat Strada Italy

## 5 Peugeot 694 SL France
## 6 VW Rabbit Germany
## 7 Plymouth Horizon U.S.

## 8 Mazda GLC Japan

## 9 Buick Estate Wagon U.S.

## 10 Audi 5000 Germany
## # … with 28 more rows
## # A tibble: 38 x 3
## car cylinders country
##   

## 1 Buick Skylark 4 U.S.

## 2 Dodge Omni 4 U.S.

## 3 Mercury Zephyr 6 U.S.

## 4 Fiat Strada 4 Italy

## 5 Peugeot 694 SL 6 France
## 6 VW Rabbit 4 Germany
## 7 Plymouth Horizon 4 U.S.

## 8 Mazda GLC 4 Japan

## 9 Buick Estate Wagon 8 U.S.

## 10 Audi 5000 5 Germany
## # … with 28 more rows
## # A tibble: 38 x 5
## car MPG weight cylinders country
##     

## 1 Buick Skyl~ 28.4 2.67 4 U.S.

## 2 Dodge Omni 30.9 2.23 4 U.S.

## 3 Mercury Ze~ 20.8 3.07 6 U.S.

## 4 Fiat Strada 37.3 2.13 4 Italy

## 5 Peugeot 69~ 16.2 3.41 6 France
## 6 VW Rabbit 31.9 1.92 4 Germany
## 7 Plymouth H~ 34.2 2.2 4 U.S.

## 8 Mazda GLC 34.1 1.98 4 Japan

## 9 Buick Esta~ 16.9 4.36 8 U.S.

## 10 Audi 5000 20.3 2.83 5 Germany
## # … with 28 more rows
…
## date.peaked = col_date(format = “”),
## x66th.week = col_logical(),
## x67th.week = col_logical(),
## x68th.week = col_logical(),
## x69th.week = col_logical(),
## x70th.week = col_logical(),
## x71st.week = col_logical(),
## x72nd.week = col_logical(),
## x73rd.week = col_logical(),
## x74th.week = col_logical(),
## x75th.week = col_logical(),
## x76th.week = col_logical()
## )
## See spec(…) for full column specifications.
## # A tibble: 317 x 83
## year artist.inverted track time genre
##     
## 1 2000 Destiny’s Child Inde~ 03:38 Rock
## 2 2000 Santana Mari~ 04:18 Rock
## 3 2000 Savage Garden I Kn~ 04:07 Rock
## 4 2000 Madonna Music 03:45 Rock
## 5 2000 Aguilera, Chri~ Come~ 03:38 Rock
## 6 2000 Janet Does~ 04:17 Rock
## 7 2000 Destiny’s Child Say ~ 04:31 Rock
## 8 2000 Iglesias, Enri~ Be W~ 03:36 Latin
## 9 2000 Sisqo Inco~ 03:52 Rock
## 10 2000 Lonestar Amaz~ 04:25 Coun~
## # … with 307 more rows, and 78 more
## # variables: date.entered ,
## # date.peaked , x1st.week ,
## # x2nd.week , x3rd.week ,
## # x4th.week , x5th.week ,
## # x6th.week , x7th.week ,
## # x8th.week , x9th.week ,
## # x10th.week , x11th.week ,
## # x12th.week , x13th.week ,
…
## # x50th.week , x51st.week ,
## # x52nd.week , x53rd.week ,
## # x54th.week , x55th.week ,
## # x56th.week , x57th.week ,
## # x58th.week , x59th.week ,
## # x60th.week , x61st.week ,
## # x62nd.week , x63rd.week ,
## # x64th.week , x65th.week ,
## # x66th.week , x67th.week ,
## # x68th.week , x69th.week ,
## # x70th.week , x71st.week ,
## # x72nd.week , x73rd.week ,
## # x74th.week , x75th.week ,
## # x76th.week 
## # A tibble: 5,307 x 9
## year artist.inverted track time genre
##     
## 1 2000 Destiny’s Child Inde~ 03:38 Rock
## 2 2000 Santana Mari~ 04:18 Rock
## 3 2000 Savage Garden I Kn~ 04:07 Rock
## 4 2000 Madonna Music 03:45 Rock
## 5 2000 Aguilera, Chri~ Come~ 03:38 Rock
## 6 2000 Janet Does~ 04:17 Rock
## 7 2000 Destiny’s Child Say ~ 04:31 Rock
## 8 2000 Iglesias, Enri~ Be W~ 03:36 Latin
## 9 2000 Sisqo Inco~ 03:52 Rock
## 10 2000 Lonestar Amaz~ 04:25 Coun~
## # … with 5,297 more rows, and 4 more
## # variables: date.entered ,
## # date.peaked , week ,
## # rank 
## # A tibble: 5,307 x 9
## year artist.inverted track time genre
##     
## 1 2000 Destiny’s Child Inde~ 03:38 Rock
## 2 2000 Santana Mari~ 04:18 Rock
## 3 2000 Savage Garden I Kn~ 04:07 Rock
## 4 2000 Madonna Music 03:45 Rock
## 5 2000 Aguilera, Chri~ Come~ 03:38 Rock
## 6 2000 Janet Does~ 04:17 Rock
## 7 2000 Destiny’s Child Say ~ 04:31 Rock
## 8 2000 Iglesias, Enri~ Be W~ 03:36 Latin
## 9 2000 Sisqo Inco~ 03:52 Rock
## 10 2000 Lonestar Amaz~ 04:25 Coun~
## # … with 5,297 more rows, and 4 more
## # variables: date.entered ,
## # date.peaked , week ,
## # rank 
## 1 24092
## # A tibble: 5,307 x 2
## week rank
##  
## 1 x1st.week 78
## 2 x1st.week 15
## 3 x1st.week 71
## 4 x1st.week 41
## 5 x1st.week 57
## 6 x1st.week 59
## 7 x1st.week 83
## 8 x1st.week 63
## 9 x1st.week 77
## 10 x1st.week 81
## # … with 5,297 more rows
## # A tibble: 5,307 x 2
## week_number rank_number
##  
## 1 1 78
## 2 1 15
## 3 1 71
## 4 1 41
## 5 1 57
## 6 1 59
## 7 1 83
## 8 1 63
## 9 1 77
## 10 1 81
## # … with 5,297 more rows
## # A tibble: 5,307 x 3
## date.entered week_number current

##   

## 1 2000-09-23 1 2000-09-23
## 2 2000-02-12 1 2000-02-12
## 3 1999-10-23 1 1999-10-23
## 4 2000-08-12 1 2000-08-12
## 5 2000-08-05 1 2000-08-05
## 6 2000-06-17 1 2000-06-17
## 7 1999-12-25 1 1999-12-25
## 8 2000-04-01 1 2000-04-01
## 9 2000-06-24 1 2000-06-24
## 10 1999-06-05 1 1999-06-05
## # … with 5,297 more rows
…
##   

## 1 2000-03-18 27 2000-09-16
## 2 2000-08-12 3 2000-08-26
## 3 2000-09-23 4 2000-10-14
## 4 1999-12-04 11 2000-02-12
## 5 2000-01-22 8 2000-03-11
## 6 2000-05-27 16 2000-09-09
## 7 2000-04-29 5 2000-05-27
## 8 2000-06-10 4 2000-07-01
## 9 2000-04-15 12 2000-07-01
## 10 2000-08-26 18 2000-12-23
## # A tibble: 55 x 3
## artist.inverted track current

##   

## 1 Aguilera, Christ~ What A Girl ~ 2000-01-15
## 2 Aguilera, Christ~ What A Girl ~ 2000-01-22
## 3 Savage Garden I Knew I Lov~ 2000-01-29
## 4 Savage Garden I Knew I Lov~ 2000-02-05
## 5 Savage Garden I Knew I Lov~ 2000-02-12
## 6 Carey, Mariah Thank God I ~ 2000-02-19
## 7 Savage Garden I Knew I Lov~ 2000-02-26
## 8 Lonestar Amazed 2000-03-04
## 9 Lonestar Amazed 2000-03-11
## 10 Destiny’s Child Say My Name 2000-03-18
## # … with 45 more rows
…
## 17 With Arms Wide Open by Creed 1
## Bikes on College
## Parsed with column specification:
## cols(
## X1 = col_time(format = “”),
## X2 = col_character(),
## X3 = col_character(),
## X4 = col_character(),
## X5 = col_character(),
## X6 = col_character(),
## X7 = col_character(),
## X8 = col_character(),
## X9 = col_character()
## )
## # A tibble: 1,958 x 9
## X1 X2 X3 X4 X5 X6 X7

##       
## 1 07:00 X   X  X

## 2 NA X   X  X

## 3 NA X   X  X

## 4 NA X   X  X

## 5 NA X   X  X

## 6 07:15 X  X   X

## 7 NA  X X   X

## 8 NA X  X   X

## 9 NA  X X   X

## 10 NA X  X   X

## # … with 1,948 more rows, and 2 more
## # variables: X8 , X9 
## # A tibble: 1,958 x 9
## X1 X2 X3 X4 X5 X6 X7

##       
## 1 07:00 X   X  X

## 2 07:00 X   X  X

## 3 07:00 X   X  X

## 4 07:00 X   X  X

## 5 07:00 X   X  X

## 6 07:15 X  X   X

## 7 07:15  X X   X

## 8 07:15 X  X   X

## 9 07:15  X X   X

## 10 07:15 X  X   X

## # … with 1,948 more rows, and 2 more
## # variables: X8 , X9 
## # A tibble: 1,958 x 9
## Time X2 X3 X4 X5 X6 X7

##       
## 1 07:00 X   X  X

## 2 07:00 X   X  X

## 3 07:00 X   X  X

## 4 07:00 X   X  X

## 5 07:00 X   X  X

## 6 07:15 X  X   X

## 7 07:15  X X   X

## 8 07:15 X  X   X

## 9 07:15  X X   X

## 10 07:15 X  X   X

## # … with 1,948 more rows, and 2 more
## # variables: X8 , X9 
## # A tibble: 1,958 x 10
## Time X2 X3 X4 X5 X6 X7

##       
## 1 07:00 X   X  X

## 2 07:00 X   X  X

## 3 07:00 X   X  X

## 4 07:00 X   X  X

## 5 07:00 X   X  X

## 6 07:15 X  X   X

## 7 07:15  X X   X

## 8 07:15 X  X   X

## 9 07:15  X X   X

## 10 07:15 X  X   X

## # … with 1,948 more rows, and 3 more
## # variables: X8 , X9 ,
## # gender 
## # A tibble: 1,958 x 10
## Time X2 X3 X4 X5 X6 X7

##       
## 1 07:00 X   X  X

## 2 07:00 X   X  X

## 3 07:00 X   X  X

## 4 07:00 X   X  X

## 5 07:00 X   X  X

## 6 07:15 X  X   X

## 7 07:15  X X   X

## 8 07:15 X  X   X

## 9 07:15  X X   X

## 10 07:15 X  X   X

## # … with 1,948 more rows, and 3 more
## # variables: X8 , X9 , isX 
## # A tibble: 1,958 x 10
## Time X2 X3 X4 X5 X6 X7

##       
## 1 07:00 X   X  X

## 2 07:00 X   X  X

## 3 07:00 X   X  X

## 4 07:00 X   X  X

## 5 07:00 X   X  X

## 6 07:15 X  X   X

## 7 07:15  X X   X

## 8 07:15 X  X   X

## 9 07:15  X X   X

## 10 07:15 X  X   X

## # … with 1,948 more rows, and 3 more
## # variables: X8 , X9 ,
## # gender 
## # A tibble: 1,958 x 10
## Time X2 X3 X4 X5 X6 X7

##       
## 1 07:00 X   X  X

## 2 07:00 X   X  X

## 3 07:00 X   X  X

## 4 07:00 X   X  X

## 5 07:00 X   X  X

## 6 07:15 X  X   X

## 7 07:15  X X   X

## 8 07:15 X  X   X

## 9 07:15  X X   X

## 10 07:15 X  X   X

## # … with 1,948 more rows, and 3 more
## # variables: X8 , X9 ,
## # gender 
## # A tibble: 2 x 2
## gender n
##  
## 1 Female 861
## 2 Male 1097
## # A tibble: 1,958 x 9
## Time male female X4 X5 X6 X7

##       
## 1 07:00 X   X  X

## 2 07:00 X   X  X

## 3 07:00 X   X  X

## 4 07:00 X   X  X

## 5 07:00 X   X  X

## 6 07:15 X  X   X

## 7 07:15  X X   X

## 8 07:15 X  X   X

## 9 07:15  X X   X

## 10 07:15 X  X   X

## # … with 1,948 more rows, and 2 more
## # variables: X8 , X9 
## # A tibble: 3,916 x 9
## Time X4 X5 X6 X7 X8 X9

##       
## 1 07:00  X  X  X

## 2 07:00  X  X  X

## 3 07:00  X  X  X

## 4 07:00  X  X  X

## 5 07:00  X  X  X

## 6 07:15 X   X  X

## 7 07:15 X   X  X

## 8 07:15 X   X  X

## 9 07:15 X   X X 
## 10 07:15 X   X  X

## # … with 3,906 more rows, and 2 more
## # variables: gender , what 
## # A tibble: 1,958 x 9
## Time X4 X5 X6 X7 X8 X9

##       
## 1 07:00  X  X  X

## 2 07:00  X  X  X

## 3 07:00  X  X  X

## 4 07:00  X  X  X

## 5 07:00  X  X  X

## 6 07:15 X   X  X

## 7 07:15 X   X  X

## 8 07:15 X   X  X

## 9 07:15 X   X  X

## 10 07:15 X   X  X

## # … with 1,948 more rows, and 2 more
## # variables: gender , what 
## # A tibble: 1,958 x 9
## Time X4 X5 X6 X7 X8 X9

##       
## 1 07:00  X  X  X

## 2 07:00  X  X  X

## 3 07:00  X  X  X

## 4 07:00  X  X  X

## 5 07:00  X  X  X

## 6 07:15 X   X  X

## 7 07:15 X   X  X

## 8 07:15 X   X  X

## 9 07:15 X   X  X

## 10 07:15 X   X  X

## # … with 1,948 more rows, and 2 more
## # variables: gender , what 
## # A tibble: 2 x 2
## gender n
##  
## 1 female 861
## 2 male 1097
## # A tibble: 1,958 x 13
## Time X2 X3 X4 X5 X6 X7

##       
## 1 07:00 X   X  X

## 2 07:00 X   X  X

## 3 07:00 X   X  X

## 4 07:00 X   X  X

## 5 07:00 X   X  X

## 6 07:15 X  X   X

## 7 07:15  X X   X

## 8 07:15 X  X   X

## 9 07:15  X X   X

## 10 07:15 X  X   X

## # … with 1,948 more rows, and 6 more
## # variables: X8 , X9 ,
## # gender , helmet ,
## # passenger , sidewalk 
## # A tibble: 1,958 x 13
## Time X2 X3 X4 X5 X6 X7

##       
## 1 07:00 X   X  X

## 2 07:00 X   X  X

## 3 07:00 X   X  X

## 4 07:00 X   X  X

## 5 07:00 X   X  X

## 6 07:15 X  X   X

## 7 07:15  X X   X

## 8 07:15 X  X   X

## 9 07:15  X X   X

## 10 07:15 X  X   X

## # … with 1,948 more rows, and 6 more
## # variables: X8 , X9 ,
## # gender , helmet ,
## # passenger , sidewalk 
## # A tibble: 1,958 x 11
## Time X2 X3 X4 X5 X6 X7

##       
## 1 07:00 X   X  X

## 2 07:00 X   X  X

## 3 07:00 X   X  X

## 4 07:00 X   X  X

## 5 07:00 X   X  X

## 6 07:15 X  X   X

## 7 07:15  X X   X

## 8 07:15 X  X   X

## 9 07:15  X X   X

## 10 07:15 X  X   X

## # … with 1,948 more rows, and 4 more
## # variables: X8 , X9 ,
## # gender , helmet 
## 1 TRUE FALSE TRUE FALSE TRUE
## 1 34
## # A tibble: 1,958 x 5
## Time gender helmet passenger sidewalk
##     

## 1 07:00 male FALSE FALSE FALSE

## 2 07:00 male FALSE FALSE FALSE

## 3 07:00 male FALSE FALSE FALSE

## 4 07:00 male FALSE FALSE FALSE

## 5 07:00 male FALSE FALSE FALSE

## 6 07:15 male TRUE FALSE FALSE

## 7 07:15 female TRUE FALSE FALSE

## 8 07:15 male TRUE FALSE FALSE

## 9 07:15 female TRUE FALSE TRUE

## 10 07:15 male TRUE FALSE FALSE

## # … with 1,948 more rows
## # A tibble: 1,958 x 5
## Time gender helmet passenger sidewalk
##     

## 1 07:00 male FALSE FALSE FALSE

## 2 07:00 male FALSE FALSE FALSE

## 3 07:00 male FALSE FALSE FALSE

## 4 07:00 male FALSE FALSE FALSE

## 5 07:00 male FALSE FALSE FALSE

## 6 07:15 male TRUE FALSE FALSE

## 7 07:15 female TRUE FALSE FALSE

## 8 07:15 male TRUE FALSE FALSE

## 9 07:15 female TRUE FALSE TRUE

## 10 07:15 male TRUE FALSE FALSE

## # … with 1,948 more rows
…
## 47 18:30 63
## 48 18:45 58
## # A tibble: 1 x 2
## Time n
##  
## 1 17:15 128
## Feeling the heat
## Parsed with column specification:
## cols(
## id = col_double(),
## date = col_date(format = “”),
## code = col_character(),
## text = col_character()
## )
## # A tibble: 200 x 4
## id date code text

##    

## 1 232 2016-09-08 HAU Toronto’s Medical ~
## 2 231 2016-09-07 HAE Toronto’s Medical ~
## 3 230 2016-09-06 HA Toronto’s Medical ~
## 4 228 2016-08-13 EHAE Toronto’s Medical ~
## 5 227 2016-08-12 EHAE Toronto’s Medical ~
## 6 226 2016-08-11 HAU Toronto’s Medical ~
## 7 225 2016-08-10 HAE Toronto’s Medical ~
## 8 224 2016-08-09 HA Toronto’s Medical ~
## 9 222 2016-08-05 HAE Toronto’s Medical ~
## 10 221 2016-08-04 HA Toronto’s Medical ~
## # … with 190 more rows
…
## 2 EHAD 1
## 3 EHAE 18
## 4 HA 93
## 5 HAE 16
## 6 HAU 13
## # A tibble: 6 x 2
## code count
##  
## 1 EHA 59
## 2 EHAD 1
## 3 EHAE 18
## 4 HA 93
## 5 HAE 16
## 6 HAU 13
## # A tibble: 200 x 5
## id date code daycount daydiff
##     
## 1 232 2016-09-08 HAU 17052 1
## 2 231 2016-09-07 HAE 17051 1
## 3 230 2016-09-06 HA 17050 24
## 4 228 2016-08-13 EHAE 17026 1
## 5 227 2016-08-12 EHAE 17025 1
## 6 226 2016-08-11 HAU 17024 1
## 7 225 2016-08-10 HAE 17023 1
## 8 224 2016-08-09 HA 17022 4
## 9 222 2016-08-05 HAE 17018 1
## 10 221 2016-08-04 HA 17017 11
## # … with 190 more rows
…
## 2 
## —
## Signif. codes:

## 0 ‘’ 0.001 ’’ 0.01 ’’ 0.05 ‘.’ 0.1 ‘’ 1
## Carbon monoxide in cigarettes
## Parsed with column specification:
## cols(
## tar = col_double(),
## nicotine = col_double(),
## weight = col_double(),
## co = col_double()
## )
## # A tibble: 25 x 4
## tar nicotine weight co
##    
## 1 14.1 0.86 0.985 13.6
## 2 16 1.06 1.09 16.6
## 3 29.8 2.03 1.16 23.5
## 4 8 0.67 0.928 10.2
## 5 4.1 0.4 0.946 5.4
## 6 15 1.04 0.888 15

## 7 8.8 0.76 1.03 9

## 8 12.4 0.95 0.922 12.3
## 9 16.6 1.12 0.937 16.3
## 10 14.9 1.02 0.886 15.4
## # … with 15 more rows
…
## 0 ‘’ 0.001 ’’ 0.01 ’’ 0.05 ‘.’ 0.1 ‘’ 1
##
## Residual standard error: 2.671 on 15 degrees of freedom
## Multiple R-squared: 0.4338, Adjusted R-squared: 0.3583
## F-statistic: 5.747 on 2 and 15 DF, p-value: 0.01403
## geom_smooth() using method = ‘loess’ and formula ‘y ~ x’
## geom_smooth() using method = ‘loess’ and formula ‘y ~ x’
## Crickets revisited
## Parsed with column specification:
## cols(
## species = col_character(),
## temperature = col_double(),
## pulse_rate = col_double()
## )
## # A tibble: 31 x 3
## species temperature pulse_rate
##   
## 1 exclamationis 20.8 67.9
## 2 exclamationis 20.8 65.1
## 3 exclamationis 24 77.3
## 4 exclamationis 24 78.7
## 5 exclamationis 24 79.4
## 6 exclamationis 24 80.4
## 7 exclamationis 26.2 85.8
## 8 exclamationis 26.2 86.6
## 9 exclamationis 26.2 87.5
## 10 exclamationis 26.2 89.1
## # … with 21 more rows
…
## 2 5 64.8 52.0 77.5
## # A tibble: 2 x 4
## distance fit lwr upr
##    
## 1 3 116. 104. 127.
## 2 5 64.8 52.0 77.5
## Calories and fat in pizza
## Parsed with column specification:
## cols(
## Type = col_character(),
## Calories = col_double(),
## Fat = col_double(),
## Cost = col_double()
## )
## # A tibble: 24 x 4
## Type Calories Fat Cost
##    
## 1 Domino’s Deep Dish w~ 385 19.5 1.87
## 2 Pizza Hut’s Stuffed ~ 370 15 1.83
## 3 Pizza Hut’s Pan Pizz~ 280 14 1.83
## 4 Domino’s Hand-Tossed~ 305 12 1.67
## 5 Pizza Hut’s Hand-Tos~ 230 9 1.63
## 6 Little Caesars’ Deep~ 350 14.2 1.06
## 7 Little Caesars’ Orig~ 230 8 0.81
## 8 Freschetta Bakes & R~ 364 15 0.98
## 9 Freschetta Bakes & R~ 334 11 1.23
## 10 DiGiorno Rising Crus~ 332 12 0.94
## # … with 14 more rows
## Type
## 1 Domino’s Deep Dish with Pepperoni
## 2 Pizza Hut’s Stuffed Crust with Pepperoni
## 3 Pizza Hut’s Pan Pizza with Pepperoni
## 4 Domino’s Hand-Tossed with Pepperoni
## 5 Pizza Hut’s Hand-Tossed with Pepperoni
## 6 Little Caesars’ Deep Dish with Pepperoni
## Calories Fat Cost
…
