Chapter 3 Drawing graphs | Problems and Solutions in Applied Statistics
…
url <- "http://ritsokiguess.site/datafiles/ojuice.txt"
juice <- read_delim(url, " ")

## 
## ── Column specification ──────────────────────────────────────────────────────────────────────────────────────────────────────────────────────────────────────────────────────────────────────
## cols(
##   run = col_double(),
##   sweetness = col_double(),
##   pectin = col_double()
## )

juice

## # A tibble: 24 x 3
##      run sweetness pectin
##    <dbl>     <dbl>  <dbl>
##  1     1       5.2    220
##  2     2       5.5    227
##  3     3       6      259
##  4     4       5.9    210
##  5     5       5.8    224
##  6     6       6      215
##  7     7       5.8    231
##  8     8       5.6    268
##  9     9       5.6    239
## 10    10       5.9    212
## # … with 14 more rows
…
url <- "http://ritsokiguess.site/datafiles/soap.txt"
soap <- read_delim(url, " ")

## 
## ── Column specification ──────────────────────────────────────────────────────────────────────────────────────────────────────────────────────────────────────────────────────────────────────
## cols(
##   case = col_double(),
##   scrap = col_double(),
##   speed = col_double(),
##   line = col_character()
## )

soap

## # A tibble: 27 x 4
##     case scrap speed line 
##    <dbl> <dbl> <dbl> <chr>
##  1     1   218   100 a    
##  2     2   248   125 a    
##  3     3   360   220 a    
##  4     4   351   205 a    
##  5     5   470   300 a    
##  6     6   394   255 a    
##  7     7   332   225 a    
##  8     8   321   175 a    
##  9     9   410   270 a    
## 10    10   260   170 a    
## # … with 17 more rows
…
my_url <- "http://ritsokiguess.site/datafiles/rainfall.txt"
rain <- read_delim(my_url, " ")

## 
## ── Column specification ──────────────────────────────────────────────────────────────────────────────────────────────────────────────────────────────────────────────────────────────────────
## cols(
##   Year = col_double(),
##   Rainfall = col_double()
## )

rain

## # A tibble: 47 x 2
##     Year Rainfall
##    <dbl>    <dbl>
##  1  1951     20.7
##  2  1952     16.7
##  3  1953     13.5
##  4  1954     14.1
##  5  1955     25.4
##  6  1956     12.0
##  7  1957     28.7
##  8  1958     11.0
##  9  1959     12.6
## 10  1960     12.8
## # … with 37 more rows
…
my_url <- "http://ritsokiguess.site/datafiles/rainfall.txt"
rain <- read_table(my_url)

## 
## ── Column specification ──────────────────────────────────────────────────────────────────────────────────────────────────────────────────────────────────────────────────────────────────────
## cols(
##   Year = col_double(),
##   Rainfall = col_double()
## )

rain

## # A tibble: 47 x 2
##     Year Rainfall
##    <dbl>    <dbl>
##  1  1951     20.7
##  2  1952     16.7
##  3  1953     13.5
##  4  1954     14.1
##  5  1955     25.4
##  6  1956     12.0
##  7  1957     28.7
##  8  1958     11.0
##  9  1959     12.6
## 10  1960     12.8
## # … with 37 more rows
…
my_url <- "http://ritsokiguess.site/datafiles/rainfall.txt"
rain_nogood <- read_tsv(my_url)

## 
## ── Column specification ──────────────────────────────────────────────────────────────────────────────────────────────────────────────────────────────────────────────────────────────────────
## cols(
##   `Year Rainfall` = col_character()
## )

rain_nogood

## # A tibble: 47 x 1
##    `Year Rainfall`
##    <chr>          
##  1 1951 20.66     
##  2 1952 16.72     
##  3 1953 13.51     
##  4 1954 14.1      
##  5 1955 25.37     
##  6 1956 12.05     
##  7 1957 28.74     
##  8 1958 10.98     
##  9 1959 12.55     
## 10 1960 12.75     
## # … with 37 more rows
…
my_url <- "http://ritsokiguess.site/datafiles/exercise.txt"
exercise <- read_table(my_url)

## 
## ── Column specification ──────────────────────────────────────────────────────────────────────────────────────────────────────────────────────────────────────────────────────────────────────
## cols(
##   gender = col_character(),
##   minutes = col_double()
## )

exercise

## # A tibble: 29 x 2
##    gender minutes
##    <chr>    <dbl>
##  1 female      60
##  2 female     240
##  3 female       0
##  4 female     360
##  5 female     450
##  6 female     200
##  7 female     100
##  8 female      70
##  9 female     240
## 10 female       0
## # … with 19 more rows
…
