Chapter 37 Drawing maps with Leaflet | Problems and Solutions in Applied Statistics
…
Solution

Nothing terribly unexpected here:

stations <- read_csv(my_url)

## 
## ── Column specification ────────────────────────────────────────────────────────
## cols(
##   station = col_character()
## )

stations

## # A tibble: 24 x 1
##    station              
##    <chr>                
##  1 Redditch             
##  2 Alvechurch           
##  3 Barnt Green          
##  4 Longbridge           
##  5 Northfield           
##  6 King's Norton        
##  7 Bournville           
##  8 Selly Oak            
##  9 Birmingham University
## 10 Five Ways            
## # … with 14 more rows

\(\blacksquare\)

In preparation for geocoding, create a second column in the dataframe that consists of the station names with “station UK” on the end. (This is to improve the chances of the geocoder finding the actual railway station.)

Solution

I wrote this back into the original dataframe. Create a new one if you prefer:

stations %>% 
  mutate(longname = str_c(station, " station UK")) -> stations
stations

## # A tibble: 24 x 2
##    station               longname                        
##    <chr>                 <chr>                           
##  1 Redditch              Redditch station UK             
##  2 Alvechurch            Alvechurch station UK           
##  3 Barnt Green           Barnt Green station UK          
##  4 Longbridge            Longbridge station UK           
##  5 Northfield            Northfield station UK           
##  6 King's Norton         King's Norton station UK        
##  7 Bournville            Bournville station UK           
##  8 Selly Oak             Selly Oak station UK            
##  9 Birmingham University Birmingham University station UK
## 10 Five Ways             Five Ways station UK            
## # … with 14 more rows
…
Look up the longitudes and latitudes of all the stations, organizing your dataframe so that they are visible.

Solution

Two steps: the first is to do the geocoding, and the second is to disentangle what comes back.

First, then:

stations %>% 
  rowwise() %>% 
  mutate(ll = list(geocode_OSM(longname))) -> stations
stations

## # A tibble: 24 x 3
## # Rowwise: 
##    station               longname                         ll              
##    <chr>                 <chr>                            <list>          
##  1 Redditch              Redditch station UK              <named list [3]>
##  2 Alvechurch            Alvechurch station UK            <named list [3]>
##  3 Barnt Green           Barnt Green station UK           <named list [3]>
##  4 Longbridge            Longbridge station UK            <named list [3]>
##  5 Northfield            Northfield station UK            <named list [3]>
##  6 King's Norton         King's Norton station UK         <named list [3]>
##  7 Bournville            Bournville station UK            <named list [3]>
##  8 Selly Oak             Selly Oak station UK             <named list [3]>
##  9 Birmingham University Birmingham University station UK <named list [3]>
## 10 Five Ways             Five Ways station UK             <named list [3]>
## # … with 14 more rows

The longitudes and latitudes are hidden in the list-column that I called ll, so the second step is to get them out:

stations %>% unnest_wider(ll) %>% 
  unnest_wider(coords) -> stations
stations

## # A tibble: 24 x 6
##    station               longname                         query                                x     y bbox      
##    <chr>                 <chr>                            <chr>                            <dbl> <dbl> <list>    
##  1 Redditch              Redditch station UK              Redditch station UK              -1.94  52.3 <bbox [4]>
##  2 Alvechurch            Alvechurch station UK            Alvechurch station UK            -1.97  52.3 <bbox [4]>
##  3 Barnt Green           Barnt Green station UK           Barnt Green station UK           -1.99  52.4 <bbox [4]>
##  4 Longbridge            Longbridge station UK            Longbridge station UK            -1.98  52.4 <bbox [4]>
##  5 Northfield            Northfield station UK            Northfield station UK            -1.97  52.4 <bbox [4]>
##  6 King's Norton         King's Norton station UK         King's Norton station UK         -1.93  52.4 <bbox [4]>
##  7 Bournville            Bournville station UK            Bournville station UK            -1.94  52.4 <bbox [4]>
##  8 Selly Oak             Selly Oak station UK             Selly Oak station UK             -1.94  52.4 <bbox [4]>
##  9 Birmingham University Birmingham University station UK Birmingham University station UK -1.93  52.5 <bbox [4]>
## 10 Five Ways             Five Ways station UK             Five Ways station UK             -1.91  52.5 <bbox [4]>
## # … with 14 more rows
…
d

## # A tibble: 22 x 5
##    station                   x     y class   type   
##    <chr>                 <dbl> <dbl> <chr>   <chr>  
##  1 Redditch              -1.95  52.3 railway station
##  2 Alvechurch            -1.97  52.3 railway station
##  3 Barnt Green           -1.99  52.4 railway station
##  4 Longbridge            -1.98  52.4 railway station
##  5 Northfield            -1.97  52.4 railway station
##  6 King's Norton         -1.93  52.4 railway station
##  7 Bournville            -1.93  52.4 railway station
##  8 Selly Oak             -1.94  52.4 railway station
##  9 Five Ways             -1.91  52.5 railway station
## 10 Birmingham New Street -1.90  52.5 railway station
## # … with 12 more rows
…
