Chapter 40 Factor Analysis | Problems and Solutions in Applied Statistics
…
Separated by single spaces.

my_url <- "http://ritsokiguess.site/datafiles/personality.txt"
pers <- read_delim(my_url, " ")

## 
## ── Column specification ────────────────────────────────────────────────────────
## cols(
##   .default = col_double()
## )
## ℹ Use `spec()` for the full column specifications.

pers

## # A tibble: 459 x 45
##       id PERS01 PERS02 PERS03 PERS04 PERS05 PERS06 PERS07 PERS08 PERS09 PERS10 PERS11 PERS12 PERS13 PERS14 PERS15 PERS16 PERS17 PERS18 PERS19 PERS20 PERS21 PERS22 PERS23
##    <dbl>  <dbl>  <dbl>  <dbl>  <dbl>  <dbl>  <dbl>  <dbl>  <dbl>  <dbl>  <dbl>  <dbl>  <dbl>  <dbl>  <dbl>  <dbl>  <dbl>  <dbl>  <dbl>  <dbl>  <dbl>  <dbl>  <dbl>  <dbl>
##  1     1      5      4      5      1      4      3      3      1      2      3      2      4      5      4      4      3      5      1      3      4      2      4      2
##  2     2      1      1      5      2      1      2      5      1      5      1      5      3      5      4      1      2      1      3      5      1      5      5      1
##  3     3      4      1      5      3      3      4      5      3      1      4      2      1      5      4      3      2      5      1      5      4      4      4      3
##  4     4      4      2      5      1      4      3      4      4      4      5      4      1      4      5      3      3      4      2      5      4      4      4      3
##  5     5      2      3      5      1      2      4      5      2      3      3      4      2      5      3      3      3      5      1      4      2      5      5      1
##  6     6      1      1      5      4      3      4      4      2      1      4      3      3      5      5      3      2      4      1      5      3      5      4      1
##  7     7      3      2      5      1      2      1      1      2      5      4      4      1      5      1      1      4      5      5      1      3      2      5      1
##  8     8      5      2      4      2      4      1      4      3      3      5      4      1      4      3      2      4      4      4      2      5      2      4      3
##  9     9      5      1      4      3      2      1      4      4      2      3      4      1      4      4      2      5      5      5      4      4      2      5      2
## 10    10      4      1      5      1      4      3      4      1      5      4      5      1      5      3      4      4      4      1      1      5      2      4      1
## # … with 449 more rows, and 21 more variables: PERS24 <dbl>, PERS25 <dbl>,
## #   PERS26 <dbl>, PERS27 <dbl>, PERS28 <dbl>, PERS29 <dbl>, PERS30 <dbl>,
## #   PERS31 <dbl>, PERS32 <dbl>, PERS33 <dbl>, PERS34 <dbl>, PERS35 <dbl>,
## #   PERS36 <dbl>, PERS37 <dbl>, PERS38 <dbl>, PERS39 <dbl>, PERS40 <dbl>,
## #   PERS41 <dbl>, PERS42 <dbl>, PERS43 <dbl>, PERS44 <dbl>
…
In case you were wondering about the “I” vs. “I am” thing, the
story seems to be that each behaviour needs to have a verb. If the
behaviour has a verb, “I” is all you need, but if it doesn’t, you
have to add one, ie. “I am”.

Another thing you might be concerned about is whether these data are
“tidy” or not. To some extent, it depends on what you are going to
do with it. You could say that the PERS columns are all
survey-responses, just to different questions, and you might think of
doing something like this:

pers %>% pivot_longer(-id, names_to="item", values_to="response")

## # A tibble: 20,196 x 3
##       id item   response
##    <dbl> <chr>     <dbl>
##  1     1 PERS01        5
##  2     1 PERS02        4
##  3     1 PERS03        5
##  4     1 PERS04        1
##  5     1 PERS05        4
##  6     1 PERS06        3
##  7     1 PERS07        3
##  8     1 PERS08        1
##  9     1 PERS09        2
## 10     1 PERS10        3
## # … with 20,186 more rows
…
Nope.
Extra: you might also have thought of the “tidy, remove, untidy”
strategy here. The trouble with that here is that you want to remove
all the observations for a subject who has any missing
ones. This is unlike the multidimensional scaling one where
we wanted to remove all the distances for two cities that we
knew ahead of time.

That gives me an idea, though.

pers %>%
  pivot_longer(-id, names_to="item", values_to="rating")

## # A tibble: 20,196 x 3
##       id item   rating
##    <dbl> <chr>   <dbl>
##  1     1 PERS01      5
##  2     1 PERS02      4
##  3     1 PERS03      5
##  4     1 PERS04      1
##  5     1 PERS05      4
##  6     1 PERS06      3
##  7     1 PERS07      3
##  8     1 PERS08      1
##  9     1 PERS09      2
## 10     1 PERS10      3
## # … with 20,186 more rows
…
pers %>%
  pivot_longer(-id, names_to="item", values_to="rating") %>% 
  group_by(id) %>%
  summarize(m = mean(rating)) %>%
  filter(is.na(m))

## # A tibble: 26 x 2
##       id     m
##    <dbl> <dbl>
##  1    12    NA
##  2    40    NA
##  3    45    NA
##  4    49    NA
##  5    52    NA
##  6    58    NA
##  7    79    NA
##  8    84    NA
##  9    96    NA
## 10   159    NA
## # … with 16 more rows
…
So now we define a column has_missing that is true if the
subject has any missing values and false otherwise:

pers %>%
  pivot_longer(-id, names_to="item", values_to="rating") %>% 
  group_by(id) %>%
  summarize(m = mean(rating)) %>%
  mutate(has_missing = is.na(m)) -> pers.hm
pers.hm 

## # A tibble: 459 x 3
##       id     m has_missing
##    <dbl> <dbl> <lgl>      
##  1     1  3.41 FALSE      
##  2     2  2.98 FALSE      
##  3     3  3.34 FALSE      
##  4     4  3.55 FALSE      
##  5     5  3.32 FALSE      
##  6     6  3.20 FALSE      
##  7     7  2.84 FALSE      
##  8     8  3.18 FALSE      
##  9     9  3.34 FALSE      
## 10    10  3.18 FALSE      
## # … with 449 more rows

This data frame pers.hm has the same number of rows as the
original data frame pers, one per subject, so we can just
glue it onto the end of that:

pers %>% bind_cols(pers.hm)

## New names:
## * id -> id...1
## * id -> id...46

## # A tibble: 459 x 48
##    id...1 PERS01 PERS02 PERS03 PERS04 PERS05 PERS06 PERS07 PERS08 PERS09 PERS10 PERS11 PERS12 PERS13 PERS14 PERS15 PERS16 PERS17 PERS18 PERS19 PERS20 PERS21 PERS22 PERS23
##     <dbl>  <dbl>  <dbl>  <dbl>  <dbl>  <dbl>  <dbl>  <dbl>  <dbl>  <dbl>  <dbl>  <dbl>  <dbl>  <dbl>  <dbl>  <dbl>  <dbl>  <dbl>  <dbl>  <dbl>  <dbl>  <dbl>  <dbl>  <dbl>
##  1      1      5      4      5      1      4      3      3      1      2      3      2      4      5      4      4      3      5      1      3      4      2      4      2
##  2      2      1      1      5      2      1      2      5      1      5      1      5      3      5      4      1      2      1      3      5      1      5      5      1
##  3      3      4      1      5      3      3      4      5      3      1      4      2      1      5      4      3      2      5      1      5      4      4      4      3
##  4      4      4      2      5      1      4      3      4      4      4      5      4      1      4      5      3      3      4      2      5      4      4      4      3
##  5      5      2      3      5      1      2      4      5      2      3      3      4      2      5      3      3      3      5      1      4      2      5      5      1
##  6      6      1      1      5      4      3      4      4      2      1      4      3      3      5      5      3      2      4      1      5      3      5      4      1
##  7      7      3      2      5      1      2      1      1      2      5      4      4      1      5      1      1      4      5      5      1      3      2      5      1
##  8      8      5      2      4      2      4      1      4      3      3      5      4      1      4      3      2      4      4      4      2      5      2      4      3
##  9      9      5      1      4      3      2      1      4      4      2      3      4      1      4      4      2      5      5      5      4      4      2      5      2
## 10     10      4      1      5      1      4      3      4      1      5      4      5      1      5      3      4      4      4      1      1      5      2      4      1
## # … with 449 more rows, and 24 more variables: PERS24 <dbl>, PERS25 <dbl>,
## #   PERS26 <dbl>, PERS27 <dbl>, PERS28 <dbl>, PERS29 <dbl>, PERS30 <dbl>,
## #   PERS31 <dbl>, PERS32 <dbl>, PERS33 <dbl>, PERS34 <dbl>, PERS35 <dbl>,
## #   PERS36 <dbl>, PERS37 <dbl>, PERS38 <dbl>, PERS39 <dbl>, PERS40 <dbl>,
## #   PERS41 <dbl>, PERS42 <dbl>, PERS43 <dbl>, PERS44 <dbl>, id...46 <dbl>,
## #   m <dbl>, has_missing <lgl>
…
scores.1 <- as_tibble(pers.ok.1$scores) %>%
  bind_cols(pers.ok) %>%
  mutate(id = row_number())
scores.1

## # A tibble: 433 x 50
##    Factor1 Factor2 Factor3 Factor4 Factor5    id PERS01 PERS02 PERS03 PERS04 PERS05 PERS06 PERS07 PERS08 PERS09 PERS10 PERS11 PERS12 PERS13 PERS14 PERS15 PERS16 PERS17
##      <dbl>   <dbl>   <dbl>   <dbl>   <dbl> <int>  <dbl>  <dbl>  <dbl>  <dbl>  <dbl>  <dbl>  <dbl>  <dbl>  <dbl>  <dbl>  <dbl>  <dbl>  <dbl>  <dbl>  <dbl>  <dbl>  <dbl>
##  1  1.11     0.543   0.530  -0.978 -0.528      1      5      4      5      1      4      3      3      1      2      3      2      4      5      4      4      3      5
##  2  0.930   -1.62   -0.823   1.11  -2.49       2      1      1      5      2      1      2      5      1      5      1      5      3      5      4      1      2      1
##  3  0.0405  -0.908   1.01    0.415 -0.169      3      4      1      5      3      3      4      5      3      1      4      2      1      5      4      3      2      5
##  4  0.123   -0.600   0.442   0.753  0.774      4      4      2      5      1      4      3      4      4      4      5      4      1      4      5      3      3      4
##  5  1.28    -1.30   -0.194  -0.170 -1.11       5      2      3      5      1      2      4      5      2      3      3      4      2      5      3      3      3      5
##  6  0.671   -2.10    1.09    0.507 -0.0442     6      1      1      5      4      3      4      4      2      1      4      3      3      5      5      3      2      4
##  7  0.474    0.467  -2.12    0.892 -2.57       7      3      2      5      1      2      1      1      2      5      4      4      1      5      1      1      4      5
##  8 -0.589    0.747  -0.257   1.18  -0.517      8      5      2      4      2      4      1      4      3      3      5      4      1      4      3      2      4      4
##  9 -0.836    1.02    0.620   1.36  -0.705      9      5      1      4      3      2      1      4      4      2      3      4      1      4      4      2      5      5
## 10  0.984    0.298  -1.06    0.681 -0.553     10      4      1      5      1      4      3      4      1      5      4      5      1      5      3      4      4      4
## # … with 423 more rows, and 27 more variables: PERS18 <dbl>, PERS19 <dbl>,
## #   PERS20 <dbl>, PERS21 <dbl>, PERS22 <dbl>, PERS23 <dbl>, PERS24 <dbl>,
## #   PERS25 <dbl>, PERS26 <dbl>, PERS27 <dbl>, PERS28 <dbl>, PERS29 <dbl>,
## #   PERS30 <dbl>, PERS31 <dbl>, PERS32 <dbl>, PERS33 <dbl>, PERS34 <dbl>,
## #   PERS35 <dbl>, PERS36 <dbl>, PERS37 <dbl>, PERS38 <dbl>, PERS39 <dbl>,
## #   PERS40 <dbl>, PERS41 <dbl>, PERS42 <dbl>, PERS43 <dbl>, PERS44 <dbl>
…
## 
## ── Column specification ────────────────────────────────────────────────────────
## cols(
##   wind = col_double(),
##   solar.radiation = col_double(),
##   CO = col_double(),
##   NO = col_double(),
##   NO2 = col_double(),
##   O3 = col_double(),
##   HC = col_double()
## )

air

## # A tibble: 42 x 7
##     wind solar.radiation    CO    NO   NO2    O3    HC
##    <dbl>           <dbl> <dbl> <dbl> <dbl> <dbl> <dbl>
##  1     8              98     7     2    12     8     2
##  2     7             107     4     3     9     5     3
##  3     7             103     4     3     5     6     3
##  4    10              88     5     2     8    15     4
##  5     6              91     4     2     8    10     3
##  6     8              90     5     2    12    12     4
##  7     9              84     7     4    12    15     5
##  8     5              72     6     4    21    14     4
##  9     7              82     5     1    11    11     3
## 10     8              64     5     2    13     9     4
## # … with 32 more rows
…
This is probably the easiest way, but you see that there is a mixture
of base R and Tidyverse. The result is actually a base R data.frame, so displaying it will display all of it, hence my use of head.
If you want to do it the all-Tidyverse
way43
then you need to bear in mind that bind_cols only
accepts vectors or data frames, not matrices, so a bit of care is needed first:

air.1$scores %>%
  as_tibble() %>%
  bind_cols(air) %>%
  mutate(row = row_number()) -> dd
dd

## # A tibble: 42 x 15
##     Comp.1 Comp.2 Comp.3 Comp.4  Comp.5 Comp.6 Comp.7  wind solar.radiation    CO    NO   NO2    O3    HC   row
##      <dbl>  <dbl>  <dbl>  <dbl>   <dbl>  <dbl>  <dbl> <dbl>           <dbl> <dbl> <dbl> <dbl> <dbl> <dbl> <int>
##  1 -0.953  -0.975 -0.427  1.45   2.04   -0.728 -0.571     8              98     7     2    12     8     2     1
##  2 -0.0494 -0.429 -0.293  2.11  -0.783   0.162  0.158     7             107     4     3     9     5     3     2
##  3  0.538  -0.649 -0.552  1.88  -0.792   1.12  -0.174     7             103     4     3     5     6     3     3
##  4 -0.375  -0.361  2.00   0.189  0.292   1.47  -0.102    10              88     5     2     8    15     4     4
##  5  0.197  -1.10  -0.449  0.550 -0.885   0.119 -0.158     6              91     4     2     8    10     3     5
##  6 -1.12   -0.230  1.35   0.285 -0.427   0.110 -0.232     8              90     5     2    12    12     4     6
##  7 -3.15    1.07   1.62   0.186  0.0374  1.84  -0.415     9              84     7     4    12    15     5     7
##  8 -3.98    0.926 -0.379 -0.619 -0.810  -1.29   0.735     5              72     6     4    21    14     4     8
##  9 -0.152  -0.974  0.337 -0.145  0.139  -0.681 -0.539     7              82     5     1    11    11     3     9
## 10 -0.784   0.939  0.985 -0.632 -0.219  -0.303 -0.375     8              64     5     2    13     9     4    10
## # … with 32 more rows
…
air %>% mutate(across(everything(), ~ percent_rank(.))) -> pct_rank
pct_rank

## # A tibble: 42 x 7
##     wind solar.radiation    CO    NO   NO2    O3    HC
##    <dbl>           <dbl> <dbl> <dbl> <dbl> <dbl> <dbl>
##  1 0.488           0.951 0.902 0.317 0.707 0.439 0    
##  2 0.317           1     0.146 0.683 0.366 0.171 0.171
##  3 0.317           0.976 0.146 0.683 0     0.244 0.171
##  4 0.878           0.829 0.610 0.317 0.244 0.878 0.780
##  5 0.122           0.902 0.146 0.317 0.244 0.561 0.171
##  6 0.488           0.878 0.610 0.317 0.707 0.780 0.780
##  7 0.756           0.707 0.902 0.878 0.707 0.878 1    
##  8 0               0.390 0.829 0.878 1     0.829 0.780
##  9 0.317           0.659 0.610 0     0.610 0.707 0.171
## 10 0.488           0.195 0.610 0.317 0.829 0.512 0.780
## # … with 32 more rows
…
