Chapter 41 Frequency table analysis | Problems and Solutions in Applied Statistics
…
## 
## ── Column specification ────────────────────────────────────────────────────────
## cols(
##   id = col_double(),
##   class = col_character(),
##   age = col_character(),
##   sex = col_character(),
##   vote = col_character()
## )

vote0

## # A tibble: 1,257 x 5
##       id class        age   sex    vote        
##    <dbl> <chr>        <chr> <chr>  <chr>       
##  1     1 upper middle >75   male   conservative
##  2     2 upper middle >75   male   conservative
##  3     3 upper middle >75   male   conservative
##  4     4 upper middle >75   male   conservative
##  5     5 upper middle >75   female conservative
##  6     6 upper middle >75   female conservative
##  7     7 upper middle >75   female conservative
##  8     8 upper middle >75   female conservative
##  9     9 upper middle >75   female conservative
## 10    10 upper middle >75   female conservative
## # … with 1,247 more rows
…
Solution

I changed my mind about how to do this from last year. Using
count is alarmingly more direct than the method I had before:

votes <- vote0 %>% count(class, age, sex, vote)
votes

## # A tibble: 58 x 5
##    class        age   sex    vote             n
##    <chr>        <chr> <chr>  <chr>        <int>
##  1 lower middle <26   female conservative    13
##  2 lower middle <26   female labour           7
##  3 lower middle <26   male   conservative     9
##  4 lower middle <26   male   labour           9
##  5 lower middle >75   female conservative     9
##  6 lower middle >75   female labour           2
##  7 lower middle >75   male   conservative     8
##  8 lower middle >75   male   labour           4
##  9 lower middle 26-40 female conservative    17
## 10 lower middle 26-40 female labour          13
## # … with 48 more rows
…
## 
## ── Column specification ────────────────────────────────────────────────────────
## cols(
##   softness = col_character(),
##   m_user = col_character(),
##   temperature = col_character(),
##   prefer = col_character(),
##   frequency = col_double()
## )

prefs

## # A tibble: 24 x 5
##    softness m_user temperature prefer frequency
##    <chr>    <chr>  <chr>       <chr>      <dbl>
##  1 hard     no     low         x             68
##  2 hard     no     low         m             42
##  3 hard     no     high        x             42
##  4 hard     no     high        m             30
##  5 hard     yes    low         x             37
##  6 hard     yes    low         m             52
##  7 hard     yes    high        x             24
##  8 hard     yes    high        m             43
##  9 medium   no     low         x             66
## 10 medium   no     low         m             50
## # … with 14 more rows
…
prefs0

## # A tibble: 3 x 9
##   softness no_low_x no_low_m no_high_x no_high_m yes_low_x yes_low_m yes_high_x yes_high_m
##   <chr>       <dbl>    <dbl>     <dbl>     <dbl>     <dbl>     <dbl>      <dbl>      <dbl>
## 1 hard           68       42        42        30        37        52         24         43
## 2 medium         66       50        33        23        47        55         23         47
## 3 soft           63       53        29        27        57        49         19         29

We want to get all those frequencies into one column, which suggest some kind of pivot_longer.There are two ways to go about this. One is to try a regular pivot_longerand see what happens. I had to think for a moment about what to call the column that ended up as combo:

prefs0 %>% pivot_longer(-softness, names_to = "combo", values_to = "frequency")

## # A tibble: 24 x 3
##    softness combo      frequency
##    <chr>    <chr>          <dbl>
##  1 hard     no_low_x          68
##  2 hard     no_low_m          42
##  3 hard     no_high_x         42
##  4 hard     no_high_m         30
##  5 hard     yes_low_x         37
##  6 hard     yes_low_m         52
##  7 hard     yes_high_x        24
##  8 hard     yes_high_m        43
##  9 medium   no_low_x          66
## 10 medium   no_low_m          50
## # … with 14 more rows

This is the right kind of shape, but those things in the column combo are three variables all smooshed together: respectively, previous user (of brand M), temperature, preference (you can tell by the values, which are all different). These can be split up with separate, thus:

prefs0 %>% pivot_longer(-softness, names_to = "combo", values_to = "frequency") %>% 
separate(combo, into = c("prev_user", "temperature", "preference"), sep = "_")

## # A tibble: 24 x 5
##    softness prev_user temperature preference frequency
##    <chr>    <chr>     <chr>       <chr>          <dbl>
##  1 hard     no        low         x                 68
##  2 hard     no        low         m                 42
##  3 hard     no        high        x                 42
##  4 hard     no        high        m                 30
##  5 hard     yes       low         x                 37
##  6 hard     yes       low         m                 52
##  7 hard     yes       high        x                 24
##  8 hard     yes       high        m                 43
##  9 medium   no        low         x                 66
## 10 medium   no        low         m                 50
## # … with 14 more rows

That works, but the combination of pivot_longer and separate is a common one, and so there is an “advanced” version of pivot_longer that does it all at once. The idea is that you enter three columns into names_to and then use names_sep to say what they’re separated by:

prefs0 %>% 
pivot_longer(-softness, 
names_to = c("m_user", "temperature", "prefer"),
names_sep = "_", values_to = "frequency") 

## # A tibble: 24 x 5
##    softness m_user temperature prefer frequency
##    <chr>    <chr>  <chr>       <chr>      <dbl>
##  1 hard     no     low         x             68
##  2 hard     no     low         m             42
##  3 hard     no     high        x             42
##  4 hard     no     high        m             30
##  5 hard     yes    low         x             37
##  6 hard     yes    low         m             52
##  7 hard     yes    high        x             24
##  8 hard     yes    high        m             43
##  9 medium   no     low         x             66
## 10 medium   no     low         m             50
## # … with 14 more rows
…
