Chapter 35 Hierarchical cluster analysis | Problems and Solutions in Applied Statistics
…
Solution

my_url <- "http://ritsokiguess.site/datafiles/seabed1.csv"
seabed <- read_csv(my_url)

## 
## ── Column specification ──────────────────────────────────────────────────────────────────────────────────────────────────────────────────────────────────────────────────────────────────────
## cols(
##   .default = col_double()
## )
## ℹ Use `spec()` for the full column specifications.

seabed

## # A tibble: 30 x 30
##       s1    s2    s3    s4    s5    s6    s7    s8    s9   s10   s11   s12   s13
##    <dbl> <dbl> <dbl> <dbl> <dbl> <dbl> <dbl> <dbl> <dbl> <dbl> <dbl> <dbl> <dbl>
##  1 0     0.457 0.296 0.467 0.477 0.522 0.455 0.933 0.333 0.403 0.357 0.375 0.577
##  2 0.457 0     0.481 0.556 0.348 0.229 0.415 0.930 0.222 0.447 0.566 0.215 0.671
##  3 0.296 0.481 0     0.467 0.508 0.522 0.491 1     0.407 0.343 0.214 0.325 0.654
##  4 0.467 0.556 0.467 0     0.786 0.692 0.870 1     0.639 0.379 0.532 0.549 0.302
##  5 0.477 0.348 0.508 0.786 0     0.419 0.212 0.854 0.196 0.564 0.373 0.319 0.714
##  6 0.522 0.229 0.522 0.692 0.419 0     0.509 0.933 0.243 0.571 0.530 0.237 0.676
##  7 0.455 0.415 0.491 0.870 0.212 0.509 0     0.806 0.317 0.588 0.509 0.358 0.925
##  8 0.933 0.930 1     1     0.854 0.933 0.806 0     0.895 1     0.938 0.929 0.929
##  9 0.333 0.222 0.407 0.639 0.196 0.243 0.317 0.895 0     0.489 0.349 0.159 0.595
## 10 0.403 0.447 0.343 0.379 0.564 0.571 0.588 1     0.489 0     0.449 0.419 0.415
## # … with 20 more rows, and 17 more variables: s14 <dbl>, s15 <dbl>, s16 <dbl>,
## #   s17 <dbl>, s18 <dbl>, s19 <dbl>, s20 <dbl>, s21 <dbl>, s22 <dbl>,
## #   s23 <dbl>, s24 <dbl>, s25 <dbl>, s26 <dbl>, s27 <dbl>, s28 <dbl>,
## #   s29 <dbl>, s30 <dbl>
…
seabed.z

## # A tibble: 30 x 10
##    site      a     b     c     d     e depth pollution  temp sediment
##    <chr> <dbl> <dbl> <dbl> <dbl> <dbl> <dbl>     <dbl> <dbl> <chr>   
##  1 s1        0     2     9    14     2    72       4.8   3.5 s       
##  2 s2       26     4    13    11     0    75       2.8   2.5 c       
##  3 s3        0    10     9     8     0    59       5.4   2.7 c       
##  4 s4        0     0    15     3     0    64       8.2   2.9 s       
##  5 s5       13     5     3    10     7    61       3.9   3.1 c       
##  6 s6       31    21    13    16     5    94       2.6   3.5 g       
##  7 s7        9     6     0    11     2    53       4.6   2.9 s       
##  8 s8        2     0     0     0     1    61       5.1   3.3 c       
##  9 s9       17     7    10    14     6    68       3.9   3.4 c       
## 10 s10       0     5    26     9     0    69      10     3   s       
## # … with 20 more rows
…
sites <- str_c("s", 1:30)
sites

##  [1] "s1"  "s2"  "s3"  "s4"  "s5"  "s6"  "s7"  "s8"  "s9"  "s10" "s11" "s12"
## [13] "s13" "s14" "s15" "s16" "s17" "s18" "s19" "s20" "s21" "s22" "s23" "s24"
## [25] "s25" "s26" "s27" "s28" "s29" "s30"

Next, we need to make all possible pairs of sites, which we
also know how to do:

site_pairs <- crossing(site1 = sites, site2 = sites)
site_pairs

## # A tibble: 900 x 2
##    site1 site2
##    <chr> <chr>
##  1 s1    s1   
##  2 s1    s10  
##  3 s1    s11  
##  4 s1    s12  
##  5 s1    s13  
##  6 s1    s14  
##  7 s1    s15  
##  8 s1    s16  
##  9 s1    s17  
## 10 s1    s18  
## # … with 890 more rows

Now, think about what to do in English first: “for each of the sites in site1, and for each of the sites in site2, taken in parallel, work out the Bray-Curtis distance.” This is, I hope,
making you think of rowwise:

site_pairs %>%
  rowwise() %>% 
  mutate(bray_curtis = braycurtis.spec(seabed.z, site1, site2)) -> bc
bc

## # A tibble: 900 x 3
## # Rowwise: 
##    site1 site2 bray_curtis
##    <chr> <chr>       <dbl>
##  1 s1    s1          0    
##  2 s1    s10         0.403
##  3 s1    s11         0.357
##  4 s1    s12         0.375
##  5 s1    s13         0.577
##  6 s1    s14         0.633
##  7 s1    s15         0.208
##  8 s1    s16         0.857
##  9 s1    s17         1    
## 10 s1    s18         0.569
## # … with 890 more rows

(you might notice that this takes a noticeable time to run.)

This is a “long” data frame, but for the cluster analysis, we need a wide one with sites in rows and columns, so let’s create that:

(bc %>% pivot_wider(names_from=site2, values_from=bray_curtis) -> bc2)

## # A tibble: 30 x 31
##    site1    s1   s10   s11   s12   s13   s14   s15   s16   s17   s18   s19    s2
##    <chr> <dbl> <dbl> <dbl> <dbl> <dbl> <dbl> <dbl> <dbl> <dbl> <dbl> <dbl> <dbl>
##  1 s1    0     0.403 0.357 0.375 0.577 0.633 0.208 0.857 1     0.569 0.169 0.457
##  2 s10   0.403 0     0.449 0.419 0.415 0.710 0.424 0.856 1     0.380 0.333 0.447
##  3 s11   0.357 0.449 0     0.463 0.481 0.765 0.491 0.66  1     0.627 0.343 0.566
##  4 s12   0.375 0.419 0.463 0     0.667 0.413 0.342 0.548 0.860 0.254 0.253 0.215
##  5 s13   0.577 0.415 0.481 0.667 0     1     0.608 0.875 1     0.667 0.524 0.671
##  6 s14   0.633 0.710 0.765 0.413 1     0     0.458 0.656 0.692 0.604 0.633 0.421
##  7 s15   0.208 0.424 0.491 0.342 0.608 0.458 0     0.856 0.733 0.548 0.25  0.375
##  8 s16   0.857 0.856 0.66  0.548 0.875 0.656 0.856 0     0.893 0.512 0.761 0.472
##  9 s17   1     1     1     0.860 1     0.692 0.733 0.893 0     0.914 0.905 0.862
## 10 s18   0.569 0.380 0.627 0.254 0.667 0.604 0.548 0.512 0.914 0     0.449 0.315
## # … with 20 more rows, and 18 more variables: s20 <dbl>, s21 <dbl>, s22 <dbl>,
## #   s23 <dbl>, s24 <dbl>, s25 <dbl>, s26 <dbl>, s27 <dbl>, s28 <dbl>,
## #   s29 <dbl>, s3 <dbl>, s30 <dbl>, s4 <dbl>, s5 <dbl>, s6 <dbl>, s7 <dbl>,
## #   s8 <dbl>, s9 <dbl>
…
This is good to go into the cluster analysis (happening later).

There is a tidyverse way to do this also. It’s actually a lot
like the loop way in its conception, but the coding looks
different. We start by making all combinations of the fruit names with
each other, which is crossing:

combos <- crossing(fruit = fruit_names, other = fruit_names)
combos

## # A tibble: 36 x 2
##    fruit  other     
##    <chr>  <chr>     
##  1 Apple  Apple     
##  2 Apple  Banana    
##  3 Apple  Blueberry 
##  4 Apple  Orange    
##  5 Apple  Pear      
##  6 Apple  Strawberry
##  7 Banana Apple     
##  8 Banana Banana    
##  9 Banana Blueberry 
## 10 Banana Orange    
## # … with 26 more rows
…
## [1] 1

select can take a column number or a column name, so
that running it with column names gives the right answer.

Now, we want to run this function for each of the pairs in
combos. This is rowwise, since our function takes only one fruit and one other fruit at a time, not all of them at once:

combos %>% 
  rowwise() %>% 
  mutate(dissim = dissim(fruit, other, fruit2))

## # A tibble: 36 x 3
## # Rowwise: 
##    fruit  other      dissim
##    <chr>  <chr>       <int>
##  1 Apple  Apple           0
##  2 Apple  Banana          3
##  3 Apple  Blueberry       3
##  4 Apple  Orange          1
##  5 Apple  Pear            2
##  6 Apple  Strawberry      3
##  7 Banana Apple           3
##  8 Banana Banana          0
##  9 Banana Blueberry       2
## 10 Banana Orange          2
## # … with 26 more rows
…
bridges0

## # A tibble: 108 x 13
##    id    river location erected purpose  length lanes clear_g t_d     material
##    <chr> <chr>    <dbl> <chr>   <chr>    <chr>  <dbl> <chr>   <chr>   <chr>   
##  1 E1    M            3 CRAFTS  HIGHWAY  <NA>       2 N       THROUGH WOOD    
##  2 E2    A           25 CRAFTS  HIGHWAY  MEDIUM     2 N       THROUGH WOOD    
##  3 E3    A           39 CRAFTS  AQUEDUCT <NA>       1 N       THROUGH WOOD    
##  4 E5    A           29 CRAFTS  HIGHWAY  MEDIUM     2 N       THROUGH WOOD    
##  5 E6    M           23 CRAFTS  HIGHWAY  <NA>       2 N       THROUGH WOOD    
##  6 E7    A           27 CRAFTS  HIGHWAY  SHORT      2 N       THROUGH WOOD    
##  7 E8    A           28 CRAFTS  AQUEDUCT MEDIUM     1 N       THROUGH IRON    
##  8 E9    M            3 CRAFTS  HIGHWAY  MEDIUM     2 N       THROUGH IRON    
##  9 E10   A           39 CRAFTS  AQUEDUCT <NA>       1 N       DECK    WOOD    
## 10 E11   A           29 CRAFTS  HIGHWAY  MEDIUM     2 N       THROUGH WOOD    
## # … with 98 more rows, and 3 more variables: span <chr>, rel_l <chr>,
## #   type <chr>
…
\(\blacksquare\)

Use drop_na to remove any rows of the data frame with missing values in them. How many rows do you have left?

Solution

This is as simple as:

bridges0 %>% drop_na() -> bridges
bridges

## # A tibble: 70 x 13
##    id    river location erected purpose  length lanes clear_g t_d     material
##    <chr> <chr>    <dbl> <chr>   <chr>    <chr>  <dbl> <chr>   <chr>   <chr>   
##  1 E2    A           25 CRAFTS  HIGHWAY  MEDIUM     2 N       THROUGH WOOD    
##  2 E5    A           29 CRAFTS  HIGHWAY  MEDIUM     2 N       THROUGH WOOD    
##  3 E7    A           27 CRAFTS  HIGHWAY  SHORT      2 N       THROUGH WOOD    
##  4 E8    A           28 CRAFTS  AQUEDUCT MEDIUM     1 N       THROUGH IRON    
##  5 E9    M            3 CRAFTS  HIGHWAY  MEDIUM     2 N       THROUGH IRON    
##  6 E11   A           29 CRAFTS  HIGHWAY  MEDIUM     2 N       THROUGH WOOD    
##  7 E14   M            6 CRAFTS  HIGHWAY  MEDIUM     2 N       THROUGH WOOD    
##  8 E16   A           25 CRAFTS  HIGHWAY  MEDIUM     2 N       THROUGH IRON    
##  9 E18   A           28 CRAFTS  RR       MEDIUM     2 N       THROUGH IRON    
## 10 E19   A           29 CRAFTS  HIGHWAY  MEDIUM     2 N       THROUGH WOOD    
## # … with 60 more rows, and 3 more variables: span <chr>, rel_l <chr>,
## #   type <chr>
…
Create a matrix or data frame of pairwise dissimilarities
between each pair of bridges (using only the ones with no missing
values). Use loops, or crossing and rowwise, as
you prefer. Display the first six rows of
your matrix (using head) or the first few rows of your data
frame. (The whole thing is big, so don’t display it all.)

Solution

First thing, either way, is to find out how many bridges we have left:

bridges

## # A tibble: 70 x 13
##    id    river location erected purpose  length lanes clear_g t_d     material
##    <chr> <chr>    <dbl> <chr>   <chr>    <chr>  <dbl> <chr>   <chr>   <chr>   
##  1 E2    A           25 CRAFTS  HIGHWAY  MEDIUM     2 N       THROUGH WOOD    
##  2 E5    A           29 CRAFTS  HIGHWAY  MEDIUM     2 N       THROUGH WOOD    
##  3 E7    A           27 CRAFTS  HIGHWAY  SHORT      2 N       THROUGH WOOD    
##  4 E8    A           28 CRAFTS  AQUEDUCT MEDIUM     1 N       THROUGH IRON    
##  5 E9    M            3 CRAFTS  HIGHWAY  MEDIUM     2 N       THROUGH IRON    
##  6 E11   A           29 CRAFTS  HIGHWAY  MEDIUM     2 N       THROUGH WOOD    
##  7 E14   M            6 CRAFTS  HIGHWAY  MEDIUM     2 N       THROUGH WOOD    
##  8 E16   A           25 CRAFTS  HIGHWAY  MEDIUM     2 N       THROUGH IRON    
##  9 E18   A           28 CRAFTS  RR       MEDIUM     2 N       THROUGH IRON    
## 10 E19   A           29 CRAFTS  HIGHWAY  MEDIUM     2 N       THROUGH WOOD    
## # … with 60 more rows, and 3 more variables: span <chr>, rel_l <chr>,
## #   type <chr>
…
The tidyverse way is really similar in conception. First use
crossing to create all combinations of i and j:

mm <- crossing(i = 1:70, j = 1:70)

and then use rowwise:

mm %>% 
  rowwise() %>% 
  mutate(diff = row_diff(i, j, bridges)) -> mm
mm

## # A tibble: 4,900 x 3
## # Rowwise: 
##        i     j  diff
##    <int> <int> <int>
##  1     1     1     0
##  2     1     2     0
##  3     1     3     2
##  4     1     4     4
##  5     1     5     3
##  6     1     6     1
##  7     1     7     2
##  8     1     8     4
##  9     1     9     3
## 10     1    10     1
## # … with 4,890 more rows

If you forget the rowwise, the answers (in diff) will all be the same, which should make you suspicious.

This is long format, though, so we need to pivot_wider the
j column to get a square array of dissimilarities:

mm %>% pivot_wider(names_from=j, values_from=diff) -> mm
mm

## # A tibble: 70 x 71
##        i   `1`   `2`   `3`   `4`   `5`   `6`   `7`   `8`   `9`  `10`  `11`  `12`
##    <int> <int> <int> <int> <int> <int> <int> <int> <int> <int> <int> <int> <int>
##  1     1     0     0     2     4     3     1     2     4     3     1     2     3
##  2     2     0     0     2     4     3     1     2     4     3     1     2     3
##  3     3     2     2     0     6     5     1     2     4     5     1     2     5
##  4     4     4     4     6     0     3     5     6     4     3     5     6     6
##  5     5     3     3     5     3     0     4     3     3     3     4     5     6
##  6     6     1     1     1     5     4     0     1     3     4     0     1     4
##  7     7     2     2     2     6     3     1     0     4     5     1     2     5
##  8     8     4     4     4     4     3     3     4     0     4     3     4     7
##  9     9     3     3     5     3     3     4     5     4     0     4     5     6
## 10    10     1     1     1     5     4     0     1     3     4     0     1     4
## # … with 60 more rows, and 58 more variables: 13 <int>, 14 <int>, 15 <int>,
## #   16 <int>, 17 <int>, 18 <int>, 19 <int>, 20 <int>, 21 <int>, 22 <int>,
## #   23 <int>, 24 <int>, 25 <int>, 26 <int>, 27 <int>, 28 <int>, 29 <int>,
## #   30 <int>, 31 <int>, 32 <int>, 33 <int>, 34 <int>, 35 <int>, 36 <int>,
## #   37 <int>, 38 <int>, 39 <int>, 40 <int>, 41 <int>, 42 <int>, 43 <int>,
## #   44 <int>, 45 <int>, 46 <int>, 47 <int>, 48 <int>, 49 <int>, 50 <int>,
## #   51 <int>, 52 <int>, 53 <int>, 54 <int>, 55 <int>, 56 <int>, 57 <int>,
## #   58 <int>, 59 <int>, 60 <int>, 61 <int>, 62 <int>, 63 <int>, 64 <int>,
## #   65 <int>, 66 <int>, 67 <int>, 68 <int>, 69 <int>, 70 <int>
…
or, if you got stuck,

my_url <- "http://ritsokiguess.site/datafiles/mm.csv"
mmm <- read_csv(my_url)

## 
## ── Column specification ──────────────────────────────────────────────────────────────────────────────────────────────────────────────────────────────────────────────────────────────────────
## cols(
##   .default = col_double()
## )
## ℹ Use `spec()` for the full column specifications.

mmm

## # A tibble: 70 x 71
##        i   `1`   `2`   `3`   `4`   `5`   `6`   `7`   `8`   `9`  `10`  `11`  `12`
##    <dbl> <dbl> <dbl> <dbl> <dbl> <dbl> <dbl> <dbl> <dbl> <dbl> <dbl> <dbl> <dbl>
##  1     1     0     0     2     4     3     1     2     4     3     1     2     3
##  2     2     0     0     2     4     3     1     2     4     3     1     2     3
##  3     3     2     2     0     6     5     1     2     4     5     1     2     5
##  4     4     4     4     6     0     3     5     6     4     3     5     6     6
##  5     5     3     3     5     3     0     4     3     3     3     4     5     6
##  6     6     1     1     1     5     4     0     1     3     4     0     1     4
##  7     7     2     2     2     6     3     1     0     4     5     1     2     5
##  8     8     4     4     4     4     3     3     4     0     4     3     4     7
##  9     9     3     3     5     3     3     4     5     4     0     4     5     6
## 10    10     1     1     1     5     4     0     1     3     4     0     1     4
## # … with 60 more rows, and 58 more variables: 13 <dbl>, 14 <dbl>, 15 <dbl>,
## #   16 <dbl>, 17 <dbl>, 18 <dbl>, 19 <dbl>, 20 <dbl>, 21 <dbl>, 22 <dbl>,
## #   23 <dbl>, 24 <dbl>, 25 <dbl>, 26 <dbl>, 27 <dbl>, 28 <dbl>, 29 <dbl>,
## #   30 <dbl>, 31 <dbl>, 32 <dbl>, 33 <dbl>, 34 <dbl>, 35 <dbl>, 36 <dbl>,
## #   37 <dbl>, 38 <dbl>, 39 <dbl>, 40 <dbl>, 41 <dbl>, 42 <dbl>, 43 <dbl>,
## #   44 <dbl>, 45 <dbl>, 46 <dbl>, 47 <dbl>, 48 <dbl>, 49 <dbl>, 50 <dbl>,
## #   51 <dbl>, 52 <dbl>, 53 <dbl>, 54 <dbl>, 55 <dbl>, 56 <dbl>, 57 <dbl>,
## #   58 <dbl>, 59 <dbl>, 60 <dbl>, 61 <dbl>, 62 <dbl>, 63 <dbl>, 64 <dbl>,
## #   65 <dbl>, 66 <dbl>, 67 <dbl>, 68 <dbl>, 69 <dbl>, 70 <dbl>
…
