Chapter 36 K-means cluster analysis | Problems and Solutions in Applied Statistics
…
athletes

## # A tibble: 202 x 13
##    Sex    Sport     RCC   WCC    Hc    Hg  Ferr   BMI   SSF `%Bfat`   LBM    Ht    Wt
##    <chr>  <chr>   <dbl> <dbl> <dbl> <dbl> <dbl> <dbl> <dbl>   <dbl> <dbl> <dbl> <dbl>
##  1 female Netball  4.56  13.3  42.2  13.6    20  19.2  49      11.3  53.1  177.  59.9
##  2 female Netball  4.15   6    38    12.7    59  21.2 110.     25.3  47.1  173.  63  
##  3 female Netball  4.16   7.6  37.5  12.3    22  21.4  89      19.4  53.4  176   66.3
##  4 female Netball  4.32   6.4  37.7  12.3    30  21.0  98.3    19.6  48.8  170.  60.7
##  5 female Netball  4.06   5.8  38.7  12.8    78  21.8 122.     23.1  56.0  183   72.9
##  6 female Netball  4.12   6.1  36.6  11.8    21  21.4  90.4    16.9  56.4  178.  67.9
##  7 female Netball  4.17   5    37.4  12.7   109  21.5 107.     21.3  53.1  177.  67.5
##  8 female Netball  3.8    6.6  36.5  12.4   102  24.4 157.     26.6  54.4  174.  74.1
##  9 female Netball  3.96   5.5  36.3  12.4    71  22.6 101.     17.9  56.0  174.  68.2
## 10 female Netball  4.44   9.7  41.4  14.1    64  22.8 126.     25.0  51.6  174.  68.8
## # … with 192 more rows

\(\blacksquare\)

From your data frame, select only the columns that are numbers
(or get rid of the ones that are text), and standardize all of the
columns you have left. This is, done the best way, a slick piece of
code. Display what you get.

Solution

This first one is a bit too slick:

athletes %>% mutate(across(where(is.numeric), ~scale(.)))

## # A tibble: 202 x 13
##    Sex    Sport   RCC[,1] WCC[,1] Hc[,1] Hg[,1] Ferr[,1] BMI[,1] SSF[,1] `%Bfat`[,1] LBM[,1] Ht[,1]  Wt[,1]
##    <chr>  <chr>     <dbl>   <dbl>  <dbl>  <dbl>    <dbl>   <dbl>   <dbl>       <dbl>   <dbl>  <dbl>   <dbl>
##  1 female Netball  -0.346   3.44  -0.243 -0.709  -1.20   -1.33    -0.615      -0.358  -0.898 -0.339 -1.08  
##  2 female Netball  -1.24   -0.616 -1.39  -1.37   -0.376  -0.631    1.26        1.90   -1.36  -0.771 -0.862 
##  3 female Netball  -1.22    0.273 -1.53  -1.66   -1.16   -0.543    0.613       0.950  -0.875 -0.422 -0.625 
##  4 female Netball  -0.870  -0.394 -1.47  -1.66   -0.987  -0.672    0.899       0.989  -1.23  -1.05  -1.03  
##  5 female Netball  -1.44   -0.727 -1.20  -1.30    0.0237 -0.414    1.63        1.55   -0.675  0.298 -0.151 
##  6 female Netball  -1.31   -0.560 -1.77  -2.03   -1.18   -0.550    0.656       0.542  -0.644 -0.196 -0.510 
##  7 female Netball  -1.20   -1.17  -1.55  -1.37    0.676  -0.519    1.16        1.26   -0.900 -0.288 -0.539 
##  8 female Netball  -2.01   -0.283 -1.80  -1.59    0.529   0.522    2.69        2.11   -0.801 -0.617 -0.0652
##  9 female Netball  -1.66   -0.893 -1.85  -1.59   -0.124  -0.114    0.985       0.714  -0.681 -0.668 -0.489 
## 10 female Netball  -0.608   1.44  -0.462 -0.342  -0.271  -0.0544   1.76        1.85   -1.01  -0.658 -0.446 
## # … with 192 more rows

It standardizes all the columns that are numeric all right, but any other columns it finds it leaves as they are, while we want to get rid of them first. So do it in two steps: get the numeric columns, and standardize all of those:

athletes %>% select(where(is.numeric)) %>% 
  mutate(across(everything(), ~scale(.))) -> athletes.s

This, in fact:

athletes.s

## # A tibble: 202 x 11
##    RCC[,1] WCC[,1] Hc[,1] Hg[,1] Ferr[,1] BMI[,1] SSF[,1] `%Bfat`[,1] LBM[,1] Ht[,1]  Wt[,1]
##      <dbl>   <dbl>  <dbl>  <dbl>    <dbl>   <dbl>   <dbl>       <dbl>   <dbl>  <dbl>   <dbl>
##  1  -0.346   3.44  -0.243 -0.709  -1.20   -1.33    -0.615      -0.358  -0.898 -0.339 -1.08  
##  2  -1.24   -0.616 -1.39  -1.37   -0.376  -0.631    1.26        1.90   -1.36  -0.771 -0.862 
##  3  -1.22    0.273 -1.53  -1.66   -1.16   -0.543    0.613       0.950  -0.875 -0.422 -0.625 
##  4  -0.870  -0.394 -1.47  -1.66   -0.987  -0.672    0.899       0.989  -1.23  -1.05  -1.03  
##  5  -1.44   -0.727 -1.20  -1.30    0.0237 -0.414    1.63        1.55   -0.675  0.298 -0.151 
##  6  -1.31   -0.560 -1.77  -2.03   -1.18   -0.550    0.656       0.542  -0.644 -0.196 -0.510 
##  7  -1.20   -1.17  -1.55  -1.37    0.676  -0.519    1.16        1.26   -0.900 -0.288 -0.539 
##  8  -2.01   -0.283 -1.80  -1.59    0.529   0.522    2.69        2.11   -0.801 -0.617 -0.0652
##  9  -1.66   -0.893 -1.85  -1.59   -0.124  -0.114    0.985       0.714  -0.681 -0.668 -0.489 
## 10  -0.608   1.44  -0.462 -0.342  -0.271  -0.0544   1.76        1.85   -1.01  -0.658 -0.446 
## # … with 192 more rows
…
Make a data frame consisting of the athletes’ sport and
gender, and which of your clusters they belong to, taking the
appropriate things from the appropriate one of your data frames.

Solution

athletes2 <- tibble(
  gender = athletes$Sex,
  sport = athletes$Sport,
  cluster = athletes.km$cluster
)
athletes2

## # A tibble: 202 x 3
##    gender sport   cluster
##    <chr>  <chr>     <int>
##  1 female Netball      12
##  2 female Netball       9
##  3 female Netball       9
##  4 female Netball       9
##  5 female Netball       9
##  6 female Netball       9
##  7 female Netball       9
##  8 female Netball      11
##  9 female Netball       9
## 10 female Netball      11
## # … with 192 more rows
…
##        ht              wt       
##  Min.   :156.0   Min.   :49.80  
##  1st Qu.:179.3   1st Qu.:72.90  
##  Median :181.8   Median :78.70  
##  Mean   :182.4   Mean   :78.54  
##  3rd Qu.:186.3   3rd Qu.:87.20  
##  Max.   :198.0   Max.   :97.00

The rower that is in cluster 3 is almost the lightest, and also almost
the shortest, of all the rowers.
Cluster 4:

athletes2 %>% filter(cluster == 4) 

## # A tibble: 23 x 3
##    gender sport   cluster
##    <chr>  <chr>     <int>
##  1 female Netball       4
##  2 female Row           4
##  3 female Swim          4
##  4 female Swim          4
##  5 female Swim          4
##  6 female Swim          4
##  7 female Swim          4
##  8 female Field         4
##  9 female T400m         4
## 10 female T400m         4
## # … with 13 more rows
…
decathlon0

## # A tibble: 24 x 11
##    name               x100m long.jump shot.put high.jump x400m x110mh discus pole.vault javelin x1500m
##    <chr>              <dbl>     <dbl>    <dbl>     <dbl> <dbl>  <dbl>  <dbl>      <dbl>   <dbl>  <dbl>
##  1 Ashton Eaton        10.4      7.73     14.4      1.93  46.0   13.7   45          5.2    64.8   270.
##  2 Damian Warner       10.4      7.39     14.2      2.05  48.4   14.0   44.1        4.8    64.7   270.
##  3 Rico Freimuth       10.6      7.22     14.8      1.99  48.0   13.9   48.7        4.9    56.2   278.
##  4 Mihail Dudas        10.7      7.51     13.4      1.96  47.7   14.6   44.1        4.9    59.1   267.
##  5 Michael Schrader    10.7      7.85     14.6      1.99  47.7   14.3   46.4        5      65.7   265.
##  6 Carlos Chinin       10.8      7.54     14.5      1.96  48.8   14.0   45.8        5.1    60.0   276.
##  7 Gunnar Nixon        10.8      7.8      14.7      2.14  48.6   14.6   42.4        4.6    58.0   276.
##  8 Eelco Sintnicolaas  10.8      7.65     14.1      2.02  48.2   14.2   39.2        5.3    56.8   265.
##  9 Pascal Behrenbruch  11.0      7.19     15.9      1.99  48.4   14.5   45.7        4.7    67.1   277.
## 10 Willem Coertzen     11.0      7.44     13.9      2.05  48.3   14.3   43.2        4.5    69.4   265.
## # … with 14 more rows
…
I displayed the result, so that I would know which of the things I
needed later. The Available components at the bottom is a big
hint with this.

To display who is in which cluster, it’s easiest to
make a data frame of names and clusters and sort it:

tibble(name = decathlon0$name, cluster = decathlon.1$cluster) %>%
  arrange(cluster) 

## # A tibble: 24 x 2
##    name               cluster
##    <chr>                <int>
##  1 Sergey Sviridov          1
##  2 Brent Newdick            1
##  3 Maicel Uibo              1
##  4 Keisuke Ushiro           1
##  5 Rico Freimuth            2
##  6 Carlos Chinin            2
##  7 Gunnar Nixon             2
##  8 Pascal Behrenbruch       2
##  9 Eduard Mikhan            2
## 10 Artem Lukyanenko         2
## # … with 14 more rows
…
or, for this, maybe better:

cor(decathlon) %>%
  as.data.frame() %>%
  rownames_to_column("event") %>%
  pivot_longer(-event, names_to="event2", values_to="corr") %>%
  filter(event < event2) %>%
  arrange(desc(abs(corr)))

## # A tibble: 45 x 3
##    event      event2      corr
##    <chr>      <chr>      <dbl>
##  1 x110mh     x400m      0.803
##  2 x100m      x400m      0.789
##  3 x100m      x110mh     0.674
##  4 long.jump  x100m     -0.614
##  5 long.jump  x400m     -0.548
##  6 pole.vault x110mh    -0.519
##  7 discus     shot.put   0.464
##  8 high.jump  long.jump  0.464
##  9 x1500m     x400m      0.447
## 10 x110mh     x1500m     0.398
## # … with 35 more rows
…
## 
## ── Column specification ──────────────────────────────────────────────────────────────────────────────────────────────────────────────────────────────────────────────────────────────────────
## cols(
##   length = col_double(),
##   left = col_double(),
##   right = col_double(),
##   bottom = col_double(),
##   top = col_double(),
##   diag = col_double(),
##   status = col_character()
## )

swiss

## # A tibble: 200 x 7
##    length  left right bottom   top  diag status 
##     <dbl> <dbl> <dbl>  <dbl> <dbl> <dbl> <chr>  
##  1   215.  131   131.    9     9.7  141  genuine
##  2   215.  130.  130.    8.1   9.5  142. genuine
##  3   215.  130.  130.    8.7   9.6  142. genuine
##  4   215.  130.  130.    7.5  10.4  142  genuine
##  5   215   130.  130.   10.4   7.7  142. genuine
##  6   216.  131.  130.    9    10.1  141. genuine
##  7   216.  130.  130.    7.9   9.6  142. genuine
##  8   214.  130.  129.    7.2  10.7  142. genuine
##  9   215.  129.  130.    8.2  11    142. genuine
## 10   215.  130.  130.    9.2  10    141. genuine
## # … with 190 more rows
…
## 
## ── Column specification ──────────────────────────────────────────────────────────────────────────────────────────────────────────────────────────────────────────────────────────────────────
## cols(
##   Carname = col_character(),
##   mpg = col_double(),
##   disp = col_double(),
##   hp = col_double(),
##   drat = col_double(),
##   wt = col_double(),
##   qsec = col_double()
## )

cars

## # A tibble: 32 x 7
##    Carname             mpg  disp    hp  drat    wt  qsec
##    <chr>             <dbl> <dbl> <dbl> <dbl> <dbl> <dbl>
##  1 Mazda RX4          21    160    110  3.9   2.62  16.5
##  2 Mazda RX4 Wag      21    160    110  3.9   2.88  17.0
##  3 Datsun 710         22.8  108     93  3.85  2.32  18.6
##  4 Hornet 4 Drive     21.4  258    110  3.08  3.22  19.4
##  5 Hornet Sportabout  18.7  360    175  3.15  3.44  17.0
##  6 Valiant            18.1  225    105  2.76  3.46  20.2
##  7 Duster 360         14.3  360    245  3.21  3.57  15.8
##  8 Merc 240D          24.4  147.    62  3.69  3.19  20  
##  9 Merc 230           22.8  141.    95  3.92  3.15  22.9
## 10 Merc 280           19.2  168.   123  3.92  3.44  18.3
## # … with 22 more rows
…
Solution

As below. The car names are in the Carname column of the
original cars data frame, and the cluster numbers are in
the cluster part of the output from kmeans. You’ll
need to take some action to display everything (there are only 32
cars, so it’s perfectly all right to display all of them):

tibble(car = cars$Carname, cluster = cars.1$cluster) %>%
  arrange(cluster) 

## # A tibble: 32 x 2
##    car            cluster
##    <chr>            <int>
##  1 Mazda RX4            1
##  2 Mazda RX4 Wag        1
##  3 Datsun 710           1
##  4 Hornet 4 Drive       1
##  5 Valiant              1
##  6 Merc 240D            1
##  7 Merc 230             1
##  8 Merc 280             1
##  9 Merc 280C            1
## 10 Toyota Corona        1
## # … with 22 more rows

Or start from the original data frame as read in from the file and
grab only what you want:

cars %>%
  select(Carname) %>%
  mutate(cluster = cars.1$cluster) %>%
  arrange(cluster) 

## # A tibble: 32 x 2
##    Carname        cluster
##    <chr>            <int>
##  1 Mazda RX4            1
##  2 Mazda RX4 Wag        1
##  3 Datsun 710           1
##  4 Hornet 4 Drive       1
##  5 Valiant              1
##  6 Merc 240D            1
##  7 Merc 230             1
##  8 Merc 280             1
##  9 Merc 280C            1
## 10 Toyota Corona        1
## # … with 22 more rows
…
cars.2 <- kmeans(cars.s, 6, nstart = 20)

or use whatever number of clusters you thought was good from your
scree plot.

Then display them:

cars %>%
  select(Carname) %>%
  mutate(cluster = cars.2$cluster) %>%
  arrange(cluster) 

## # A tibble: 32 x 2
##    Carname        cluster
##    <chr>            <int>
##  1 Fiat 128             1
##  2 Honda Civic          1
##  3 Toyota Corolla       1
##  4 Fiat X1-9            1
##  5 Porsche 914-2        1
##  6 Lotus Europa         1
##  7 Mazda RX4            2
##  8 Mazda RX4 Wag        2
##  9 Datsun 710           2
## 10 Merc 280             2
## # … with 22 more rows
…
beer

## # A tibble: 32 x 11
##    student AnchorS  Bass Becks Corona GordonB Guinness Heineken PetesW SamAdams SierraN
##    <chr>     <dbl> <dbl> <dbl>  <dbl>   <dbl>    <dbl>    <dbl>  <dbl>    <dbl>   <dbl>
##  1 S001          5     9     7      1       7        6        6      5        9       5
##  2 S008          7     5     6      8       8        4        8      8        7       7
##  3 S015          7     7     5      6       6        1        8      4        7       5
##  4 S022          7     7     5      2       5        8        4      6        8       9
##  5 S029          9     7     3      1       6        8        2      7        6       8
##  6 S036          7     6     4      3       7        6        6      5        4       9
##  7 S043          5     5     5      6       6        4        7      5        5       6
##  8 S050          5     3     1      5       5        5        3      5        5       9
##  9 S057          9     3     2      6       4        6        1      5        3       6
## 10 S064          2     6     6      5       6        4        8      4        4       3
## # … with 22 more rows
…
Extra: as to why the clusters split up like this, I think the four
beers on the left of my dendrogram are “dark” and the six on
the right are “light” (in colour), and I would expect the
students to tend to like all the beers of one type and not so
much all the beers of the other type.

You knew I would have to investigate this, didn’t you? Let’s aim
for a scatterplot of all the ratings for the dark beers,
against the ones for the light beers.

Start with the data frame read in from the file:

beer

## # A tibble: 32 x 11
##    student AnchorS  Bass Becks Corona GordonB Guinness Heineken PetesW SamAdams SierraN
##    <chr>     <dbl> <dbl> <dbl>  <dbl>   <dbl>    <dbl>    <dbl>  <dbl>    <dbl>   <dbl>
##  1 S001          5     9     7      1       7        6        6      5        9       5
##  2 S008          7     5     6      8       8        4        8      8        7       7
##  3 S015          7     7     5      6       6        1        8      4        7       5
##  4 S022          7     7     5      2       5        8        4      6        8       9
##  5 S029          9     7     3      1       6        8        2      7        6       8
##  6 S036          7     6     4      3       7        6        6      5        4       9
##  7 S043          5     5     5      6       6        4        7      5        5       6
##  8 S050          5     3     1      5       5        5        3      5        5       9
##  9 S057          9     3     2      6       4        6        1      5        3       6
## 10 S064          2     6     6      5       6        4        8      4        4       3
## # … with 22 more rows
…
