Chapter 28 Logistic regression with nominal response | Problems and Solutions in Applied Statistics
…
my_url <- "http://ritsokiguess.site/datafiles/ess.csv"
ess <- read_csv(my_url)

## Rows: 2286 Columns: 17
## ── Column specification ────────────────────────────────────────────────────────
## Delimiter: ","
## chr  (4): cntry, cname, cproddat, name
## dbl (13): cedition, cseqno, essround, edition, idno, dweight, pspwght, pweig...
## 
## ℹ Use `spec()` to retrieve the full column specification for this data.
## ℹ Specify the column types or set `show_col_types = FALSE` to quiet this message.

ess

## # A tibble: 2,286 × 17
##    cntry cname    cedition cproddat cseqno name  essround edition   idno dweight
##    <chr> <chr>       <dbl> <chr>     <dbl> <chr>    <dbl>   <dbl>  <dbl>   <dbl>
##  1 GB    ESS1-6e…        1 26.11.2… 134168 ESS6…        6     2.1 101014   1.01 
##  2 GB    ESS1-6e…        1 26.11.2… 134169 ESS6…        6     2.1 101048   2.02 
##  3 GB    ESS1-6e…        1 26.11.2… 134170 ESS6…        6     2.1 101055   1.01 
##  4 GB    ESS1-6e…        1 26.11.2… 134171 ESS6…        6     2.1 101089   0.505
##  5 GB    ESS1-6e…        1 26.11.2… 134172 ESS6…        6     2.1 101097   0.505
##  6 GB    ESS1-6e…        1 26.11.2… 134173 ESS6…        6     2.1 101113   1.01 
##  7 GB    ESS1-6e…        1 26.11.2… 134174 ESS6…        6     2.1 101121   0.505
##  8 GB    ESS1-6e…        1 26.11.2… 134175 ESS6…        6     2.1 101139   0.505
##  9 GB    ESS1-6e…        1 26.11.2… 134176 ESS6…        6     2.1 101154   1.01 
## 10 GB    ESS1-6e…        1 26.11.2… 134177 ESS6…        6     2.1 101170   1.01 
## # … with 2,276 more rows, and 7 more variables: pspwght <dbl>, pweight <dbl>,
## #   prtvtgb <dbl>, gndr <dbl>, agea <dbl>, eduyrs <dbl>, inwtm <dbl>
…
Use pivot_longer to arrange the data
suitably for analysis (which will be using
multinom). Demonstrate (by looking at the first few rows
of your new data frame) that you now have something tidy.

Solution

I’m creating my “official” data frame here:

gators.orig %>% 
  pivot_longer(Fish:Other, names_to = "Food.type", values_to = "Frequency") -> gators
gators

## # A tibble: 80 × 6
##    profile Gender Size  Lake   Food.type    Frequency
##      <dbl> <chr>  <chr> <chr>  <chr>            <dbl>
##  1       1 f      <2.3  george Fish                 3
##  2       1 f      <2.3  george Invertebrate         9
##  3       1 f      <2.3  george Reptile              1
##  4       1 f      <2.3  george Bird                 0
##  5       1 f      <2.3  george Other                1
##  6       2 m      <2.3  george Fish                13
##  7       2 m      <2.3  george Invertebrate        10
##  8       2 m      <2.3  george Reptile              0
##  9       2 m      <2.3  george Bird                 2
## 10       2 m      <2.3  george Other                2
## # … with 70 more rows
…
except that this uses the original dataframe, in which the sizes and lakes are repeated (once for each food type, of which there are five):

gators

## # A tibble: 80 × 6
##    profile Gender Size  Lake   Food.type    Frequency
##      <dbl> <chr>  <chr> <chr>  <chr>            <dbl>
##  1       1 f      <2.3  george Fish                 3
##  2       1 f      <2.3  george Invertebrate         9
##  3       1 f      <2.3  george Reptile              1
##  4       1 f      <2.3  george Bird                 0
##  5       1 f      <2.3  george Other                1
##  6       2 m      <2.3  george Fish                13
##  7       2 m      <2.3  george Invertebrate        10
##  8       2 m      <2.3  george Reptile              0
##  9       2 m      <2.3  george Bird                 2
## 10       2 m      <2.3  george Other                2
## # … with 70 more rows
…
my_url <- "http://utsc.utoronto.ca/~butler/d29/sfcrime1.csv"
sfcrime <- read_csv(my_url)

## Rows: 359528 Columns: 3
## ── Column specification ────────────────────────────────────────────────────────
## Delimiter: ","
## chr (3): Category, DayOfWeek, PdDistrict
## 
## ℹ Use `spec()` to retrieve the full column specification for this data.
## ℹ Specify the column types or set `show_col_types = FALSE` to quiet this message.

sfcrime

## # A tibble: 359,528 × 3
##    Category      DayOfWeek PdDistrict
##    <chr>         <chr>     <chr>     
##  1 LARCENY/THEFT Wednesday NORTHERN  
##  2 LARCENY/THEFT Wednesday PARK      
##  3 LARCENY/THEFT Wednesday INGLESIDE 
##  4 VEHICLE THEFT Wednesday INGLESIDE 
##  5 VEHICLE THEFT Wednesday BAYVIEW   
##  6 LARCENY/THEFT Wednesday RICHMOND  
##  7 LARCENY/THEFT Wednesday CENTRAL   
##  8 LARCENY/THEFT Wednesday CENTRAL   
##  9 LARCENY/THEFT Wednesday NORTHERN  
## 10 ASSAULT       Wednesday INGLESIDE 
## # … with 359,518 more rows
…
## Rows: 878049 Columns: 9
## ── Column specification ────────────────────────────────────────────────────────
## Delimiter: ","
## chr  (6): Category, Descript, DayOfWeek, PdDistrict, Resolution, Address
## dbl  (2): X, Y
## dttm (1): Dates
## 
## ℹ Use `spec()` to retrieve the full column specification for this data.
## ℹ Specify the column types or set `show_col_types = FALSE` to quiet this message.

sfcrime

## # A tibble: 878,049 × 9
##    Dates               Category Descript DayOfWeek PdDistrict Resolution Address
##    <dttm>              <chr>    <chr>    <chr>     <chr>      <chr>      <chr>  
##  1 2015-05-13 23:53:00 WARRANTS WARRANT… Wednesday NORTHERN   ARREST, B… OAK ST…
##  2 2015-05-13 23:53:00 OTHER O… TRAFFIC… Wednesday NORTHERN   ARREST, B… OAK ST…
##  3 2015-05-13 23:33:00 OTHER O… TRAFFIC… Wednesday NORTHERN   ARREST, B… VANNES…
##  4 2015-05-13 23:30:00 LARCENY… GRAND T… Wednesday NORTHERN   NONE       1500 B…
##  5 2015-05-13 23:30:00 LARCENY… GRAND T… Wednesday PARK       NONE       100 Bl…
##  6 2015-05-13 23:30:00 LARCENY… GRAND T… Wednesday INGLESIDE  NONE       0 Bloc…
##  7 2015-05-13 23:30:00 VEHICLE… STOLEN … Wednesday INGLESIDE  NONE       AVALON…
##  8 2015-05-13 23:30:00 VEHICLE… STOLEN … Wednesday BAYVIEW    NONE       KIRKWO…
##  9 2015-05-13 23:00:00 LARCENY… GRAND T… Wednesday RICHMOND   NONE       600 Bl…
## 10 2015-05-13 23:00:00 LARCENY… GRAND T… Wednesday CENTRAL    NONE       JEFFER…
## # … with 878,039 more rows, and 2 more variables: X <dbl>, Y <dbl>
…
Find out which crime categories there are, and
arrange them in order of how many crimes there were in each
category.

Solution

This can be the one you know, a group-by and summarize, followed
by arrange to sort:

sfcrime %>% group_by(Category) %>%
summarize(count=n()) %>%
arrange(desc(count))

## # A tibble: 39 × 2
##    Category        count
##    <chr>           <int>
##  1 LARCENY/THEFT  174900
##  2 OTHER OFFENSES 126182
##  3 NON-CRIMINAL    92304
##  4 ASSAULT         76876
##  5 DRUG/NARCOTIC   53971
##  6 VEHICLE THEFT   53781
##  7 VANDALISM       44725
##  8 WARRANTS        42214
##  9 BURGLARY        36755
## 10 SUSPICIOUS OCC  31414
## # … with 29 more rows

or this one does the same thing and saves a step:

sfcrime %>% count(Category) %>%
arrange(desc(n))

## # A tibble: 39 × 2
##    Category            n
##    <chr>           <int>
##  1 LARCENY/THEFT  174900
##  2 OTHER OFFENSES 126182
##  3 NON-CRIMINAL    92304
##  4 ASSAULT         76876
##  5 DRUG/NARCOTIC   53971
##  6 VEHICLE THEFT   53781
##  7 VANDALISM       44725
##  8 WARRANTS        42214
##  9 BURGLARY        36755
## 10 SUSPICIOUS OCC  31414
## # … with 29 more rows
…
Solution

The hard part about this is to get the inputs to %in% the
right way around. We are testing the things in Category one
at a time for membership in the set in my.crimes, so this:

sfcrimea = sfcrime %>% filter(Category %in% my.crimes) %>%
select(c(Category,DayOfWeek,PdDistrict)) 
sfcrimea

## # A tibble: 359,528 × 3
##    Category      DayOfWeek PdDistrict
##    <chr>         <chr>     <chr>     
##  1 LARCENY/THEFT Wednesday NORTHERN  
##  2 LARCENY/THEFT Wednesday PARK      
##  3 LARCENY/THEFT Wednesday INGLESIDE 
##  4 VEHICLE THEFT Wednesday INGLESIDE 
##  5 VEHICLE THEFT Wednesday BAYVIEW   
##  6 LARCENY/THEFT Wednesday RICHMOND  
##  7 LARCENY/THEFT Wednesday CENTRAL   
##  8 LARCENY/THEFT Wednesday CENTRAL   
##  9 LARCENY/THEFT Wednesday NORTHERN  
## 10 ASSAULT       Wednesday INGLESIDE 
## # … with 359,518 more rows
…
my_url <- "http://ritsokiguess.site/datafiles/ais.txt"
athletes <- read_tsv(my_url)

## Rows: 202 Columns: 13
## ── Column specification ────────────────────────────────────────────────────────
## Delimiter: "\t"
## chr  (2): Sex, Sport
## dbl (11): RCC, WCC, Hc, Hg, Ferr, BMI, SSF, %Bfat, LBM, Ht, Wt
## 
## ℹ Use `spec()` to retrieve the full column specification for this data.
## ℹ Specify the column types or set `show_col_types = FALSE` to quiet this message.

athletes

## # A tibble: 202 × 13
##    Sex    Sport     RCC   WCC    Hc    Hg  Ferr   BMI   SSF `%Bfat`   LBM    Ht
##    <chr>  <chr>   <dbl> <dbl> <dbl> <dbl> <dbl> <dbl> <dbl>   <dbl> <dbl> <dbl>
##  1 female Netball  4.56  13.3  42.2  13.6    20  19.2  49      11.3  53.1  177.
##  2 female Netball  4.15   6    38    12.7    59  21.2 110.     25.3  47.1  173.
##  3 female Netball  4.16   7.6  37.5  12.3    22  21.4  89      19.4  53.4  176 
##  4 female Netball  4.32   6.4  37.7  12.3    30  21.0  98.3    19.6  48.8  170.
##  5 female Netball  4.06   5.8  38.7  12.8    78  21.8 122.     23.1  56.0  183 
##  6 female Netball  4.12   6.1  36.6  11.8    21  21.4  90.4    16.9  56.4  178.
##  7 female Netball  4.17   5    37.4  12.7   109  21.5 107.     21.3  53.1  177.
##  8 female Netball  3.8    6.6  36.5  12.4   102  24.4 157.     26.6  54.4  174.
##  9 female Netball  3.96   5.5  36.3  12.4    71  22.6 101.     17.9  56.0  174.
## 10 female Netball  4.44   9.7  41.4  14.1    64  22.8 126.     25.0  51.6  174.
## # … with 192 more rows, and 1 more variable: Wt <dbl>
…
