Chapter 26 Logistic regression | Problems and Solutions in Applied Statistics
…
## Warning: `read_table2()` was deprecated in readr 2.0.0.
## Please use `read_table()` instead.

## 
## ── Column specification ────────────────────────────────────────────────────────
## cols(
##   Grain.size = col_double(),
##   Spiders = col_character()
## )

spider

## # A tibble: 28 × 2
##    Grain.size Spiders
##         <dbl> <chr>  
##  1      0.245 absent 
##  2      0.247 absent 
##  3      0.285 present
##  4      0.299 present
##  5      0.327 present
##  6      0.347 present
##  7      0.356 absent 
##  8      0.36  present
##  9      0.363 absent 
## 10      0.364 present
## # … with 18 more rows
…
\(\blacksquare\)

Fit a logistic regression predicting the presence or
absence of spiders from the grain size, and obtain its
summary. Note that you will need to do something with the
response variable first.

Solution

The presence or absence of spiders is our response. This is
actually text at the moment:

spider

## # A tibble: 28 × 2
##    Grain.size Spiders
##         <dbl> <chr>  
##  1      0.245 absent 
##  2      0.247 absent 
##  3      0.285 present
##  4      0.299 present
##  5      0.327 present
##  6      0.347 present
##  7      0.356 absent 
##  8      0.36  present
##  9      0.363 absent 
## 10      0.364 present
## # … with 18 more rows

so we need to make a factor version of it first. I’m going to live on
the edge and overwrite everything:

spider <- spider %>% mutate(Spiders = factor(Spiders))
spider

## # A tibble: 28 × 2
##    Grain.size Spiders
##         <dbl> <fct>  
##  1      0.245 absent 
##  2      0.247 absent 
##  3      0.285 present
##  4      0.299 present
##  5      0.327 present
##  6      0.347 present
##  7      0.356 absent 
##  8      0.36  present
##  9      0.363 absent 
## 10      0.364 present
## # … with 18 more rows
…
my_url <- "http://ritsokiguess.site/datafiles/infection.txt"
infect <- read_tsv(my_url)

## Rows: 81 Columns: 4
## ── Column specification ────────────────────────────────────────────────────────
## Delimiter: "\t"
## chr (2): infected, sex
## dbl (2): age, weight
## 
## ℹ Use `spec()` to retrieve the full column specification for this data.
## ℹ Specify the column types or set `show_col_types = FALSE` to quiet this message.

infect

## # A tibble: 81 × 4
##    infected   age weight sex   
##    <chr>    <dbl>  <dbl> <chr> 
##  1 absent       2      1 female
##  2 absent       9     13 female
##  3 present     15      2 female
##  4 absent      15     16 female
##  5 absent      18      2 female
##  6 absent      20      9 female
##  7 absent      26     13 female
##  8 present     42      6 female
##  9 absent      51      9 female
## 10 present     52      6 female
## # … with 71 more rows
…
I got this example from (horrible URL warning) here: link
It starts on page 275 in my edition. He goes at the analysis
a different way, but he finishes with
another issue that I want to show you.

Let’s work out the residuals and plot them against our quantitative
explanatory variables. I think the best way to do this is
augment from broom, to create a data frame
containing the residuals alongside the original data:

library(broom)
infect.1a <- infect.1 %>% augment(infect)
infect.1a %>% as_tibble()

## # A tibble: 81 × 10
##    infected   age weight sex    .fitted .resid .std.resid   .hat .sigma  .cooksd
##    <chr>    <dbl>  <dbl> <chr>    <dbl>  <dbl>      <dbl>  <dbl>  <dbl>    <dbl>
##  1 absent       2      1 female   0.407 -1.35      -1.46  0.140   0.872 0.0710  
##  2 absent       9     13 female  -2.24  -0.450     -0.463 0.0544  0.886 0.00162 
##  3 present     15      2 female   0.343  1.04       1.10  0.116   0.878 0.0263  
##  4 absent      15     16 female  -2.85  -0.336     -0.343 0.0416  0.887 0.000657
##  5 absent      18      2 female   0.381 -1.34      -1.43  0.112   0.872 0.0521  
##  6 absent      20      9 female  -1.19  -0.729     -0.755 0.0678  0.883 0.00594 
##  7 absent      26     13 female  -2.02  -0.498     -0.511 0.0515  0.886 0.00189 
##  8 present     42      6 female  -0.227  1.28       1.32  0.0664  0.874 0.0239  
##  9 absent      51      9 female  -0.797 -0.863     -0.886 0.0515  0.882 0.00645 
## 10 present     52      6 female  -0.100  1.22       1.26  0.0609  0.876 0.0191  
## # … with 71 more rows
…
my_url <- "https://raw.githubusercontent.com/nxskok/datafiles/master/decision.csv"
decide <- read_csv(my_url)

## Rows: 315 Columns: 5
## ── Column specification ────────────────────────────────────────────────────────
## Delimiter: ","
## chr (3): decision, gender, scenario
## dbl (2): idealism, relativism
## 
## ℹ Use `spec()` to retrieve the full column specification for this data.
## ℹ Specify the column types or set `show_col_types = FALSE` to quiet this message.

decide

## # A tibble: 315 × 5
##    decision idealism relativism gender scenario
##    <chr>       <dbl>      <dbl> <chr>  <chr>   
##  1 stop          8.2        5.1 Female cosmetic
##  2 continue      6.8        5.3 Male   cosmetic
##  3 continue      8.2        6   Female cosmetic
##  4 stop          7.4        6.2 Female cosmetic
##  5 continue      1.7        3.1 Female cosmetic
##  6 continue      5.6        7.7 Male   cosmetic
##  7 stop          7.2        6.7 Female cosmetic
##  8 stop          7.8        4   Male   cosmetic
##  9 stop          7.8        4.7 Female cosmetic
## 10 stop          8          7.6 Female cosmetic
## # … with 305 more rows
…
      gender == 1 ~ "Male",
      TRUE ~ "error"
    ),
    scenario = case_when(
      scenario == 1 ~ "cosmetic",
      scenario == 2 ~ "theory",
      scenario == 3 ~ "meat",
      scenario == 4 ~ "veterinary",
      scenario == 5 ~ "medical",
      TRUE ~ "error"
    )
  )
xx %>% as_tibble() %>% select(-(cosmetic:veterin))

## # A tibble: 315 × 7
##    decision idealism relatvsm gender idealism_LN relatvsm_LN scenario
##    <chr>       <dbl>    <dbl> <chr>        <dbl>       <dbl> <chr>   
##  1 stop          8.2      5.1 Female       2.10         1.63 cosmetic
##  2 continue      6.8      5.3 Male         1.92         1.67 cosmetic
##  3 continue      8.2      6   Female       2.10         1.79 cosmetic
##  4 stop          7.4      6.2 Female       2.00         1.82 cosmetic
##  5 continue      1.7      3.1 Female       0.531        1.13 cosmetic
##  6 continue      5.6      7.7 Male         1.72         2.04 cosmetic
##  7 stop          7.2      6.7 Female       1.97         1.90 cosmetic
##  8 stop          7.8      4   Male         2.05         1.39 cosmetic
##  9 stop          7.8      4.7 Female       2.05         1.55 cosmetic
## 10 stop          8        7.6 Female       2.08         2.03 cosmetic
## # … with 305 more rows
…
## New names:
## Rows: 270 Columns: 15
## ── Column specification
## ──────────────────────────────────────────────────────── Delimiter: "," chr
## (8): sex, pain.type, high.blood.sugar, electro, angina, slope, thal, hea... dbl
## (7): ...1, age, resting.bp, serum.chol, max.hr, oldpeak, colored
## ℹ Use `spec()` to retrieve the full column specification for this data. ℹ
## Specify the column types or set `show_col_types = FALSE` to quiet this message.
## • `` -> `...1`

heart

## # A tibble: 270 × 15
##     ...1   age sex    pain.type   resting.bp serum.chol high.blood.sugar electro
##    <dbl> <dbl> <chr>  <chr>            <dbl>      <dbl> <chr>            <chr>  
##  1     1    70 male   asymptomat…        130        322 no               hypert…
##  2     2    67 female nonanginal         115        564 no               hypert…
##  3     3    57 male   atypical           124        261 no               normal 
##  4     4    64 male   asymptomat…        128        263 no               normal 
##  5     5    74 female atypical           120        269 no               hypert…
##  6     6    65 male   asymptomat…        120        177 no               normal 
##  7     7    56 male   nonanginal         130        256 yes              hypert…
##  8     8    59 male   asymptomat…        110        239 no               hypert…
##  9     9    60 male   asymptomat…        140        293 no               hypert…
## 10    10    63 female asymptomat…        150        407 no               hypert…
## # … with 260 more rows, and 7 more variables: max.hr <dbl>, angina <chr>,
## #   oldpeak <dbl>, slope <chr>, colored <dbl>, thal <chr>, heart.disease <chr>
…
my_url <- "http://ritsokiguess.site/datafiles/donner.txt"
donner <- read_delim(my_url, " ")

## Rows: 45 Columns: 3
## ── Column specification ────────────────────────────────────────────────────────
## Delimiter: " "
## chr (2): gender, survived
## dbl (1): age
## 
## ℹ Use `spec()` to retrieve the full column specification for this data.
## ℹ Specify the column types or set `show_col_types = FALSE` to quiet this message.

donner

## # A tibble: 45 × 3
##      age gender survived
##    <dbl> <chr>  <chr>   
##  1    23 male   no      
##  2    40 female yes     
##  3    40 male   yes     
##  4    30 male   no      
##  5    28 male   no      
##  6    40 male   no      
##  7    45 female no      
##  8    62 male   no      
##  9    65 male   no      
## 10    45 female no      
## # … with 35 more rows
…
my_url <- "http://ritsokiguess.site/datafiles/apache.txt"
icu <- read_delim(my_url, " ")

## Rows: 38 Columns: 3
## ── Column specification ────────────────────────────────────────────────────────
## Delimiter: " "
## dbl (3): apache, patients, deaths
## 
## ℹ Use `spec()` to retrieve the full column specification for this data.
## ℹ Specify the column types or set `show_col_types = FALSE` to quiet this message.

icu

## # A tibble: 38 × 3
##    apache patients deaths
##     <dbl>    <dbl>  <dbl>
##  1      0        1      0
##  2      2        1      0
##  3      3        4      1
##  4      4       11      0
##  5      5        9      3
##  6      6       14      3
##  7      7       12      4
##  8      8       22      5
##  9      9       33      3
## 10     10       19      6
## # … with 28 more rows
…
Make a plot of predicted death probability against
apache score (joined by lines) with, also on the plot, the
observed proportion of deaths within each apache score,
plotted against apache score. Does there seem to be good
agreement between observation and prediction? Hint: calculate what you need to from the original dataframe first, save it, then make a plot of the predictions, and then to the plot add the appropriate thing from the dataframe you just saved.

Solution

All right, following the hint, let’s start with the original dataframe, called icu. The plot of the predictions is going to show predicted probabilities of death, so from the data we need to find the observed proportions of death at each apache score. Our dataframe has one row for each apache score, so this is not too hard. We have the total number of patients at each score, and the number of deaths out of those patients, so the proportion that died is the second of those divided by the first one:

icu %>% mutate(proportion = deaths / patients) -> d
d

## # A tibble: 38 × 4
##    apache patients deaths proportion
##     <dbl>    <dbl>  <dbl>      <dbl>
##  1      0        1      0     0     
##  2      2        1      0     0     
##  3      3        4      1     0.25  
##  4      4       11      0     0     
##  5      5        9      3     0.333 
##  6      6       14      3     0.214 
##  7      7       12      4     0.333 
##  8      8       22      5     0.227 
##  9      9       33      3     0.0909
## 10     10       19      6     0.316 
## # … with 28 more rows
…
This shows clearly that the points on the left and right of the graph are based on very few patients, maybe only one each time. But most of the scores between about 10 and 20 were represented by more patients, maybe up to 30. The bigger circles seem to follow the trend of the predictions pretty well, which is what we were hoping for; the proportions based on small numbers of patients might be further away from the predictions, and that’s all right.

Extra: you can see that we want the proportions to be based on reasonable numbers of patients, but the other end of the issue is that we don’t want to combine patients with very different apache scores, because then you wouldn’t get much of a picture of how well the data follow the trend. This is very much the same idea as choosing the number of bins on a histogram; if you have too many bins, each one will contain very few observations and you won’t see the pattern very clearly, but if you have too few bins, you’ll have lots of observations in each bin but you still won’t see the shape.

With that in mind, perhaps we can try binning the observations in our data here. Let’s see what that does. The starting point is to redefine what I called d before which had the proportion in it:

break_points <- seq(-1, 45, 4)
break_points

##  [1] -1  3  7 11 15 19 23 27 31 35 39 43

icu %>% mutate(bins = cut(apache, breaks = break_points))

## # A tibble: 38 × 4
##    apache patients deaths bins  
##     <dbl>    <dbl>  <dbl> <fct> 
##  1      0        1      0 (-1,3]
##  2      2        1      0 (-1,3]
##  3      3        4      1 (-1,3]
##  4      4       11      0 (3,7] 
##  5      5        9      3 (3,7] 
##  6      6       14      3 (3,7] 
##  7      7       12      4 (3,7] 
##  8      8       22      5 (7,11]
##  9      9       33      3 (7,11]
## 10     10       19      6 (7,11]
## # … with 28 more rows
…
