Problems and Solutions in Applied Statistics
…
4.141 Observations: 87

4.142 Variables: 3

4.143 $ Year  1917, 1918, 1919, 1920, 1921, 1922, 1923, 1924, 19…

4.144 $ JulianDate  120.4795, 131.3983, 123.6066, 132.4490, 131.2795, …

4.145 $ Date&Time  “April 30 at 11:30 AM”, “May 11 at 9:33 AM”, “May …
##
## Attaching package: ‘lubridate’
## The following object is masked from ‘package:base’:
##
## date
## # A tibble: 87 x 5
## Year JulianDate Date&Time longdt datetime

##     

## 1 1917 120. April 30 at 11:3… 1917 April 30 a… 1917-04-30 11:30:00
## 2 1918 131. May 11 at 9:33 AM 1918 May 11 at … 1918-05-11 09:33:00
## 3 1919 124. May 3 at 2:33 PM 1919 May 3 at 2… 1919-05-03 14:33:00
## 4 1920 132. May 11 at 10:46 … 1920 May 11 at … 1920-05-11 10:46:00
## 5 1921 131. May 11 at 6:42 AM 1921 May 11 at … 1921-05-11 06:42:00
## 6 1922 133. May 12 at 1:20 PM 1922 May 12 at … 1922-05-12 13:20:00
## 7 1923 129. May 9 at 2:00 AM 1923 May 9 at 2… 1923-05-09 02:00:00
## 8 1924 133. May 11 at 3:10 PM 1924 May 11 at … 1924-05-11 15:10:00
## 9 1925 128. May 7 at 6:32 PM 1925 May 7 at 6… 1925-05-07 18:32:00
## 10 1926 117. April 26 at 4:03… 1926 April 26 a… 1926-04-26 16:03:00
## # … with 77 more rows
## # A tibble: 87 x 3
## JulianDate jd datetime

##   

## 1 120. 120 1917-04-30 11:30:00
## 2 131. 131 1918-05-11 09:33:00
## 3 124. 123 1919-05-03 14:33:00
## 4 132. 132 1920-05-11 10:46:00
## 5 131. 131 1921-05-11 06:42:00
## 6 133. 132 1922-05-12 13:20:00
## 7 129. 129 1923-05-09 02:00:00
## 8 133. 132 1924-05-11 15:10:00
## 9 128. 127 1925-05-07 18:32:00
## 10 117. 116 1926-04-26 16:03:00
## # … with 77 more rows
## # A tibble: 61 x 3
## JulianDate jd datetime

##   

## 1 124. 123 1919-05-03 14:33:00
## 2 133. 132 1922-05-12 13:20:00
## 3 133. 132 1924-05-11 15:10:00
## 4 128. 127 1925-05-07 18:32:00
## 5 117. 116 1926-04-26 16:03:00
## 6 128. 127 1928-05-06 16:25:00
## 7 126. 125 1929-05-05 15:41:00
## 8 129. 128 1930-05-08 19:03:00
## 9 129. 128 1933-05-08 19:30:00
## 10 121. 120 1934-04-30 14:07:00
## # … with 51 more rows
## # A tibble: 61 x 3
## JulianDate jd datetime

##   

## 1 123.607 123 1919-05-03 14:33:00
## 2 132.556 132 1922-05-12 13:20:00
## 3 132.632 132 1924-05-11 15:10:00
## 4 127.773 127 1925-05-07 18:32:00
## 5 116.669 116 1926-04-26 16:03:00
## 6 127.684 127 1928-05-06 16:25:00
## 7 125.654 125 1929-05-05 15:41:00
## 8 128.794 128 1930-05-08 19:03:00
## 9 128.813 128 1933-05-08 19:30:00
## 10 120.588 120 1934-04-30 14:07:00
## # … with 51 more rows
## geom_smooth() using method = ‘loess’ and formula ‘y ~ x’
## Computerized accounting
## Parsed with column specification:
## cols(
## gender = col_character(),
## CAS = col_double(),
## CARS = col_double()
## )
## # A tibble: 35 x 3
## gender CAS CARS
##   
## 1 female 2.85 2.9
## 2 male 2.6 2.32
## 3 female 2.2 1

## 4 male 2.65 2.58
## 5 male 2.6 2.58
## 6 male 3.2 3.05
## 7 male 3.65 3.74
## 8 female 2.55 1.9
## 9 male 3.15 3.32
## 10 male 2.8 2.74
## # … with 25 more rows
…
## yellow = col_double(),
## green = col_double()
## )
## # A tibble: 8 x 5
## plant blue red yellow green
##     
## 1 1 5.34 13.7 4.61 2.72
## 2 2 7.45 13.0 6.63 1.08
## 3 3 7.15 10.2 5.29 3.97
## 4 4 5.53 13.1 5.29 2.66
## 5 5 6.34 11.1 4.76 3.69
## 6 6 7.16 11.4 5.57 1.96
## 7 7 7.77 14.0 6.57 3.38
## 8 8 5.09 13.5 5.25 1.87
## # A tibble: 32 x 3
## plant colour growthrate
##   
## 1 1 blue 5.34
## 2 2 blue 7.45
## 3 3 blue 7.15
## 4 4 blue 5.53
## 5 5 blue 6.34
## 6 6 blue 7.16
## 7 7 blue 7.77
## 8 8 blue 5.09
## 9 1 red 13.7
## 10 2 red 13.0
## # … with 22 more rows
## plant,colour,growthrate
## 1,blue,5.34
## 2,blue,7.45
## 3,blue,7.15
## 4,blue,5.53
## 5,blue,6.34
## 6,blue,7.16
## 7,blue,7.77
…
## 1 Cameron McDonald
## 2 Durwin Yang

## 3 Ole Gunnar

## 4 Mahmudullah FALSE
## # A tibble: 4 x 2
## one two

##  
## 1 Cameron McDonald FALSE
## 2 Durwin Yang FALSE
## 3 Ole Gunnar Solskjaer TRUE
## 4 Mahmudullah FALSE
## # A tibble: 34 x 2
## species temp_pulse
##  

## 1 exclamationis 20.8_67.9
## 2 exclamationis 20.8_65.1
## 3 exclamationis 24_77.3

## 4 exclamationis 24_78.7

## 5 exclamationis 24_79.4

## 6 exclamationis 24_80.4

## 7 exclamationis 26.2_85.8
## 8 exclamationis 26.2_86.6
## 9 exclamationis 26.2_87.5
## 10 exclamationis 26.2_89.1
## # … with 24 more rows
## # A tibble: 34 x 3
## species temperature pulse_rate
##   

## 1 exclamationis 20.8 67.9

## 2 exclamationis 20.8 65.1

## 3 exclamationis 24 77.3

## 4 exclamationis 24 78.7

## 5 exclamationis 24 79.4

## 6 exclamationis 24 80.4

## 7 exclamationis 26.2 85.8

## 8 exclamationis 26.2 86.6

## 9 exclamationis 26.2 87.5

## 10 exclamationis 26.2 89.1

## # … with 24 more rows
## Warning in evalq(as.numeric(temperature), ): NAs introduced by
## coercion
## Warning in evalq(as.numeric(pulse_rate), ): NAs introduced by
## coercion
## # A tibble: 34 x 3
## species temperature pulse_rate
##   
## 1 exclamationis 20.8 67.9
## 2 exclamationis 20.8 65.1
## 3 exclamationis 24 77.3
## 4 exclamationis 24 78.7
## 5 exclamationis 24 79.4
## 6 exclamationis 24 80.4
## 7 exclamationis 26.2 85.8
## 8 exclamationis 26.2 86.6
## 9 exclamationis 26.2 87.5
## 10 exclamationis 26.2 89.1
## # … with 24 more rows
## Warning in evalq(as.numeric(temperature), ): NAs introduced by
## coercion
## Warning in evalq(as.numeric(pulse_rate), ): NAs introduced by
## coercion
## # A tibble: 34 x 3
## species temperature pulse_rate
##   
## 1 exclamationis 20.8 67.9
## 2 exclamationis 20.8 65.1
## 3 exclamationis 24 77.3
## 4 exclamationis 24 78.7
## 5 exclamationis 24 79.4
## 6 exclamationis 24 80.4
## 7 exclamationis 26.2 85.8
## 8 exclamationis 26.2 86.6
## 9 exclamationis 26.2 87.5
## 10 exclamationis 26.2 89.1
## # … with 24 more rows
## Warning in evalq(as.numeric(temperature), ): NAs introduced by
## coercion
## Warning in evalq(as.numeric(pulse_rate), ): NAs introduced by
## coercion
## # A tibble: 34 x 3
## species temperature pulse_rate
##   
## 1 exclamationis 20.8 67.9
## 2 exclamationis 20.8 65.1
## 3 exclamationis 24 77.3
## 4 exclamationis 24 78.7
## 5 exclamationis 24 79.4
## 6 exclamationis 24 80.4
## 7 exclamationis 26.2 85.8
## 8 exclamationis 26.2 86.6
## 9 exclamationis 26.2 87.5
## 10 exclamationis 26.2 89.1
## # … with 24 more rows
## Cars
## Parsed with column specification:
## cols(
## car = col_character(),
## MPG = col_double(),
## weight = col_double(),
## cylinders = col_integer(),
## hp = col_integer(),
## country = col_character()
## )
## # A tibble: 38 x 6
## car MPG weight cylinders hp country
##      

## 1 Buick Skylark 28.4 2.67 4 90 U.S.

## 2 Dodge Omni 30.9 2.23 4 75 U.S.

## 3 Mercury Zephyr 20.8 3.07 6 85 U.S.

## 4 Fiat Strada 37.3 2.13 4 69 Italy

## 5 Peugeot 694 SL 16.2 3.41 6 133 France
## 6 VW Rabbit 31.9 1.92 4 71 Germany
## 7 Plymouth Horizon 34.2 2.2 4 70 U.S.

## 8 Mazda GLC 34.1 1.98 4 65 Japan

## 9 Buick Estate Wagon 16.9 4.36 8 155 U.S.

## 10 Audi 5000 20.3 2.83 5 103 Germany
## # … with 28 more rows
## # A tibble: 38 x 2
## car country
##  

## 1 Buick Skylark U.S.

## 2 Dodge Omni U.S.

## 3 Mercury Zephyr U.S.

## 4 Fiat Strada Italy

## 5 Peugeot 694 SL France
## 6 VW Rabbit Germany
## 7 Plymouth Horizon U.S.

## 8 Mazda GLC Japan

## 9 Buick Estate Wagon U.S.

## 10 Audi 5000 Germany
## # … with 28 more rows
## # A tibble: 38 x 3
## car cylinders country
##   

## 1 Buick Skylark 4 U.S.

## 2 Dodge Omni 4 U.S.

## 3 Mercury Zephyr 6 U.S.

## 4 Fiat Strada 4 Italy

## 5 Peugeot 694 SL 6 France
## 6 VW Rabbit 4 Germany
## 7 Plymouth Horizon 4 U.S.

## 8 Mazda GLC 4 Japan

## 9 Buick Estate Wagon 8 U.S.

## 10 Audi 5000 5 Germany
## # … with 28 more rows
## # A tibble: 38 x 5
## car MPG weight cylinders country
##     

## 1 Buick Skylark 28.4 2.67 4 U.S.

## 2 Dodge Omni 30.9 2.23 4 U.S.

## 3 Mercury Zephyr 20.8 3.07 6 U.S.

## 4 Fiat Strada 37.3 2.13 4 Italy

## 5 Peugeot 694 SL 16.2 3.41 6 France
## 6 VW Rabbit 31.9 1.92 4 Germany
## 7 Plymouth Horizon 34.2 2.2 4 U.S.

## 8 Mazda GLC 34.1 1.98 4 Japan

## 9 Buick Estate Wagon 16.9 4.36 8 U.S.

## 10 Audi 5000 20.3 2.83 5 Germany
## # … with 28 more rows
…
## date.peaked = col_date(format = “”),
## x66th.week = col_character(),
## x67th.week = col_character(),
## x68th.week = col_character(),
## x69th.week = col_character(),
## x70th.week = col_character(),
## x71st.week = col_character(),
## x72nd.week = col_character(),
## x73rd.week = col_character(),
## x74th.week = col_character(),
## x75th.week = col_character(),
## x76th.week = col_character()
## )
## See spec(…) for full column specifications.
## # A tibble: 317 x 83
## year artist.inverted track time genre date.entered date.peaked
##       

## 1 2000 Destiny’s Child Inde… 03:38 Rock 2000-09-23 2000-11-18
## 2 2000 Santana Mari… 04:18 Rock 2000-02-12 2000-04-08
## 3 2000 Savage Garden I Kn… 04:07 Rock 1999-10-23 2000-01-29
## 4 2000 Madonna Music 03:45 Rock 2000-08-12 2000-09-16
## 5 2000 Aguilera, Chri… Come… 03:38 Rock 2000-08-05 2000-10-14
## 6 2000 Janet Does… 04:17 Rock 2000-06-17 2000-08-26
## 7 2000 Destiny’s Child Say … 04:31 Rock 1999-12-25 2000-03-18
## 8 2000 Iglesias, Enri… Be W… 03:36 Latin 2000-04-01 2000-06-24
## 9 2000 Sisqo Inco… 03:52 Rock 2000-06-24 2000-08-12
## 10 2000 Lonestar Amaz… 04:25 Coun… 1999-06-05 2000-03-04
## # … with 307 more rows, and 76 more variables: x1st.week ,
## # x2nd.week , x3rd.week , x4th.week , x5th.week ,
## # x6th.week , x7th.week , x8th.week , x9th.week ,
## # x10th.week , x11th.week , x12th.week ,
## # x13th.week , x14th.week , x15th.week ,
## # x16th.week , x17th.week , x18th.week ,
## # x19th.week , x20th.week , x21st.week ,
## # x22nd.week , x23rd.week , x24th.week ,
## # x25th.week , x26th.week , x27th.week ,
…
## # x34th.week , x35th.week , x36th.week ,
## # x37th.week , x38th.week , x39th.week ,
## # x40th.week , x41st.week , x42nd.week ,
## # x43rd.week , x44th.week , x45th.week ,
## # x46th.week , x47th.week , x48th.week ,
## # x49th.week , x50th.week , x51st.week ,
## # x52nd.week , x53rd.week , x54th.week ,
## # x55th.week , x56th.week , x57th.week ,
## # x58th.week , x59th.week , x60th.week ,
## # x61st.week , x62nd.week , x63rd.week ,
## # x64th.week , x65th.week , x66th.week ,
## # x67th.week , x68th.week , x69th.week ,
## # x70th.week , x71st.week , x72nd.week ,
## # x73rd.week , x74th.week , x75th.week , x76th.week 
## # A tibble: 5,307 x 9
## year artist.inverted track time genre date.entered date.peaked week
## *        
## 1 2000 Destiny’s Child Inde… 03:38 Rock 2000-09-23 2000-11-18 x1st…
## 2 2000 Santana Mari… 04:18 Rock 2000-02-12 2000-04-08 x1st…
## 3 2000 Savage Garden I Kn… 04:07 Rock 1999-10-23 2000-01-29 x1st…
## 4 2000 Madonna Music 03:45 Rock 2000-08-12 2000-09-16 x1st…
## 5 2000 Aguilera, Chri… Come… 03:38 Rock 2000-08-05 2000-10-14 x1st…
## 6 2000 Janet Does… 04:17 Rock 2000-06-17 2000-08-26 x1st…
## 7 2000 Destiny’s Child Say … 04:31 Rock 1999-12-25 2000-03-18 x1st…
## 8 2000 Iglesias, Enri… Be W… 03:36 Latin 2000-04-01 2000-06-24 x1st…
## 9 2000 Sisqo Inco… 03:52 Rock 2000-06-24 2000-08-12 x1st…
## 10 2000 Lonestar Amaz… 04:25 Coun… 1999-06-05 2000-03-04 x1st…
## # … with 5,297 more rows, and 1 more variable: rank 
## # A tibble: 5,307 x 9
## year artist.inverted track time genre date.entered date.peaked week
## *        
## 1 2000 Destiny’s Child Inde… 03:38 Rock 2000-09-23 2000-11-18 x1st…
## 2 2000 Santana Mari… 04:18 Rock 2000-02-12 2000-04-08 x1st…
## 3 2000 Savage Garden I Kn… 04:07 Rock 1999-10-23 2000-01-29 x1st…
## 4 2000 Madonna Music 03:45 Rock 2000-08-12 2000-09-16 x1st…
## 5 2000 Aguilera, Chri… Come… 03:38 Rock 2000-08-05 2000-10-14 x1st…
## 6 2000 Janet Does… 04:17 Rock 2000-06-17 2000-08-26 x1st…
## 7 2000 Destiny’s Child Say … 04:31 Rock 1999-12-25 2000-03-18 x1st…
## 8 2000 Iglesias, Enri… Be W… 03:36 Latin 2000-04-01 2000-06-24 x1st…
## 9 2000 Sisqo Inco… 03:52 Rock 2000-06-24 2000-08-12 x1st…
## 10 2000 Lonestar Amaz… 04:25 Coun… 1999-06-05 2000-03-04 x1st…
## # … with 5,297 more rows, and 1 more variable: rank 
## [1] 24092
## # A tibble: 5,307 x 2
## week rank
## *  
## 1 x1st.week 78

## 2 x1st.week 15

## 3 x1st.week 71

## 4 x1st.week 41

## 5 x1st.week 57

## 6 x1st.week 59

## 7 x1st.week 83

## 8 x1st.week 63

## 9 x1st.week 77

## 10 x1st.week 81

## # … with 5,297 more rows
## # A tibble: 5,307 x 2
## week_number rank_number
##  
## 1 1 78
## 2 1 15
## 3 1 71
## 4 1 41
## 5 1 57
## 6 1 59
## 7 1 83
## 8 1 63
## 9 1 77
## 10 1 81
## # … with 5,297 more rows
## # A tibble: 5,307 x 3
## date.entered week_number current

##   

## 1 2000-09-23 1 2000-09-23
## 2 2000-02-12 1 2000-02-12
## 3 1999-10-23 1 1999-10-23
## 4 2000-08-12 1 2000-08-12
## 5 2000-08-05 1 2000-08-05
## 6 2000-06-17 1 2000-06-17
## 7 1999-12-25 1 1999-12-25
## 8 2000-04-01 1 2000-04-01
## 9 2000-06-24 1 2000-06-24
## 10 1999-06-05 1 1999-06-05
## # … with 5,297 more rows
…
##   

## 1 2000-03-18 27 2000-09-16
## 2 2000-08-12 3 2000-08-26
## 3 2000-09-23 4 2000-10-14
## 4 1999-12-04 11 2000-02-12
## 5 2000-01-22 8 2000-03-11
## 6 2000-05-27 16 2000-09-09
## 7 2000-04-29 5 2000-05-27
## 8 2000-06-10 4 2000-07-01
## 9 2000-04-15 12 2000-07-01
## 10 2000-08-26 18 2000-12-23
## # A tibble: 55 x 3
## artist.inverted track current

##   

## 1 Aguilera, Christina What A Girl Wants 2000-01-15
## 2 Aguilera, Christina What A Girl Wants 2000-01-22
## 3 Savage Garden I Knew I Loved You 2000-01-29
## 4 Savage Garden I Knew I Loved You 2000-02-05
## 5 Savage Garden I Knew I Loved You 2000-02-12
## 6 Carey, Mariah Thank God I Found You 2000-02-19
## 7 Savage Garden I Knew I Loved You 2000-02-26
## 8 Lonestar Amazed 2000-03-04
## 9 Lonestar Amazed 2000-03-11
## 10 Destiny’s Child Say My Name 2000-03-18
## # … with 45 more rows
…
## 17 With Arms Wide Open by Creed 1
## Bikes on College
## Parsed with column specification:
## cols(
## X1 = col_time(format = “”),
## X2 = col_character(),
## X3 = col_character(),
## X4 = col_character(),
## X5 = col_character(),
## X6 = col_character(),
## X7 = col_character(),
## X8 = col_character(),
## X9 = col_character()
## )
## # A tibble: 1,958 x 9
## X1 X2 X3 X4 X5 X6 X7 X8 X9

##         
## 1 07:00 X   X  X  X

## 2 NA X   X  X  X

## 3 NA X   X  X  X

## 4 NA X   X  X  X

## 5 NA X   X  X  X

## 6 07:15 X  X   X  X

## 7 NA  X X   X  X

## 8 NA X  X   X  X

## 9 NA  X X   X X 
## 10 NA X  X   X  X

## # … with 1,948 more rows
## # A tibble: 1,958 x 9
## X1 X2 X3 X4 X5 X6 X7 X8 X9

##         
## 1 07:00 X   X  X  X

## 2 07:00 X   X  X  X

## 3 07:00 X   X  X  X

## 4 07:00 X   X  X  X

## 5 07:00 X   X  X  X

## 6 07:15 X  X   X  X

## 7 07:15  X X   X  X

## 8 07:15 X  X   X  X

## 9 07:15  X X   X X 
## 10 07:15 X  X   X  X

## # … with 1,948 more rows
## # A tibble: 1,958 x 9
## Time X2 X3 X4 X5 X6 X7 X8 X9

##         
## 1 07:00 X   X  X  X

## 2 07:00 X   X  X  X

## 3 07:00 X   X  X  X

## 4 07:00 X   X  X  X

## 5 07:00 X   X  X  X

## 6 07:15 X  X   X  X

## 7 07:15  X X   X  X

## 8 07:15 X  X   X  X

## 9 07:15  X X   X X 
## 10 07:15 X  X   X  X

## # … with 1,948 more rows
## # A tibble: 1,958 x 10
## Time X2 X3 X4 X5 X6 X7 X8 X9 gender
##          
## 1 07:00 X   X  X  X male

## 2 07:00 X   X  X  X male

## 3 07:00 X   X  X  X male

## 4 07:00 X   X  X  X male

## 5 07:00 X   X  X  X male

## 6 07:15 X  X   X  X male

## 7 07:15  X X   X  X 

## 8 07:15 X  X   X  X male

## 9 07:15  X X   X X  

## 10 07:15 X  X   X  X male

## # … with 1,948 more rows
## # A tibble: 1,958 x 10
## Time X2 X3 X4 X5 X6 X7 X8 X9 isX

##          
## 1 07:00 X   X  X  X TRUE
## 2 07:00 X   X  X  X TRUE
## 3 07:00 X   X  X  X TRUE
## 4 07:00 X   X  X  X TRUE
## 5 07:00 X   X  X  X TRUE
## 6 07:15 X  X   X  X TRUE
## 7 07:15  X X   X  X NA

## 8 07:15 X  X   X  X TRUE
## 9 07:15  X X   X X  NA

## 10 07:15 X  X   X  X TRUE
## # … with 1,948 more rows
## # A tibble: 1,958 x 10
## Time X2 X3 X4 X5 X6 X7 X8 X9 gender
##          
## 1 07:00 X   X  X  X male

## 2 07:00 X   X  X  X male

## 3 07:00 X   X  X  X male

## 4 07:00 X   X  X  X male

## 5 07:00 X   X  X  X male

## 6 07:15 X  X   X  X male

## 7 07:15  X X   X  X female
## 8 07:15 X  X   X  X male

## 9 07:15  X X   X X  female
## 10 07:15 X  X   X  X male

## # … with 1,948 more rows
## # A tibble: 1,958 x 10
## Time X2 X3 X4 X5 X6 X7 X8 X9 gender
##          
## 1 07:00 X   X  X  X Male

## 2 07:00 X   X  X  X Male

## 3 07:00 X   X  X  X Male

## 4 07:00 X   X  X  X Male

## 5 07:00 X   X  X  X Male

## 6 07:15 X  X   X  X Male

## 7 07:15  X X   X  X Female
## 8 07:15 X  X   X  X Male

## 9 07:15  X X   X X  Female
## 10 07:15 X  X   X  X Male

## # … with 1,948 more rows
## # A tibble: 2 x 2
## gender n
##  
## 1 Female 861
## 2 Male 1097
## # A tibble: 1,958 x 9
## Time male female X4 X5 X6 X7 X8 X9

##         
## 1 07:00 X   X  X  X

## 2 07:00 X   X  X  X

## 3 07:00 X   X  X  X

## 4 07:00 X   X  X  X

## 5 07:00 X   X  X  X

## 6 07:15 X  X   X  X

## 7 07:15  X X   X  X

## 8 07:15 X  X   X  X

## 9 07:15  X X   X X 
## 10 07:15 X  X   X  X

## # … with 1,948 more rows
## # A tibble: 3,916 x 9
## Time X4 X5 X6 X7 X8 X9 gender what
##         
## 1 07:00  X  X  X male X

## 2 07:00  X  X  X male X

## 3 07:00  X  X  X male X

## 4 07:00  X  X  X male X

## 5 07:00  X  X  X male X

## 6 07:15 X   X  X male X

## 7 07:15 X   X  X male 
## 8 07:15 X   X  X male X

## 9 07:15 X   X X  male 
## 10 07:15 X   X  X male X

## # … with 3,906 more rows
## # A tibble: 1,958 x 9
## Time X4 X5 X6 X7 X8 X9 gender what
##         
## 1 07:00  X  X  X male X

## 2 07:00  X  X  X male X

## 3 07:00  X  X  X male X

## 4 07:00  X  X  X male X

## 5 07:00  X  X  X male X

## 6 07:15 X   X  X male X

## 7 07:15 X   X  X male X

## 8 07:15 X   X  X male X

## 9 07:15 X   X  X male X

## 10 07:15 X   X  X male X

## # … with 1,948 more rows
## # A tibble: 1,958 x 9
## Time X4 X5 X6 X7 X8 X9 gender what
## *         
## 1 07:00  X  X  X male X

## 2 07:00  X  X  X male X

## 3 07:00  X  X  X male X

## 4 07:00  X  X  X male X

## 5 07:00  X  X  X male X

## 6 07:15 X   X  X male X

## 7 07:15 X   X  X male X

## 8 07:15 X   X  X male X

## 9 07:15 X   X  X male X

## 10 07:15 X   X  X male X

## # … with 1,948 more rows
## # A tibble: 2 x 2
## gender n
##  
## 1 female 861
## 2 male 1097
## # A tibble: 1,958 x 13
## Time X2 X3 X4 X5 X6 X7 X8 X9 gender helmet
##           
## 1 07:00 X   X  X  X male NA

## 2 07:00 X   X  X  X male NA

## 3 07:00 X   X  X  X male NA

## 4 07:00 X   X  X  X male NA

## 5 07:00 X   X  X  X male NA

## 6 07:15 X  X   X  X male TRUE

## 7 07:15  X X   X  X female TRUE

## 8 07:15 X  X   X  X male TRUE

## 9 07:15  X X   X X  female TRUE

## 10 07:15 X  X   X  X male TRUE

## # … with 1,948 more rows, and 2 more variables: passenger ,
## # sidewalk 
## # A tibble: 1,958 x 13
## Time X2 X3 X4 X5 X6 X7 X8 X9 gender helmet
##           
## 1 07:00 X   X  X  X male FALSE
## 2 07:00 X   X  X  X male FALSE
## 3 07:00 X   X  X  X male FALSE
## 4 07:00 X   X  X  X male FALSE
## 5 07:00 X   X  X  X male FALSE
## 6 07:15 X  X   X  X male TRUE

## 7 07:15  X X   X  X female TRUE

## 8 07:15 X  X   X  X male TRUE

## 9 07:15  X X   X X  female TRUE

## 10 07:15 X  X   X  X male TRUE

## # … with 1,948 more rows, and 2 more variables: passenger ,
## # sidewalk 
## # A tibble: 1,958 x 11
## Time X2 X3 X4 X5 X6 X7 X8 X9 gender helmet
##           
## 1 07:00 X   X  X  X male FALSE
## 2 07:00 X   X  X  X male FALSE
## 3 07:00 X   X  X  X male FALSE
## 4 07:00 X   X  X  X male FALSE
## 5 07:00 X   X  X  X male FALSE
## 6 07:15 X  X   X  X male TRUE

## 7 07:15  X X   X  X  TRUE

## 8 07:15 X  X   X  X male TRUE

## 9 07:15  X X   X X   TRUE

## 10 07:15 X  X   X  X male TRUE

## # … with 1,948 more rows
## [1] TRUE FALSE TRUE FALSE TRUE
## [1] 34
…
