Chapter 27 Logistic regression with ordinal response | Problems and Solutions in Applied Statistics
…
With multiple columns that are all frequencies, this is a job for
pivot_longer:

mobile %>% 
  pivot_longer(very.unsat:very.sat, 
               names_to="satisfied", 
               values_to="frequency") -> mobile.long
mobile.long

## # A tibble: 32 x 4
##    gender age.group satisfied  frequency
##    <chr>  <chr>     <chr>          <dbl>
##  1 male   0-17      very.unsat         3
##  2 male   0-17      unsat              9
##  3 male   0-17      sat               18
##  4 male   0-17      very.sat          24
##  5 male   18-24     very.unsat         6
##  6 male   18-24     unsat             13
##  7 male   18-24     sat               16
##  8 male   18-24     very.sat          28
##  9 male   25-30     very.unsat         9
## 10 male   25-30     unsat             13
## # … with 22 more rows
…
We are going to fit ordered logistic models below. To
do that, we need our response variable to be a factor with its levels
in the right order. By looking at the data frame
you just created, determine what kind
of thing your intended response variable currently is.

Solution

I looked at mobile.long in the previous part, but if you
didn’t, look at it here:

mobile.long

## # A tibble: 32 x 4
##    gender age.group satisfied  frequency
##    <chr>  <chr>     <chr>          <dbl>
##  1 male   0-17      very.unsat         3
##  2 male   0-17      unsat              9
##  3 male   0-17      sat               18
##  4 male   0-17      very.sat          24
##  5 male   18-24     very.unsat         6
##  6 male   18-24     unsat             13
##  7 male   18-24     sat               16
##  8 male   18-24     very.sat          28
##  9 male   25-30     very.unsat         9
## 10 male   25-30     unsat             13
## # … with 22 more rows
…
If you don’t see how that works, run it yourself, one line at a time.

The other way of doing this is to physically type them into a vector,
but this carries the usual warnings of requiring you to be very
careful and that it won’t be reproducible (eg. if you do another
survey with different response categories).

So now create the proper response
variable thus, using your vector of categories:

mobile.long %>%
  mutate(satis = ordered(satisfied, v1)) -> mobile.long2
mobile.long2

## # A tibble: 32 x 5
##    gender age.group satisfied  frequency satis     
##    <chr>  <chr>     <chr>          <dbl> <ord>     
##  1 male   0-17      very.unsat         3 very.unsat
##  2 male   0-17      unsat              9 unsat     
##  3 male   0-17      sat               18 sat       
##  4 male   0-17      very.sat          24 very.sat  
##  5 male   18-24     very.unsat         6 very.unsat
##  6 male   18-24     unsat             13 unsat     
##  7 male   18-24     sat               16 sat       
##  8 male   18-24     very.sat          28 very.sat  
##  9 male   25-30     very.unsat         9 very.unsat
## 10 male   25-30     unsat             13 unsat     
## # … with 22 more rows
…
hsb

## # A tibble: 200 x 11
##       id race       ses   schtyp prog      read write  math science socst gender
##    <dbl> <chr>      <chr> <chr>  <chr>    <dbl> <dbl> <dbl>   <dbl> <dbl> <chr> 
##  1    70 white      low   public general     57    52    41      47    57 male  
##  2   121 white      midd… public vocatio…    68    59    53      63    61 female
##  3    86 white      high  public general     44    33    54      58    31 male  
##  4   141 white      high  public vocatio…    63    44    47      53    56 male  
##  5   172 white      midd… public academic    47    52    57      53    61 male  
##  6   113 white      midd… public academic    44    52    51      63    61 male  
##  7    50 african-a… midd… public general     50    59    42      53    61 male  
##  8    11 hispanic   midd… public academic    34    46    45      39    36 male  
##  9    84 white      midd… public general     63    57    54      58    51 male  
## 10    48 african-a… midd… public academic    57    55    52      50    51 male  
## # … with 190 more rows
…
Fit an ordinal logistic regression predicting
socio-economic status from the scores on the five standardized
tests. (You don’t need to display the results.) You will probably
go wrong the first time. What kind of thing does your response
variable have to be?

Solution

It has to be an ordered factor, which you can create in
the data frame (or outside, if you prefer):

hsb <- hsb %>% mutate(ses = ordered(ses, c("low", "middle", "high")))
hsb

## # A tibble: 200 x 11
##       id race       ses   schtyp prog      read write  math science socst gender
##    <dbl> <chr>      <ord> <chr>  <chr>    <dbl> <dbl> <dbl>   <dbl> <dbl> <chr> 
##  1    70 white      low   public general     57    52    41      47    57 male  
##  2   121 white      midd… public vocatio…    68    59    53      63    61 female
##  3    86 white      high  public general     44    33    54      58    31 male  
##  4   141 white      high  public vocatio…    63    44    47      53    56 male  
##  5   172 white      midd… public academic    47    52    57      53    61 male  
##  6   113 white      midd… public academic    44    52    51      63    61 male  
##  7    50 african-a… midd… public general     50    59    42      53    61 male  
##  8    11 hispanic   midd… public academic    34    46    45      39    36 male  
##  9    84 white      midd… public general     63    57    54      58    51 male  
## 10    48 african-a… midd… public academic    57    55    52      50    51 male  
## # … with 190 more rows
…
steak0

## # A tibble: 550 x 15
##    respondent_id lottery_a smoke alcohol gamble skydiving speed cheated steak
##            <dbl> <lgl>     <lgl> <lgl>   <lgl>  <lgl>     <lgl> <lgl>   <lgl>
##  1    3237565956 FALSE     NA    NA      NA     NA        NA    NA      NA   
##  2    3234982343 TRUE      FALSE TRUE    FALSE  FALSE     FALSE FALSE   TRUE 
##  3    3234973379 TRUE      FALSE TRUE    TRUE   FALSE     TRUE  TRUE    TRUE 
##  4    3234972383 FALSE     TRUE  TRUE    TRUE   FALSE     TRUE  TRUE    TRUE 
##  5    3234958833 FALSE     FALSE TRUE    FALSE  FALSE     TRUE  TRUE    TRUE 
##  6    3234955240 TRUE      FALSE FALSE   FALSE  FALSE     TRUE  FALSE   TRUE 
##  7    3234955097 TRUE      FALSE TRUE    FALSE  FALSE     TRUE  TRUE    FALSE
##  8    3234955010 TRUE      FALSE TRUE    TRUE   TRUE      TRUE  FALSE   TRUE 
##  9    3234953052 TRUE      TRUE  TRUE    TRUE   FALSE     TRUE  FALSE   TRUE 
## 10    3234951249 FALSE     FALSE TRUE    TRUE   FALSE     FALSE FALSE   TRUE 
## # … with 540 more rows, and 6 more variables: steak_prep <chr>, female <lgl>,
## #   age <chr>, hhold_income <chr>, educ <chr>, region <chr>
…
What we now need to do is to obtain a data frame that contains only
the rows with non-missing values. This can be done by saving the
result of complete.cases in a variable first; filter
can take anything that produces a true or a false for each row, and
will return the rows for which the thing it was fed was true.

cc <- complete.cases(steak0)
steak0 %>% filter(cc) -> steak.complete

A quick check that we got rid of the missing values:

steak.complete

## # A tibble: 331 x 15
##    respondent_id lottery_a smoke alcohol gamble skydiving speed cheated steak
##            <dbl> <lgl>     <lgl> <lgl>   <lgl>  <lgl>     <lgl> <lgl>   <lgl>
##  1    3234982343 TRUE      FALSE TRUE    FALSE  FALSE     FALSE FALSE   TRUE 
##  2    3234973379 TRUE      FALSE TRUE    TRUE   FALSE     TRUE  TRUE    TRUE 
##  3    3234972383 FALSE     TRUE  TRUE    TRUE   FALSE     TRUE  TRUE    TRUE 
##  4    3234958833 FALSE     FALSE TRUE    FALSE  FALSE     TRUE  TRUE    TRUE 
##  5    3234955240 TRUE      FALSE FALSE   FALSE  FALSE     TRUE  FALSE   TRUE 
##  6    3234955010 TRUE      FALSE TRUE    TRUE   TRUE      TRUE  FALSE   TRUE 
##  7    3234953052 TRUE      TRUE  TRUE    TRUE   FALSE     TRUE  FALSE   TRUE 
##  8    3234951249 FALSE     FALSE TRUE    TRUE   FALSE     FALSE FALSE   TRUE 
##  9    3234948883 FALSE     FALSE TRUE    FALSE  FALSE     TRUE  FALSE   TRUE 
## 10    3234948197 TRUE      FALSE FALSE   TRUE   FALSE     TRUE  FALSE   TRUE 
## # … with 321 more rows, and 6 more variables: steak_prep <chr>, female <lgl>,
## #   age <chr>, hhold_income <chr>, educ <chr>, region <chr>
…
