Chapter 2 Logistic regression redux | Problems and Solutions in Applied Statistics
…
## 
## ── Column specification ────────────────────────────────────────────────────────────────
## cols(
##   decision = col_character(),
##   idealism = col_double(),
##   relativism = col_double(),
##   gender = col_character(),
##   scenario = col_character()
## )

decide

## # A tibble: 315 x 5
##    decision idealism relativism gender scenario
##    <chr>       <dbl>      <dbl> <chr>  <chr>   
##  1 stop          8.2        5.1 Female cosmetic
##  2 continue      6.8        5.3 Male   cosmetic
##  3 continue      8.2        6   Female cosmetic
##  4 stop          7.4        6.2 Female cosmetic
##  5 continue      1.7        3.1 Female cosmetic
##  6 continue      5.6        7.7 Male   cosmetic
##  7 stop          7.2        6.7 Female cosmetic
##  8 stop          7.8        4   Male   cosmetic
##  9 stop          7.8        4.7 Female cosmetic
## 10 stop          8          7.6 Female cosmetic
## # … with 305 more rows
…
      gender == 1 ~ "Male",
      TRUE ~ "error"
    ),
    scenario = case_when(
      scenario == 1 ~ "cosmetic",
      scenario == 2 ~ "theory",
      scenario == 3 ~ "meat",
      scenario == 4 ~ "veterinary",
      scenario == 5 ~ "medical",
      TRUE ~ "error"
    )
  )
xx %>% as_tibble() %>% select(-(cosmetic:veterin))

## # A tibble: 315 x 7
##    decision idealism relatvsm gender idealism_LN relatvsm_LN scenario
##    <chr>       <dbl>    <dbl> <chr>        <dbl>       <dbl> <chr>   
##  1 stop          8.2      5.1 Female       2.10         1.63 cosmetic
##  2 continue      6.8      5.3 Male         1.92         1.67 cosmetic
##  3 continue      8.2      6   Female       2.10         1.79 cosmetic
##  4 stop          7.4      6.2 Female       2.00         1.82 cosmetic
##  5 continue      1.7      3.1 Female       0.531        1.13 cosmetic
##  6 continue      5.6      7.7 Male         1.72         2.04 cosmetic
##  7 stop          7.2      6.7 Female       1.97         1.90 cosmetic
##  8 stop          7.8      4   Male         2.05         1.39 cosmetic
##  9 stop          7.8      4.7 Female       2.05         1.55 cosmetic
## 10 stop          8        7.6 Female       2.08         2.03 cosmetic
## # … with 305 more rows
…
