Chapter 11 Matched pairs t and sign test | Problems and Solutions in Applied Statistics
…
myurl="http://ritsokiguess.site/datafiles/throw.txt"
throws=read_delim(myurl," ",col_names=c("student","baseball","softball"))

## 
## ── Column specification ──────────────────────────────────────────────────────────────────────────────────────────────────────────────────────────────────────────────────────────────────────
## cols(
##   student = col_double(),
##   baseball = col_double(),
##   softball = col_double()
## )

throws

## # A tibble: 24 x 3
##    student baseball softball
##      <dbl>    <dbl>    <dbl>
##  1       1       65       57
##  2       2       90       58
##  3       3       75       66
##  4       4       73       61
##  5       5       79       65
##  6       6       68       56
##  7       7       58       53
##  8       8       41       41
##  9       9       56       44
## 10      10       70       65
## # … with 14 more rows
…
myurl <- "http://ritsokiguess.site/datafiles/throw.txt"
throws <- read_delim(myurl, " ", col_names = c("student", "baseball", "softball")) %>%
  mutate(diff = baseball - softball)

## 
## ── Column specification ──────────────────────────────────────────────────────────────────────────────────────────────────────────────────────────────────────────────────────────────────────
## cols(
##   student = col_double(),
##   baseball = col_double(),
##   softball = col_double()
## )

throws

## # A tibble: 24 x 4
##    student baseball softball  diff
##      <dbl>    <dbl>    <dbl> <dbl>
##  1       1       65       57     8
##  2       2       90       58    32
##  3       3       75       66     9
##  4       4       73       61    12
##  5       5       79       65    14
##  6       6       68       56    12
##  7       7       58       53     5
##  8       8       41       41     0
##  9       9       56       44    12
## 10      10       70       65     5
## # … with 14 more rows
…
