Chapter 10 Mood median test | Problems and Solutions in Applied Statistics
…
Solution

my_url="http://ritsokiguess.site/datafiles/cereal-sugar.txt"
cereals=read_delim(my_url," ")

## 
## ── Column specification ──────────────────────────────────────────────────────────────────────────────────────────────────────────────────────────────────────────────────────────────────────
## cols(
##   who = col_character(),
##   sugar = col_double()
## )

cereals

## # A tibble: 40 x 2
##    who      sugar
##    <chr>    <dbl>
##  1 children  40.3
##  2 children  55  
##  3 children  45.7
##  4 children  43.3
##  5 children  50.3
##  6 children  45.9
##  7 children  53.5
##  8 children  43  
##  9 children  44.2
## 10 children  44  
## # … with 30 more rows
…
Delimited by a single space, so:

my_url <- "http://ritsokiguess.site/datafiles/handspan.txt"
span <- read_delim(my_url, " ")

## 
## ── Column specification ──────────────────────────────────────────────────────────────────────────────────────────────────────────────────────────────────────────────────────────────────────
## cols(
##   sex = col_character(),
##   handspan = col_double()
## )

span

## # A tibble: 190 x 2
##    sex   handspan
##    <chr>    <dbl>
##  1 M         21.5
##  2 M         22.5
##  3 M         23.5
##  4 F         20  
##  5 F         19  
##  6 F         20.5
##  7 F         20.5
##  8 F         20.2
##  9 M         23  
## 10 M         24.5
## # … with 180 more rows
…
span %>% group_by(sex) %>% 
summarize(med = median(handspan))

## # A tibble: 2 x 2
##   sex     med
##   <chr> <dbl>
## 1 F      20  
## 2 M      22.5

Here’s an idea: if we shift all the female handspans up by 2.5 inches, the medians would be the same:

span %>% mutate(x = ifelse(sex=="F", handspan+2.5, handspan)) -> d
d

## # A tibble: 190 x 3
##    sex   handspan     x
##    <chr>    <dbl> <dbl>
##  1 M         21.5  21.5
##  2 M         22.5  22.5
##  3 M         23.5  23.5
##  4 F         20    22.5
##  5 F         19    21.5
##  6 F         20.5  23  
##  7 F         20.5  23  
##  8 F         20.2  22.8
##  9 M         23    23  
## 10 M         24.5  24.5
## # … with 180 more rows
…
