Chapter 32 Multivariate analysis of variance | Problems and Solutions in Applied Statistics
…
## 
## ── Column specification ──────────────────────────────────────────────────────────────────────────────────────────────────────────────────────────────────────────────────────────────────────
## cols(
##   obesity = col_character(),
##   x = col_double(),
##   creatinine = col_double(),
##   chloride = col_double(),
##   chlorine = col_double()
## )

urine

## # A tibble: 45 x 5
##    obesity     x creatinine chloride chlorine
##    <chr>   <dbl>      <dbl>    <dbl>    <dbl>
##  1 a          24       17.6     5.15      7.5
##  2 a          32       13.4     5.75      7.1
##  3 a          17       20.3     4.35      2.3
##  4 a          30       22.3     7.55      4  
##  5 a          30       20.5     8.5       2  
##  6 a          27       18.5    10.2       2  
##  7 a          25       12.1     5.95     16.8
##  8 a          30       12       6.3      14.5
##  9 a          28       10.1     5.45      0.9
## 10 a          24       14.7     3.75      2  
## # … with 35 more rows
…
The conclusions about the boxplots are, of course, the same. I think
it makes it easier to have the three boxplots side by side, but it’s
up to you whether you think that gain is worth the extra coding.

Extra: let’s take another look at that longer data frame:

urine %>%
  pivot_longer(creatinine:chlorine, names_to="yname", values_to="y") 

## # A tibble: 135 x 4
##    obesity     x yname          y
##    <chr>   <dbl> <chr>      <dbl>
##  1 a          24 creatinine 17.6 
##  2 a          24 chloride    5.15
##  3 a          24 chlorine    7.5 
##  4 a          32 creatinine 13.4 
##  5 a          32 chloride    5.75
##  6 a          32 chlorine    7.1 
##  7 a          17 creatinine 20.3 
##  8 a          17 chloride    4.35
##  9 a          17 chlorine    2.3 
## 10 a          30 creatinine 22.3 
## # … with 125 more rows
…
athletes

## # A tibble: 202 x 13
##    Sex    Sport     RCC   WCC    Hc    Hg  Ferr   BMI   SSF `%Bfat`   LBM    Ht    Wt
##    <chr>  <chr>   <dbl> <dbl> <dbl> <dbl> <dbl> <dbl> <dbl>   <dbl> <dbl> <dbl> <dbl>
##  1 female Netball  4.56  13.3  42.2  13.6    20  19.2  49      11.3  53.1  177.  59.9
##  2 female Netball  4.15   6    38    12.7    59  21.2 110.     25.3  47.1  173.  63  
##  3 female Netball  4.16   7.6  37.5  12.3    22  21.4  89      19.4  53.4  176   66.3
##  4 female Netball  4.32   6.4  37.7  12.3    30  21.0  98.3    19.6  48.8  170.  60.7
##  5 female Netball  4.06   5.8  38.7  12.8    78  21.8 122.     23.1  56.0  183   72.9
##  6 female Netball  4.12   6.1  36.6  11.8    21  21.4  90.4    16.9  56.4  178.  67.9
##  7 female Netball  4.17   5    37.4  12.7   109  21.5 107.     21.3  53.1  177.  67.5
##  8 female Netball  3.8    6.6  36.5  12.4   102  24.4 157.     26.6  54.4  174.  74.1
##  9 female Netball  3.96   5.5  36.3  12.4    71  22.6 101.     17.9  56.0  174.  68.2
## 10 female Netball  4.44   9.7  41.4  14.1    64  22.8 126.     25.0  51.6  174.  68.8
## # … with 192 more rows
…
