Chapter 17 Multiple regression | Problems and Solutions in Applied Statistics
…
my_url <- "http://ritsokiguess.site/datafiles/satisfaction.txt"
satisf <- read_table(my_url)

## 
## ── Column specification ──────────────────────────────────────────────────────────────────────────────────────────────────────────────────────────────────────────────────────────────────────
## cols(
##   satis = col_double(),
##   age = col_double(),
##   severity = col_double(),
##   anxiety = col_double()
## )

satisf

## # A tibble: 23 x 4
##    satis   age severity anxiety
##    <dbl> <dbl>    <dbl>   <dbl>
##  1    48    50       51     2.3
##  2    57    36       46     2.3
##  3    66    40       48     2.2
##  4    70    41       44     1.8
##  5    89    28       43     1.8
##  6    36    49       54     2.9
##  7    46    42       50     2.2
##  8    54    45       48     2.4
##  9    26    52       62     2.9
## 10    77    29       50     2.1
## # … with 13 more rows
…
In facet_grid, you have a variable that you want to be
displayed in rows or in columns (not just in “different facets”).
I’ll show you how that works here. Since I am going to draw
two plots, I should save the long data frame first and re-use it,
rather than calculating it twice (so that I ought now to go back and
do the other one using the saved data frame, really):

satisf %>% 
  pivot_longer(age:anxiety, names_to="xname", 
               values_to="x") -> satisf.long
satisf.long

## # A tibble: 69 x 3
##    satis xname        x
##    <dbl> <chr>    <dbl>
##  1    48 age       50  
##  2    48 severity  51  
##  3    48 anxiety    2.3
##  4    57 age       36  
##  5    57 severity  46  
##  6    57 anxiety    2.3
##  7    66 age       40  
##  8    66 severity  48  
##  9    66 anxiety    2.2
## 10    70 age       41  
## # … with 59 more rows
…
my_url <- "http://ritsokiguess.site/datafiles/mathsal.txt"
salaries <- read_table2(my_url)

## 
## ── Column specification ──────────────────────────────────────────────────────────────────────────────────────────────────────────────────────────────────────────────────────────────────────
## cols(
##   salary = col_double(),
##   workqual = col_double(),
##   experience = col_double(),
##   pubsucc = col_double()
## )

salaries

## # A tibble: 24 x 4
##    salary workqual experience pubsucc
##     <dbl>    <dbl>      <dbl>   <dbl>
##  1   33.2      3.5          9     6.1
##  2   40.3      5.3         20     6.4
##  3   38.7      5.1         18     7.4
##  4   46.8      5.8         33     6.7
##  5   41.4      4.2         31     7.5
##  6   37.5      6           13     5.9
##  7   39        6.8         25     6  
##  8   40.7      5.5         30     4  
##  9   30.1      3.1          5     5.8
## 10   52.9      7.2         47     8.3
## # … with 14 more rows
…
## 
## ── Column specification ──────────────────────────────────────────────────────────────────────────────────────────────────────────────────────────────────────────────────────────────────────
## cols(
##   high_GPA = col_double(),
##   math_SAT = col_double(),
##   verb_SAT = col_double(),
##   comp_GPA = col_double(),
##   univ_GPA = col_double()
## )

gpa

## # A tibble: 105 x 5
##    high_GPA math_SAT verb_SAT comp_GPA univ_GPA
##       <dbl>    <dbl>    <dbl>    <dbl>    <dbl>
##  1     3.45      643      589     3.76     3.52
##  2     2.78      558      512     2.87     2.91
##  3     2.52      583      503     2.54     2.4 
##  4     3.67      685      602     3.83     3.47
##  5     3.24      592      538     3.29     3.47
##  6     2.1       562      486     2.64     2.37
##  7     2.82      573      548     2.86     2.4 
##  8     2.36      559      536     2.03     2.24
##  9     2.42      552      583     2.81     3.02
## 10     3.51      617      591     3.41     3.32
## # … with 95 more rows
…
my_url <- "http://ritsokiguess.site/datafiles/mercury.txt"
mercury <- read_delim(my_url, " ")

## 
## ── Column specification ──────────────────────────────────────────────────────────────────────────────────────────────────────────────────────────────────────────────────────────────────────
## cols(
##   mercury = col_double(),
##   alkalinity = col_double(),
##   calcium = col_double(),
##   ph = col_double()
## )

mercury

## # A tibble: 38 x 4
##    mercury alkalinity calcium    ph
##      <dbl>      <dbl>   <dbl> <dbl>
##  1    1330        2.5     2.9   4.6
##  2     250       19.6     4.5   7.3
##  3     450        5.2     2.8   5.4
##  4     160       71.4    55.2   8.1
##  5     720       26.4     9.2   5.8
##  6     810        4.8     4.6   6.4
##  7     710        6.6     2.7   5.4
##  8     510       16.5    13.8   7.2
##  9    1000        7.1     5.2   5.8
## 10     150       83.7    66.5   8.2
## # … with 28 more rows
…
and then I uploaded the file to the course website.

\(\blacksquare\)

Plot the mercury levels against each of the explanatory variables.

Solution

The best way to do this is in one shot, using facets. This means organizing the dataframe so that there is one column of \(y\)-values, and also one column of \(x\)-values, with an additional column labelling which \(x\) it is. This, as you’ll recall, is exactly what pivot_longer does. To show you:

mercury %>% 
pivot_longer(-mercury, names_to = "xname", values_to = "xval")

## # A tibble: 114 x 3
##    mercury xname       xval
##      <dbl> <chr>      <dbl>
##  1    1330 alkalinity   2.5
##  2    1330 calcium      2.9
##  3    1330 ph           4.6
##  4     250 alkalinity  19.6
##  5     250 calcium      4.5
##  6     250 ph           7.3
##  7     450 alkalinity   5.2
##  8     450 calcium      2.8
##  9     450 ph           5.4
## 10     160 alkalinity  71.4
## # … with 104 more rows
…
