Problems and Solutions in Applied Statistics
…
heliconia.long=heliconia %>% 
gather(variety,length,bihai:caribaea_yellow,na.rm=T)
heliconia.long  

## # A tibble: 54 x 2
##    variety length
##  * <chr>    <dbl>
##  1 bihai     47.1
##  2 bihai     46.8
##  3 bihai     46.8
##  4 bihai     47.1
##  5 bihai     46.7
##  6 bihai     47.4
##  7 bihai     46.4
##  8 bihai     46.6
##  9 bihai     48.1
## 10 bihai     48.3
## # ... with 44 more rows
…
athletes

## # A tibble: 202 x 13
##    Sex   Sport   RCC   WCC    Hc    Hg  Ferr   BMI   SSF `%Bfat`   LBM
##    <chr> <chr> <dbl> <dbl> <dbl> <dbl> <int> <dbl> <dbl>   <dbl> <dbl>
##  1 fema… Netb…  4.56  13.3  42.2  13.6    20  19.2  49      11.3  53.1
##  2 fema… Netb…  4.15   6    38    12.7    59  21.2 110.     25.3  47.1
##  3 fema… Netb…  4.16   7.6  37.5  12.3    22  21.4  89      19.4  53.4
##  4 fema… Netb…  4.32   6.4  37.7  12.3    30  21.0  98.3    19.6  48.8
##  5 fema… Netb…  4.06   5.8  38.7  12.8    78  21.8 122.     23.1  56.0
##  6 fema… Netb…  4.12   6.1  36.6  11.8    21  21.4  90.4    16.9  56.4
##  7 fema… Netb…  4.17   5    37.4  12.7   109  21.5 107.     21.3  53.1
##  8 fema… Netb…  3.8    6.6  36.5  12.4   102  24.4 157.     26.6  54.4
##  9 fema… Netb…  3.96   5.5  36.3  12.4    71  22.6 101.     17.9  56.0
## 10 fema… Netb…  4.44   9.7  41.4  14.1    64  22.8 126.     25.0  51.6
## # ... with 192 more rows, and 2 more variables: Ht <dbl>, Wt <dbl>
…
