Chapter 6 One-sample inference | Problems and Solutions in Applied Statistics
…
The obvious way is this:

my_url <- "http://ritsokiguess.site/datafiles/treediameter.csv"
trees <- read_csv(my_url)

## 
## ── Column specification ──────────────────────────────────────────────────────────────────────────────────────────────────────────────────────────────────────────────────────────────────────
## cols(
##   diameter = col_double()
## )

trees

## # A tibble: 40 x 1
##    diameter
##       <dbl>
##  1     10.5
##  2     13.3
##  3     26  
##  4     18.3
##  5     52.2
##  6      9.2
##  7     26.1
##  8     17.6
##  9     40.5
## 10     31.8
## # … with 30 more rows
…
Extra 1: there is only one column, so you can pretend the columns are separated by anything at all. Thus you could use this:

my_url <- "http://ritsokiguess.site/datafiles/treediameter.csv"
trees <- read_delim(my_url, " ")

## 
## ── Column specification ──────────────────────────────────────────────────────────────────────────────────────────────────────────────────────────────────────────────────────────────────────
## cols(
##   diameter = col_double()
## )

trees

## # A tibble: 40 x 1
##    diameter
##       <dbl>
##  1     10.5
##  2     13.3
##  3     26  
##  4     18.3
##  5     52.2
##  6      9.2
##  7     26.1
##  8     17.6
##  9     40.5
## 10     31.8
## # … with 30 more rows

or even this:

my_url <- "http://ritsokiguess.site/datafiles/treediameter.csv"
trees <- read_table(my_url)

## 
## ── Column specification ──────────────────────────────────────────────────────────────────────────────────────────────────────────────────────────────────────────────────────────────────────
## cols(
##   diameter = col_double()
## )

trees

## # A tibble: 40 x 1
##    diameter
##       <dbl>
##  1     10.5
##  2     13.3
##  3     26  
##  4     18.3
##  5     52.2
##  6      9.2
##  7     26.1
##  8     17.6
##  9     40.5
## 10     31.8
## # … with 30 more rows
…
my_url <- "http://ritsokiguess.site/datafiles/cholest.csv"
cholest <- read_csv(my_url)

## 
## ── Column specification ──────────────────────────────────────────────────────────────────────────────────────────────────────────────────────────────────────────────────────────────────────
## cols(
##   `2-Day` = col_double(),
##   `4-Day` = col_double(),
##   `14-Day` = col_double(),
##   control = col_double()
## )

cholest

## # A tibble: 30 x 4
##    `2-Day` `4-Day` `14-Day` control
##      <dbl>   <dbl>    <dbl>   <dbl>
##  1     270     218      156     196
##  2     236     234       NA     232
##  3     210     214      242     200
##  4     142     116       NA     242
##  5     280     200       NA     206
##  6     272     276      256     178
##  7     160     146      142     184
##  8     220     182      216     198
##  9     226     238      248     160
## 10     242     288       NA     182
## # … with 20 more rows
…
This column also has missing values (at the bottom), so here I’ve asked to remove the missing values8 before working out the mean. Otherwise the mean is, unhelpfully, missing as well.

You might imagine that dealing with column names like this would get annoying. There is a package called janitor that has a function called clean_names to save you the trouble. Install it first, then load it:

library(janitor)

and then pipe your dataframe into clean_names and see what happens:

cholest %>% clean_names() -> cholest1
cholest1

## # A tibble: 30 x 4
##    x2_day x4_day x14_day control
##     <dbl>  <dbl>   <dbl>   <dbl>
##  1    270    218     156     196
##  2    236    234      NA     232
##  3    210    214     242     200
##  4    142    116      NA     242
##  5    280    200      NA     206
##  6    272    276     256     178
##  7    160    146     142     184
##  8    220    182     216     198
##  9    226    238     248     160
## 10    242    288      NA     182
## # … with 20 more rows
…
