Problems and Solutions in Applied Statistics
…
Read in the data, and create a data frame containing only
the temperature variables, the rainfall and the wind speed variables
(the ones that are actual numbers, not times or text). Display the
first few lines of your data frame.

Solution

I like dplyr (as you know). Or you could just pick out
the columns by number:

my_url="http://www.utsc.utoronto.ca/~butler/d29/weather_2014.csv"
weather.0=read_csv(my_url)
weather.0

## # A tibble: 365 x 14
##    day.count   day month season l.temp h.temp ave.temp l.temp.time
##        <int> <int> <int> <chr>   <dbl>  <dbl>    <dbl> <time>     
##  1         1     1     1 Winter   12.7   14       13.4 01:25      
##  2         2     2     1 Winter   11.3   14.7     13.5 07:30      
##  3         3     3     1 Winter   12.6   14.7     13.6 21:00      
##  4         4     4     1 Winter    7.7   13.9     11.3 10:35      
##  5         5     5     1 Winter    8.8   14.6     13   01:40      
##  6         6     6     1 Winter   11.8   14.4     13.1 19:35      
##  7         7     7     1 Winter   11.4   14.8     13.5 07:25      
##  8         8     8     1 Winter   12.4   15.6     14.1 23:50      
##  9         9     9     1 Winter    9.2   18.4     12.9 07:10      
## 10        10    10     1 Winter    8.3   14.8     11   07:55      
## # ... with 355 more rows, and 6 more variables: h.temp.time <time>,
## #   rain <dbl>, ave.wind <dbl>, gust.wind <dbl>, gust.wind.time <time>,
## #   dir.wind <chr>

There are lots of columns, of which we only want a few:

weather = weather.0 %>% select(l.temp:ave.temp,rain:gust.wind) 
weather

## # A tibble: 365 x 6
##    l.temp h.temp ave.temp  rain ave.wind gust.wind
##     <dbl>  <dbl>    <dbl> <dbl>    <dbl>     <dbl>
##  1   12.7   14       13.4  32       11.4      53.1
##  2   11.3   14.7     13.5  64.8      5.6      41.8
##  3   12.6   14.7     13.6  12.7      4.3      38.6
##  4    7.7   13.9     11.3  20.1     10.3      66  
##  5    8.8   14.6     13     9.4     11.6      51.5
##  6   11.8   14.4     13.1  38.9      9.9      57.9
##  7   11.4   14.8     13.5   2        6.6      38.6
##  8   12.4   15.6     14.1   1.5      5.9      33.8
##  9    9.2   18.4     12.9   0        0.2      16.1
## 10    8.3   14.8     11     0        1.4      24.1
## # ... with 355 more rows
…
Solution

Something like this. I begin by turning the component scores
(which are a matrix) into a data frame, and selecting the ones I
want (the first three):

as_tibble(weather.1$scores) %>% 
select(1:3) %>% 
bind_cols(weather) %>%
print(n=20)

## # A tibble: 365 x 9
##    Comp.1   Comp.2   Comp.3 l.temp h.temp ave.temp  rain ave.wind gust.wind
##     <dbl>    <dbl>    <dbl>  <dbl>  <dbl>    <dbl> <dbl>    <dbl>     <dbl>
##  1 -2.84   3.13    -0.00402   12.7   14       13.4  32       11.4      53.1
##  2 -2.79   2.31     3.64      11.3   14.7     13.5  64.8      5.6      41.8
##  3 -1.11   0.255    0.263     12.6   14.7     13.6  12.7      4.3      38.6
##  4 -3.62   2.47    -0.992      7.7   13.9     11.3  20.1     10.3      66  
##  5 -2.67   2.03    -1.68       8.8   14.6     13     9.4     11.6      51.5
##  6 -3.09   3.14     0.664     11.8   14.4     13.1  38.9      9.9      57.9
##  7 -1.22   0.328   -0.958     11.4   14.8     13.5   2        6.6      38.6
##  8 -0.734  0.102   -0.743     12.4   15.6     14.1   1.5      5.9      33.8
##  9  0.210 -2.26     0.534      9.2   18.4     12.9   0        0.2      16.1
## 10 -0.825 -2.00     0.109      8.3   14.8     11     0        1.4      24.1
## 11 -1.01  -2.72     0.294      5.8   14.8      9.5   0.3      1.1      16.1
## 12 -1.68   0.0710  -0.0803     9.4   15.2     12.1  10.7      4.7      41.8
## 13 -2.12  -0.822    0.653      7.3   12.9     10.2  15.7      3.1      35.4
## 14 -1.34   0.00249 -0.169     11.4   13.9     12.8   8.1      4.7      38.6
## 15 -2.52   0.929    0.955      9.4   13.1     12    29        5.9      43.5
## 16 -2.38   0.200   -0.669      9     12.2     10.8   6.9      5.4      49.9
## 17 -3.18   0.626    0.431      7.7   11.4      9.3  25.4      7.2      41.8
## 18 -1.95  -1.82     1.28       7.5   10.9      9    17        1.4      24.1
## 19 -2.13  -1.60    -0.293      6.4   11.4      8.7   2.5      3.3      32.2
## 20 -1.29  -2.62     0.448      6.9   12.2      9.2   2.8      1.1      17.7
## # ... with 345 more rows
…
## Parsed with column specification:
## cols(
##   wind = col_integer(),
##   solar.radiation = col_integer(),
##   CO = col_integer(),
##   NO = col_integer(),
##   NO2 = col_integer(),
##   O3 = col_integer(),
##   HC = col_integer()
## )

air

## # A tibble: 42 x 7
##     wind solar.radiation    CO    NO   NO2    O3    HC
##    <int>           <int> <int> <int> <int> <int> <int>
##  1     8              98     7     2    12     8     2
##  2     7             107     4     3     9     5     3
##  3     7             103     4     3     5     6     3
##  4    10              88     5     2     8    15     4
##  5     6              91     4     2     8    10     3
##  6     8              90     5     2    12    12     4
##  7     9              84     7     4    12    15     5
##  8     5              72     6     4    21    14     4
##  9     7              82     5     1    11    11     3
## 10     8              64     5     2    13     9     4
## # ... with 32 more rows
…
Separated by single spaces.

my_url="http://www.utsc.utoronto.ca/~butler/d29/personality.txt"
pers=read_delim(my_url," ")

## Parsed with column specification:
## cols(
##   .default = col_integer()
## )

## See spec(...) for full column specifications.

pers

## # A tibble: 459 x 45
##       id PERS01 PERS02 PERS03 PERS04 PERS05 PERS06 PERS07 PERS08 PERS09 PERS10 PERS11 PERS12
##    <int>  <int>  <int>  <int>  <int>  <int>  <int>  <int>  <int>  <int>  <int>  <int>  <int>
##  1     1      5      4      5      1      4      3      3      1      2      3      2      4
##  2     2      1      1      5      2      1      2      5      1      5      1      5      3
##  3     3      4      1      5      3      3      4      5      3      1      4      2      1
##  4     4      4      2      5      1      4      3      4      4      4      5      4      1
##  5     5      2      3      5      1      2      4      5      2      3      3      4      2
##  6     6      1      1      5      4      3      4      4      2      1      4      3      3
##  7     7      3      2      5      1      2      1      1      2      5      4      4      1
##  8     8      5      2      4      2      4      1      4      3      3      5      4      1
##  9     9      5      1      4      3      2      1      4      4      2      3      4      1
## 10    10      4      1      5      1      4      3      4      1      5      4      5      1
## # ... with 449 more rows, and 32 more variables: PERS13 <int>, PERS14 <int>, PERS15 <int>,
## #   PERS16 <int>, PERS17 <int>, PERS18 <int>, PERS19 <int>, PERS20 <int>, PERS21 <int>,
## #   PERS22 <int>, PERS23 <int>, PERS24 <int>, PERS25 <int>, PERS26 <int>, PERS27 <int>,
## #   PERS28 <int>, PERS29 <int>, PERS30 <int>, PERS31 <int>, PERS32 <int>, PERS33 <int>,
## #   PERS34 <int>, PERS35 <int>, PERS36 <int>, PERS37 <int>, PERS38 <int>, PERS39 <int>,
## #   PERS40 <int>, PERS41 <int>, PERS42 <int>, PERS43 <int>, PERS44 <int>
…
In case you were wondering about the “I” vs. “I am” thing, the
story seems to be that each behaviour needs to have a verb. If the
behaviour has a verb, “I” is all you need, but if it doesn’t, you
have to add one, ie. “I am”.

Another thing you might be concerned about is whether these data are
“tidy” or not. To some extent, it depends on what you are going to
do with it. You could say that the PERS columns are all
survey-responses, just to different questions, and you might think of
doing something like this:

pers %>% gather(item,response,-id)

## # A tibble: 20,196 x 3
##       id item   response
##    <int> <chr>     <int>
##  1     1 PERS01        5
##  2     2 PERS01        1
##  3     3 PERS01        4
##  4     4 PERS01        4
##  5     5 PERS01        2
##  6     6 PERS01        1
##  7     7 PERS01        3
##  8     8 PERS01        5
##  9     9 PERS01        5
## 10    10 PERS01        4
## # ... with 20,186 more rows
…
any(is.na(pers.ok))

## [1] FALSE

and they have indeed gone.

The way I’d probably do this now (as opposed to a couple of years ago
when I wrote the above) is to create the new variable in the data frame,
like this:

pers %>% mutate(v=complete.cases(pers)) %>% 
filter(v)

## # A tibble: 433 x 46
##       id PERS01 PERS02 PERS03 PERS04 PERS05 PERS06 PERS07 PERS08 PERS09 PERS10 PERS11 PERS12
##    <int>  <int>  <int>  <int>  <int>  <int>  <int>  <int>  <int>  <int>  <int>  <int>  <int>
##  1     1      5      4      5      1      4      3      3      1      2      3      2      4
##  2     2      1      1      5      2      1      2      5      1      5      1      5      3
##  3     3      4      1      5      3      3      4      5      3      1      4      2      1
##  4     4      4      2      5      1      4      3      4      4      4      5      4      1
##  5     5      2      3      5      1      2      4      5      2      3      3      4      2
##  6     6      1      1      5      4      3      4      4      2      1      4      3      3
##  7     7      3      2      5      1      2      1      1      2      5      4      4      1
##  8     8      5      2      4      2      4      1      4      3      3      5      4      1
##  9     9      5      1      4      3      2      1      4      4      2      3      4      1
## 10    10      4      1      5      1      4      3      4      1      5      4      5      1
## # ... with 423 more rows, and 33 more variables: PERS13 <int>, PERS14 <int>, PERS15 <int>,
## #   PERS16 <int>, PERS17 <int>, PERS18 <int>, PERS19 <int>, PERS20 <int>, PERS21 <int>,
## #   PERS22 <int>, PERS23 <int>, PERS24 <int>, PERS25 <int>, PERS26 <int>, PERS27 <int>,
## #   PERS28 <int>, PERS29 <int>, PERS30 <int>, PERS31 <int>, PERS32 <int>, PERS33 <int>,
## #   PERS34 <int>, PERS35 <int>, PERS36 <int>, PERS37 <int>, PERS38 <int>, PERS39 <int>,
## #   PERS40 <int>, PERS41 <int>, PERS42 <int>, PERS43 <int>, PERS44 <int>, v <lgl>
…
This way keeps everything better organized, to my mind, but they are
equally effective as a solution to the problem.

Extra: you might also have thought of the “tidy, remove, untidy”
strategy here. The trouble with that here is that you want to remove
all the observations for a subject who has any missing
ones. This is unlike the multidimensional scaling one in class where
we wanted to remove all the distances for two cities .

That gives me an idea, though.

pers %>%
gather(item,rating,-id)

## # A tibble: 20,196 x 3
##       id item   rating
##    <int> <chr>   <int>
##  1     1 PERS01      5
##  2     2 PERS01      1
##  3     3 PERS01      4
##  4     4 PERS01      4
##  5     5 PERS01      2
##  6     6 PERS01      1
##  7     7 PERS01      3
##  8     8 PERS01      5
##  9     9 PERS01      5
## 10    10 PERS01      4
## # ... with 20,186 more rows
…
pers %>%
gather(item,rating,-id) %>%
group_by(id) %>%
summarize(m=mean(rating)) %>%
filter(is.na(m))

## # A tibble: 26 x 2
##       id     m
##    <int> <dbl>
##  1    12    NA
##  2    40    NA
##  3    45    NA
##  4    49    NA
##  5    52    NA
##  6    58    NA
##  7    79    NA
##  8    84    NA
##  9    96    NA
## 10   159    NA
## # ... with 16 more rows
…
So now we define a column has_missing that is true if the
subject has any missing values and false otherwise:

pers.hm = pers %>%
gather(item,rating,-id) %>%
group_by(id) %>%
summarize(m=mean(rating)) %>%
mutate(has_missing=is.na(m))
pers.hm %>% print(n=15)

## # A tibble: 459 x 3
##       id     m has_missing
##    <int> <dbl> <lgl>      
##  1     1  3.41 FALSE      
##  2     2  2.98 FALSE      
##  3     3  3.34 FALSE      
##  4     4  3.55 FALSE      
##  5     5  3.32 FALSE      
##  6     6  3.20 FALSE      
##  7     7  2.84 FALSE      
##  8     8  3.18 FALSE      
##  9     9  3.34 FALSE      
## 10    10  3.18 FALSE      
## 11    11  3.34 FALSE      
## 12    12 NA    TRUE       
## 13    13  3.59 FALSE      
## 14    14  3.27 FALSE      
## 15    15  3.75 FALSE      
## # ... with 444 more rows

This data frame pers.hm has the same number of rows as the
original data frame pers, one per subject, so we can just
glue it onto the end of that:

pers %>% bind_cols(pers.hm)

## # A tibble: 459 x 48
##       id PERS01 PERS02 PERS03 PERS04 PERS05 PERS06 PERS07 PERS08 PERS09 PERS10 PERS11 PERS12
##    <int>  <int>  <int>  <int>  <int>  <int>  <int>  <int>  <int>  <int>  <int>  <int>  <int>
##  1     1      5      4      5      1      4      3      3      1      2      3      2      4
##  2     2      1      1      5      2      1      2      5      1      5      1      5      3
##  3     3      4      1      5      3      3      4      5      3      1      4      2      1
##  4     4      4      2      5      1      4      3      4      4      4      5      4      1
##  5     5      2      3      5      1      2      4      5      2      3      3      4      2
##  6     6      1      1      5      4      3      4      4      2      1      4      3      3
##  7     7      3      2      5      1      2      1      1      2      5      4      4      1
##  8     8      5      2      4      2      4      1      4      3      3      5      4      1
##  9     9      5      1      4      3      2      1      4      4      2      3      4      1
## 10    10      4      1      5      1      4      3      4      1      5      4      5      1
## # ... with 449 more rows, and 35 more variables: PERS13 <int>, PERS14 <int>, PERS15 <int>,
## #   PERS16 <int>, PERS17 <int>, PERS18 <int>, PERS19 <int>, PERS20 <int>, PERS21 <int>,
## #   PERS22 <int>, PERS23 <int>, PERS24 <int>, PERS25 <int>, PERS26 <int>, PERS27 <int>,
## #   PERS28 <int>, PERS29 <int>, PERS30 <int>, PERS31 <int>, PERS32 <int>, PERS33 <int>,
## #   PERS34 <int>, PERS35 <int>, PERS36 <int>, PERS37 <int>, PERS38 <int>, PERS39 <int>,
## #   PERS40 <int>, PERS41 <int>, PERS42 <int>, PERS43 <int>, PERS44 <int>, id1 <int>, m <dbl>,
## #   has_missing <lgl>
…
scores.1 = as_tibble(pers.ok.1$scores) %>% 
bind_cols(pers.ok) %>%
mutate(id=row_number()) 
scores.1

## # A tibble: 433 x 50
##    Factor1 Factor2 Factor3 Factor4 Factor5    id PERS01 PERS02 PERS03 PERS04 PERS05 PERS06
##      <dbl>   <dbl>   <dbl>   <dbl>   <dbl> <int>  <int>  <int>  <int>  <int>  <int>  <int>
##  1  1.11     0.543   0.530  -0.978 -0.528      1      5      4      5      1      4      3
##  2  0.930   -1.62   -0.823   1.11  -2.49       2      1      1      5      2      1      2
##  3  0.0405  -0.908   1.01    0.415 -0.169      3      4      1      5      3      3      4
##  4  0.123   -0.600   0.442   0.753  0.774      4      4      2      5      1      4      3
##  5  1.28    -1.30   -0.194  -0.170 -1.11       5      2      3      5      1      2      4
##  6  0.671   -2.10    1.09    0.507 -0.0442     6      1      1      5      4      3      4
##  7  0.474    0.467  -2.12    0.892 -2.57       7      3      2      5      1      2      1
##  8 -0.589    0.747  -0.257   1.18  -0.517      8      5      2      4      2      4      1
##  9 -0.836    1.02    0.620   1.36  -0.705      9      5      1      4      3      2      1
## 10  0.984    0.298  -1.06    0.681 -0.553     10      4      1      5      1      4      3
## # ... with 423 more rows, and 38 more variables: PERS07 <int>, PERS08 <int>, PERS09 <int>,
## #   PERS10 <int>, PERS11 <int>, PERS12 <int>, PERS13 <int>, PERS14 <int>, PERS15 <int>,
## #   PERS16 <int>, PERS17 <int>, PERS18 <int>, PERS19 <int>, PERS20 <int>, PERS21 <int>,
## #   PERS22 <int>, PERS23 <int>, PERS24 <int>, PERS25 <int>, PERS26 <int>, PERS27 <int>,
## #   PERS28 <int>, PERS29 <int>, PERS30 <int>, PERS31 <int>, PERS32 <int>, PERS33 <int>,
## #   PERS34 <int>, PERS35 <int>, PERS36 <int>, PERS37 <int>, PERS38 <int>, PERS39 <int>,
## #   PERS40 <int>, PERS41 <int>, PERS42 <int>, PERS43 <int>, PERS44 <int>
…
to display the maximum, or

scores.1 %>% arrange(Factor1) %>% print(n=5)

## # A tibble: 433 x 50
##   Factor1 Factor2 Factor3 Factor4 Factor5    id PERS01 PERS02 PERS03 PERS04 PERS05 PERS06
##     <dbl>   <dbl>   <dbl>   <dbl>   <dbl> <int>  <int>  <int>  <int>  <int>  <int>  <int>
## 1   -2.82   1.33  -0.548    0.786  0.488    340      5      1      1      2      5      1
## 2   -2.24  -0.510  0.125   -0.523 -0.0971   128      1      2      2      4      2      2
## 3   -2.14  -0.841 -0.272   -1.12  -1.18     142      1      2      1      4      2      3
## 4   -2.12   0.492  0.491   -0.259  0.259    387      5      3      3      4      4      3
## 5   -2.09  -0.125 -0.0469   0.766 -0.229    396      3      1      2      4      5      3
## # ... with 428 more rows, and 38 more variables: PERS07 <int>, PERS08 <int>, PERS09 <int>,
## #   PERS10 <int>, PERS11 <int>, PERS12 <int>, PERS13 <int>, PERS14 <int>, PERS15 <int>,
## #   PERS16 <int>, PERS17 <int>, PERS18 <int>, PERS19 <int>, PERS20 <int>, PERS21 <int>,
## #   PERS22 <int>, PERS23 <int>, PERS24 <int>, PERS25 <int>, PERS26 <int>, PERS27 <int>,
## #   PERS28 <int>, PERS29 <int>, PERS30 <int>, PERS31 <int>, PERS32 <int>, PERS33 <int>,
## #   PERS34 <int>, PERS35 <int>, PERS36 <int>, PERS37 <int>, PERS38 <int>, PERS39 <int>,
## #   PERS40 <int>, PERS41 <int>, PERS42 <int>, PERS43 <int>, PERS44 <int>
…
Does
this work too?

scores.1 %>% arrange(desc(abs(Factor1))) %>% print(n=5)

## # A tibble: 433 x 50
##   Factor1 Factor2 Factor3 Factor4 Factor5    id PERS01 PERS02 PERS03 PERS04 PERS05 PERS06
##     <dbl>   <dbl>   <dbl>   <dbl>   <dbl> <int>  <int>  <int>  <int>  <int>  <int>  <int>
## 1   -2.82   1.33  -0.548    0.786  0.488    340      5      1      1      2      5      1
## 2   -2.24  -0.510  0.125   -0.523 -0.0971   128      1      2      2      4      2      2
## 3   -2.14  -0.841 -0.272   -1.12  -1.18     142      1      2      1      4      2      3
## 4   -2.12   0.492  0.491   -0.259  0.259    387      5      3      3      4      4      3
## 5   -2.09  -0.125 -0.0469   0.766 -0.229    396      3      1      2      4      5      3
## # ... with 428 more rows, and 38 more variables: PERS07 <int>, PERS08 <int>, PERS09 <int>,
## #   PERS10 <int>, PERS11 <int>, PERS12 <int>, PERS13 <int>, PERS14 <int>, PERS15 <int>,
## #   PERS16 <int>, PERS17 <int>, PERS18 <int>, PERS19 <int>, PERS20 <int>, PERS21 <int>,
## #   PERS22 <int>, PERS23 <int>, PERS24 <int>, PERS25 <int>, PERS26 <int>, PERS27 <int>,
## #   PERS28 <int>, PERS29 <int>, PERS30 <int>, PERS31 <int>, PERS32 <int>, PERS33 <int>,
## #   PERS34 <int>, PERS35 <int>, PERS36 <int>, PERS37 <int>, PERS38 <int>, PERS39 <int>,
## #   PERS40 <int>, PERS41 <int>, PERS42 <int>, PERS43 <int>, PERS44 <int>
…
