Chapter 39 Principal Components | Problems and Solutions in Applied Statistics
…
Read in the data, and create a data frame containing only
the temperature variables, the rainfall and the wind speed variables
(the ones that are actual numbers, not times or text). Display the
first few lines of your data frame.

Solution

Read into a temporary data frame, and then process:

my_url <- "http://ritsokiguess.site/datafiles/weather_2014.csv"
weather.0 <- read_csv(my_url)
weather.0

## # A tibble: 365 x 14
##    day.count   day month season l.temp h.temp ave.temp l.temp.time h.temp.time  rain ave.wind gust.wind gust.wind.time dir.wind
##        <dbl> <dbl> <dbl> <chr>   <dbl>  <dbl>    <dbl> <time>      <time>      <dbl>    <dbl>     <dbl> <time>         <chr>   
##  1         1     1     1 Winter   12.7   14       13.4 01:25       23:50        32       11.4      53.1 15:45          S       
##  2         2     2     1 Winter   11.3   14.7     13.5 07:30       11:15        64.8      5.6      41.8 22:25          S       
##  3         3     3     1 Winter   12.6   14.7     13.6 21:00       14:00        12.7      4.3      38.6 00:00          SSW     
##  4         4     4     1 Winter    7.7   13.9     11.3 10:35       01:50        20.1     10.3      66   09:05          SW      
##  5         5     5     1 Winter    8.8   14.6     13   01:40       12:55         9.4     11.6      51.5 13:50          SSE     
##  6         6     6     1 Winter   11.8   14.4     13.1 19:35       00:05        38.9      9.9      57.9 08:10          SSE     
##  7         7     7     1 Winter   11.4   14.8     13.5 07:25       14:30         2        6.6      38.6 11:45          SE      
##  8         8     8     1 Winter   12.4   15.6     14.1 23:50       13:25         1.5      5.9      33.8 14:00          SE      
##  9         9     9     1 Winter    9.2   18.4     12.9 07:10       14:05         0        0.2      16.1 14:25          N       
## 10        10    10     1 Winter    8.3   14.8     11   07:55       12:20         0        1.4      24.1 14:20          NNW     
## # … with 355 more rows

There are lots of columns, of which we only want a few:

(weather.0 %>% select(l.temp:ave.temp, rain:gust.wind) -> weather)

## # A tibble: 365 x 6
##    l.temp h.temp ave.temp  rain ave.wind gust.wind
##     <dbl>  <dbl>    <dbl> <dbl>    <dbl>     <dbl>
##  1   12.7   14       13.4  32       11.4      53.1
##  2   11.3   14.7     13.5  64.8      5.6      41.8
##  3   12.6   14.7     13.6  12.7      4.3      38.6
##  4    7.7   13.9     11.3  20.1     10.3      66  
##  5    8.8   14.6     13     9.4     11.6      51.5
##  6   11.8   14.4     13.1  38.9      9.9      57.9
##  7   11.4   14.8     13.5   2        6.6      38.6
##  8   12.4   15.6     14.1   1.5      5.9      33.8
##  9    9.2   18.4     12.9   0        0.2      16.1
## 10    8.3   14.8     11     0        1.4      24.1
## # … with 355 more rows
…
Solution

Something like this. I begin by turning the component scores
(which are a matrix) into a data frame, and selecting the ones I
want (the first three):

as_tibble(weather.1$scores) %>%
  select(1:3) %>%
  bind_cols(weather) %>%
  mutate(day = row_number()) -> d
d 

## # A tibble: 365 x 10
##    Comp.1 Comp.2   Comp.3 l.temp h.temp ave.temp  rain ave.wind gust.wind   day
##     <dbl>  <dbl>    <dbl>  <dbl>  <dbl>    <dbl> <dbl>    <dbl>     <dbl> <int>
##  1 -2.84   3.13  -0.00402   12.7   14       13.4  32       11.4      53.1     1
##  2 -2.79   2.31   3.64      11.3   14.7     13.5  64.8      5.6      41.8     2
##  3 -1.11   0.255  0.263     12.6   14.7     13.6  12.7      4.3      38.6     3
##  4 -3.62   2.47  -0.992      7.7   13.9     11.3  20.1     10.3      66       4
##  5 -2.67   2.03  -1.68       8.8   14.6     13     9.4     11.6      51.5     5
##  6 -3.09   3.14   0.664     11.8   14.4     13.1  38.9      9.9      57.9     6
##  7 -1.22   0.328 -0.958     11.4   14.8     13.5   2        6.6      38.6     7
##  8 -0.734  0.102 -0.743     12.4   15.6     14.1   1.5      5.9      33.8     8
##  9  0.210 -2.26   0.534      9.2   18.4     12.9   0        0.2      16.1     9
## 10 -0.825 -2.00   0.109      8.3   14.8     11     0        1.4      24.1    10
## # … with 355 more rows
I just did the first three scores. I made a column day so that I can see which day of the year I am looking at (later).

\(\blacksquare\)

Find a day that scores low on component 1, and explain briefly why
it came out that way (by looking at the measured variables).

Solution

We can do this one and the ones following by running
arrange appropriately:

d %>% arrange(Comp.1)

## # A tibble: 365 x 10
##    Comp.1 Comp.2 Comp.3 l.temp h.temp ave.temp  rain ave.wind gust.wind   day
##     <dbl>  <dbl>  <dbl>  <dbl>  <dbl>    <dbl> <dbl>    <dbl>     <dbl> <int>
##  1  -5.29  4.64  -0.294    7     14.4      9.9  43.2     13        86.9    40
##  2  -4.89  3.50   1.64     6.5   12.9     10.3  57.4     10.3      66      35
##  3  -4.64  5.33  -0.653    9.3   15.3     12.5  43.4     16.6      74      37
##  4  -4.57  2.19  -1.49     5.5   10.7      8.8  17       11.1      69.2    41
##  5  -4.48  2.11   1.90     6.8   11.5      8.9  50.5      6.8      61.2    34
##  6  -4.36  4.45   1.06     9.1   15.2     12.2  55.1     12.8      66      45
##  7  -3.82  2.24   0.532    7.8   12.9     10.7  34.8      8.1      62.8    39
##  8  -3.62  2.47  -0.992    7.7   13.9     11.3  20.1     10.3      66       4
##  9  -3.44  0.576 -2.10     5.7   11.4      8.4   0        9.8      51.5   363
## 10  -3.36  2.19  -0.705    9.1   13       11.3  20.3      9.3      62.8    38
## # … with 355 more rows
…
\(\blacksquare\)

Find a day that scores high on component 2, and explain
briefly why it came out that way.

Solution

d %>% arrange(desc(Comp.2))

## # A tibble: 365 x 10
##     Comp.1 Comp.2  Comp.3 l.temp h.temp ave.temp  rain ave.wind gust.wind   day
##      <dbl>  <dbl>   <dbl>  <dbl>  <dbl>    <dbl> <dbl>    <dbl>     <dbl> <int>
##  1 -4.64     5.33 -0.653     9.3   15.3     12.5  43.4     16.6      74      37
##  2 -5.29     4.64 -0.294     7     14.4      9.9  43.2     13        86.9    40
##  3 -4.36     4.45  1.06      9.1   15.2     12.2  55.1     12.8      66      45
##  4 -1.61     4.33  3.43     17.7   19.1     18.3  68.3      8.3      46.7   261
##  5 -1.02     3.63  1.36     16.8   20.4     19    39.1      6.9      59.5   289
##  6  2.42     3.51 -1.39     20.9   31.2     25.7   0        8.8      46.7   166
##  7 -4.89     3.50  1.64      6.5   12.9     10.3  57.4     10.3      66      35
##  8  0.0301   3.49 -0.0846   18.5   22.3     20.3  22.9     10.3      43.5   260
##  9 -0.745    3.45  1.99     15.9   21.4     19.9  46.2      7.7      45.1   281
## 10 -0.105    3.20 -0.493    17.9   21.8     19.5  16.5      9.3      49.9   290
## # … with 355 more rows

Day 37. These are days when the wind speed (average or
gust) is on the high side.

\(\blacksquare\)

Find a day that scores high on component 3, and explain
briefly why it came out high.

Solution

d %>% arrange(desc(Comp.3))

## # A tibble: 365 x 10
##     Comp.1 Comp.2 Comp.3 l.temp h.temp ave.temp  rain ave.wind gust.wind   day
##      <dbl>  <dbl>  <dbl>  <dbl>  <dbl>    <dbl> <dbl>    <dbl>     <dbl> <int>
##  1 -2.32    2.23    4.92   11.8   17.2     14.6  74.9      2.8      41.8   307
##  2 -2.79    2.31    3.64   11.3   14.7     13.5  64.8      5.6      41.8     2
##  3  0.0819  2.90    3.59   16.1   26.6     20.3  54.4      2        49.9   264
##  4 -1.61    4.33    3.43   17.7   19.1     18.3  68.3      8.3      46.7   261
##  5 -0.759   2.48    3.42   15.7   19.5     18.6  55.6      4.5      37     288
##  6 -2.21    3.12    2.15   12.8   17.7     15.8  50.5      7.2      53.1   317
##  7 -0.745   3.45    1.99   15.9   21.4     19.9  46.2      7.7      45.1   281
##  8 -4.48    2.11    1.90    6.8   11.5      8.9  50.5      6.8      61.2    34
##  9 -1.77    0.693   1.72   10.7   15.6     13    32.8      4        38.6   312
## 10 -4.89    3.50    1.64    6.5   12.9     10.3  57.4     10.3      66      35
## # … with 355 more rows
…
