Problems and Solutions in Applied Statistics
…
my_url="http://www.utsc.utoronto.ca/~butler/c32/facebook.txt"
fb=read_tsv(my_url)

## Parsed with column specification:
## cols(
##   GMdensity = col_double(),
##   FBfriends = col_integer()
## )

fb

## # A tibble: 40 x 2
##    GMdensity FBfriends
##        <dbl>     <int>
##  1      -1.8        23
##  2       0.1        35
##  3      -1.2        80
##  4      -0.4       110
##  5      -0.9       120
##  6      -2.1       140
##  7      -1.5       168
##  8       0.5       132
##  9       0.6       154
## 10      -0.5       241
## # ... with 30 more rows
…
