Chapter 20 Regression with categorical variables | Problems and Solutions in Applied Statistics
…
my_url <- "http://ritsokiguess.site/datafiles/crickets2.csv"
crickets <- read_csv(my_url)

## 
## ── Column specification ──────────────────────────────────────────────────────────────────────────────────────────────────────────────────────────────────────────────────────────────────────
## cols(
##   species = col_character(),
##   temperature = col_double(),
##   pulse_rate = col_double()
## )

crickets

## # A tibble: 31 x 3
##    species       temperature pulse_rate
##    <chr>               <dbl>      <dbl>
##  1 exclamationis        20.8       67.9
##  2 exclamationis        20.8       65.1
##  3 exclamationis        24         77.3
##  4 exclamationis        24         78.7
##  5 exclamationis        24         79.4
##  6 exclamationis        24         80.4
##  7 exclamationis        26.2       85.8
##  8 exclamationis        26.2       86.6
##  9 exclamationis        26.2       87.5
## 10 exclamationis        26.2       89.1
## # … with 21 more rows
…
my_url <- "http://ritsokiguess.site/datafiles/pulsemarch.csv"
march <- read_csv(my_url)

## 
## ── Column specification ──────────────────────────────────────────────────────────────────────────────────────────────────────────────────────────────────────────────────────────────────────
## cols(
##   Sex = col_character(),
##   Before = col_double(),
##   After = col_double()
## )

march

## # A tibble: 40 x 3
##    Sex    Before After
##    <chr>   <dbl> <dbl>
##  1 Female     72    84
##  2 Male       60    72
##  3 Female     68    80
##  4 Male       70    72
##  5 Male       68    80
##  6 Male       61    75
##  7 Male       80    84
##  8 Male       72    76
##  9 Female     64    80
## 10 Female     62    92
## # … with 30 more rows
…
Both remaining explanatory variables are significant, so we need to keep them both.

Our categorical explanatory variable has only two levels, so drop1 and summary give the exact same P-values.

Extra 2:

Let’s go back and look at our data set again:

march

## # A tibble: 40 x 3
##    Sex    Before After
##    <chr>   <dbl> <dbl>
##  1 Female     72    84
##  2 Male       60    72
##  3 Female     68    80
##  4 Male       70    72
##  5 Male       68    80
##  6 Male       61    75
##  7 Male       80    84
##  8 Male       72    76
##  9 Female     64    80
## 10 Female     62    92
## # … with 30 more rows

You might have been thinking, when we started, that these are before and after measurements on the same people, and so what we have here is matched pairs. So we do, but it’s not the kind of matched pairs we are accustomed to. Let’s begin by taking differences, getting rid of the Before and After columns, and see what we have left:

march %>% 
mutate(difference=After-Before) %>% 
select(-After, -Before) -> march_paired
march_paired

## # A tibble: 40 x 2
##    Sex    difference
##    <chr>       <dbl>
##  1 Female         12
##  2 Male           12
##  3 Female         12
##  4 Male            2
##  5 Male           12
##  6 Male           14
##  7 Male            4
##  8 Male            4
##  9 Female         16
## 10 Female         30
## # … with 30 more rows
…
