Problems and Solutions in Applied Statistics
…
## Parsed with column specification:
## cols(
##   rat = col_double(),
##   drug = col_character(),
##   Time0 = col_double(),
##   Time1 = col_double(),
##   Time2 = col_double(),
##   Time3 = col_double(),
##   Time4 = col_double()
## )

weights

## # A tibble: 27 x 7
##      rat drug       Time0 Time1 Time2 Time3 Time4
##    <dbl> <chr>      <dbl> <dbl> <dbl> <dbl> <dbl>
##  1     1 thyroxin      59    85   121   156   191
##  2     2 thyroxin      54    71    90   110   138
##  3     3 thyroxin      56    75   108   151   189
##  4     4 thyroxin      59    85   116   148   177
##  5     5 thyroxin      57    72    97   120   144
##  6     6 thyroxin      52    73    97   116   140
##  7     7 thyroxin      52    70   105   138   171
##  8     8 thiouracil    61    86   109   120   129
##  9     9 thiouracil    59    80   101   111   122
## 10    10 thiouracil    53    79   100   106   133
## # … with 17 more rows
…
We are going to draw an interaction plot in a moment. To
set that up, use gather as in the lecture notes to create
one column of weights and a second column of times. (You don’t
need to do the separate thing that I did in class, though
if you want to try it, go ahead.)

Solution

weights.long <- weights %>%
  gather(time, weight, Time0:Time4)
weights.long

## # A tibble: 135 x 4
##      rat drug       time  weight
##    <dbl> <chr>      <chr>  <dbl>
##  1     1 thyroxin   Time0     59
##  2     2 thyroxin   Time0     54
##  3     3 thyroxin   Time0     56
##  4     4 thyroxin   Time0     59
##  5     5 thyroxin   Time0     57
##  6     6 thyroxin   Time0     52
##  7     7 thyroxin   Time0     52
##  8     8 thiouracil Time0     61
##  9     9 thiouracil Time0     59
## 10    10 thiouracil Time0     53
## # … with 125 more rows
…
wt <- weights %>%
  mutate(subject = row_number()) %>%
  gather(time, weight, Time0:Time4)
wt

## # A tibble: 135 x 5
##      rat drug       subject time  weight
##    <dbl> <chr>        <int> <chr>  <dbl>
##  1     1 thyroxin         1 Time0     59
##  2     2 thyroxin         2 Time0     54
##  3     3 thyroxin         3 Time0     56
##  4     4 thyroxin         4 Time0     59
##  5     5 thyroxin         5 Time0     57
##  6     6 thyroxin         6 Time0     52
##  7     7 thyroxin         7 Time0     52
##  8     8 thiouracil       8 Time0     61
##  9     9 thiouracil       9 Time0     59
## 10    10 thiouracil      10 Time0     53
## # … with 125 more rows

Each rat is identified by subject, which repeats 5 times,
once for each value of time:

wt %>% count(rat)

## # A tibble: 27 x 2
##      rat     n
##    <dbl> <int>
##  1     1     5
##  2     2     5
##  3     3     5
##  4     4     5
##  5     5     5
##  6     6     5
##  7     7     5
##  8     8     5
##  9     9     5
## 10    10     5
## # … with 17 more rows
…
## Parsed with column specification:
## cols(
##   subject = col_double(),
##   treatment = col_character(),
##   t1 = col_double(),
##   t2 = col_double(),
##   t3 = col_double(),
##   t4 = col_double()
## )

geriatrics

## # A tibble: 21 x 6
##    subject treatment    t1    t2    t3    t4
##      <dbl> <chr>     <dbl> <dbl> <dbl> <dbl>
##  1       1 bt          1.5   9     5     4  
##  2       2 bt          5    14     4.5   7  
##  3       3 bt          1     8     4.5   2.5
##  4       4 bt          5    14     8     5  
##  5       5 bt          3     8     4     4  
##  6       6 bt          0.5   3.5   1.3   1  
##  7       7 bt          0.5   3     1     0  
##  8       8 ro          2     5     5     1.5
##  9       9 ro          1.5   1.9   1.5   1  
## 10      10 ro          3.5   7     8     4  
## # … with 11 more rows
…
Solution

The usual layout for gather:

geriatrics.long <- geriatrics %>%
  gather(time, intpct, t1:t4)
geriatrics.long

## # A tibble: 84 x 4
##    subject treatment time  intpct
##      <dbl> <chr>     <chr>  <dbl>
##  1       1 bt        t1       1.5
##  2       2 bt        t1       5  
##  3       3 bt        t1       1  
##  4       4 bt        t1       5  
##  5       5 bt        t1       3  
##  6       6 bt        t1       0.5
##  7       7 bt        t1       0.5
##  8       8 ro        t1       2  
##  9       9 ro        t1       1.5
## 10      10 ro        t1       3.5
## # … with 74 more rows
…
## Parsed with column specification:
## cols(
##   epi_1 = col_double(),
##   epi_2 = col_double(),
##   epi_3 = col_double(),
##   epi_4 = col_double(),
##   location = col_double(),
##   child = col_double()
## )

airport

## # A tibble: 200 x 6
##      epi_1   epi_2 epi_3 epi_4 location child
##      <dbl>   <dbl> <dbl> <dbl>    <dbl> <dbl>
##  1   89.6   253.   214.   209.        1     1
##  2  -55.5    -1.45  26.0  259.        1     2
##  3  201.    280.   265.   174.        1     3
##  4  448.    349.   386.   225.        1     4
##  5   -4.60  315.   331.   333.        1     5
##  6  231.    237.   488.   319.        1     6
##  7  227.    469.   382.   359.        1     7
##  8  336.    280.   362.   472.        1     8
##  9   16.8   190.    90.9  145.        1     9
## 10   54.5   359.   454.   199.        1    10
## # … with 190 more rows
…
Solution

This is exactly what gather does, so it’s what we’ll
use here. Let’s see how it comes out:

airport %>% gather(when, epinephrine, epi_1:epi_4)

## # A tibble: 800 x 4
##    location child when  epinephrine
##       <dbl> <dbl> <chr>       <dbl>
##  1        1     1 epi_1       89.6 
##  2        1     2 epi_1      -55.5 
##  3        1     3 epi_1      201.  
##  4        1     4 epi_1      448.  
##  5        1     5 epi_1       -4.60
##  6        1     6 epi_1      231.  
##  7        1     7 epi_1      227.  
##  8        1     8 epi_1      336.  
##  9        1     9 epi_1       16.8 
## 10        1    10 epi_1       54.5 
## # … with 790 more rows

What makes the columns different (they’re different times), what makes
them the same (they’re all epinephrine levels), and the columns to
gather up (which are the consecutive ones epi1 through
epi4). For the last, this also works (but is more typing):

airport %>% gather(when, epinephrine, c(epi_1, epi_2, epi_3, epi_4))

## # A tibble: 800 x 4
##    location child when  epinephrine
##       <dbl> <dbl> <chr>       <dbl>
##  1        1     1 epi_1       89.6 
##  2        1     2 epi_1      -55.5 
##  3        1     3 epi_1      201.  
##  4        1     4 epi_1      448.  
##  5        1     5 epi_1       -4.60
##  6        1     6 epi_1      231.  
##  7        1     7 epi_1      227.  
##  8        1     8 epi_1      336.  
##  9        1     9 epi_1       16.8 
## 10        1    10 epi_1       54.5 
## # … with 790 more rows

and also this:

airport %>% gather(when, epinephrine, starts_with("epi"))

## # A tibble: 800 x 4
##    location child when  epinephrine
##       <dbl> <dbl> <chr>       <dbl>
##  1        1     1 epi_1       89.6 
##  2        1     2 epi_1      -55.5 
##  3        1     3 epi_1      201.  
##  4        1     4 epi_1      448.  
##  5        1     5 epi_1       -4.60
##  6        1     6 epi_1      231.  
##  7        1     7 epi_1      227.  
##  8        1     8 epi_1      336.  
##  9        1     9 epi_1       16.8 
## 10        1    10 epi_1       54.5 
## # … with 790 more rows
…
Find a way to create a new column containing just the number
of the time point, and save the resulting data frame. (Two options
you can explore: parse_number combined with
mutate, or separate. You may
need to do some research.)

Solution

The first suggestion goes like this:

airport %>%
  gather(when, epinephrine, epi_1:epi_4) %>%
  mutate(time = parse_number(when))

## # A tibble: 800 x 5
##    location child when  epinephrine  time
##       <dbl> <dbl> <chr>       <dbl> <dbl>
##  1        1     1 epi_1       89.6      1
##  2        1     2 epi_1      -55.5      1
##  3        1     3 epi_1      201.       1
##  4        1     4 epi_1      448.       1
##  5        1     5 epi_1       -4.60     1
##  6        1     6 epi_1      231.       1
##  7        1     7 epi_1      227.       1
##  8        1     8 epi_1      336.       1
##  9        1     9 epi_1       16.8      1
## 10        1    10 epi_1       54.5      1
## # … with 790 more rows

This creates a variable called time by pulling out only the numbers from
when. The only numbers are the time points, so this is
exactly what we want.

Here’s the other way, using separate from dplyr:

airport %>%
  gather(when, epinephrine, epi_1:epi_4) %>%
  separate(when, into = c("junk", "time"), sep = "_")

## # A tibble: 800 x 5
##    location child junk  time  epinephrine
##       <dbl> <dbl> <chr> <chr>       <dbl>
##  1        1     1 epi   1           89.6 
##  2        1     2 epi   1          -55.5 
##  3        1     3 epi   1          201.  
##  4        1     4 epi   1          448.  
##  5        1     5 epi   1           -4.60
##  6        1     6 epi   1          231.  
##  7        1     7 epi   1          227.  
##  8        1     8 epi   1          336.  
##  9        1     9 epi   1           16.8 
## 10        1    10 epi   1           54.5 
## # … with 790 more rows
…
airport %>%
  gather(when, epinephrine, epi_1:epi_4) %>%
  separate(when, into = c("junk", "time"), sep = "_", convert = T)

## # A tibble: 800 x 5
##    location child junk   time epinephrine
##       <dbl> <dbl> <chr> <int>       <dbl>
##  1        1     1 epi       1       89.6 
##  2        1     2 epi       1      -55.5 
##  3        1     3 epi       1      201.  
##  4        1     4 epi       1      448.  
##  5        1     5 epi       1       -4.60
##  6        1     6 epi       1      231.  
##  7        1     7 epi       1      227.  
##  8        1     8 epi       1      336.  
##  9        1     9 epi       1       16.8 
## 10        1    10 epi       1       54.5 
## # … with 790 more rows
…
## Parsed with column specification:
## cols(
##   id = col_double(),
##   context = col_character(),
##   i1 = col_double(),
##   i2 = col_double(),
##   i3 = col_double(),
##   i4 = col_double(),
##   i5 = col_double(),
##   i6 = col_double()
## )

king

## # A tibble: 24 x 8
##       id context    i1    i2    i3    i4    i5    i6
##    <dbl> <chr>   <dbl> <dbl> <dbl> <dbl> <dbl> <dbl>
##  1   101 control   150    44    71    59   132    74
##  2   102 control   335   270   156   160   118   230
##  3   103 control   149    52    91   115    43   154
##  4   104 control   159    31   127   212    71   224
##  5   105 control   292   125   184   246   225   170
##  6   106 control   297   187    66    96   209    74
##  7   107 control   170    37    42    66   114    81
##  8   108 control   159     0    35    75    71    34
##  9   109 same      346   175   177   192   239   140
## 10   110 same      426   329   236    76   102   232
## # … with 14 more rows
…
To understand the results of the previous part, we are going
to make a spaghetti plot. In preparation for that, we need to save
the data in “long format” with one observation on one time
point in each row. Arrange that, and show by displaying (some of)
the data that you have done so.

Solution

This is gather yet again: gather up columns i1
through i6 and call them something like activity:

king.long <- king %>% gather(time, activity, i1:i6)
king.long

## # A tibble: 144 x 4
##       id context time  activity
##    <dbl> <chr>   <chr>    <dbl>
##  1   101 control i1         150
##  2   102 control i1         335
##  3   103 control i1         149
##  4   104 control i1         159
##  5   105 control i1         292
##  6   106 control i1         297
##  7   107 control i1         170
##  8   108 control i1         159
##  9   109 same    i1         346
## 10   110 same    i1         426
## # … with 134 more rows
…
my_url <- "http://www.utsc.utoronto.ca/~butler/d29/rm.txt"
treatments <- read_tsv(my_url)

## Parsed with column specification:
## cols(
##   trt = col_character(),
##   time = col_character(),
##   subject = col_double(),
##   y = col_double()
## )

treatments

## # A tibble: 27 x 4
##    trt   time  subject     y
##    <chr> <chr>   <dbl> <dbl>
##  1 A     T1          1    10
##  2 A     T1          2    12
##  3 A     T1          3    13
##  4 A     T2          1    16
##  5 A     T2          2    19
##  6 A     T2          3    20
##  7 A     T3          1    25
##  8 A     T3          2    27
##  9 A     T3          3    28
## 10 B     T1          4    12
## # … with 17 more rows
…
