Chapter 18 Simple regression | Problems and Solutions in Applied Statistics
…
I have the right number of rows and columns.

There is also read_table, but that requires all the
columns, including the header row, to be lined up. You can try that
here and see how it fails.

I don’t need you to investigate the data yet (that happens in the next
part), but this is interesting (to me):

rains

## # A tibble: 30 × 5
##    station      rainfall altitude latitude fromcoast
##    <chr>           <dbl>    <dbl>    <dbl>     <dbl>
##  1 Eureka           39.6       43     40.8         1
##  2 RedBluff         23.3      341     40.2        97
##  3 Thermal          18.2     4152     33.8        70
##  4 FortBragg        37.5       74     39.4         1
##  5 SodaSprings      49.3     6752     39.3       150
##  6 SanFrancisco     21.8       52     37.8         5
##  7 Sacramento       18.1       25     38.5        80
##  8 SanJose          14.2       95     37.4        28
##  9 GiantForest      42.6     6360     36.6       145
## 10 Salinas          13.8       74     36.7        12
## # … with 20 more rows
…
## Warning: `read_table2()` was deprecated in readr 2.0.0.
## Please use `read_table()` instead.

## 
## ── Column specification ────────────────────────────────────────────────────────
## cols(
##   tar = col_double(),
##   nicotine = col_double(),
##   weight = col_double(),
##   co = col_double()
## )

cigs

## # A tibble: 25 × 4
##      tar nicotine weight    co
##    <dbl>    <dbl>  <dbl> <dbl>
##  1  14.1     0.86  0.985  13.6
##  2  16       1.06  1.09   16.6
##  3  29.8     2.03  1.16   23.5
##  4   8       0.67  0.928  10.2
##  5   4.1     0.4   0.946   5.4
##  6  15       1.04  0.888  15  
##  7   8.8     0.76  1.03    9  
##  8  12.4     0.95  0.922  12.3
##  9  16.6     1.12  0.937  16.3
## 10  14.9     1.02  0.886  15.4
## # … with 15 more rows
…
my_url <- "http://ritsokiguess.site/datafiles/facebook.txt"
fb <- read_tsv(my_url)

## Rows: 40 Columns: 2
## ── Column specification ────────────────────────────────────────────────────────
## Delimiter: "\t"
## dbl (2): GMdensity, FBfriends
## 
## ℹ Use `spec()` to retrieve the full column specification for this data.
## ℹ Specify the column types or set `show_col_types = FALSE` to quiet this message.

fb

## # A tibble: 40 × 2
##    GMdensity FBfriends
##        <dbl>     <dbl>
##  1      -1.8        23
##  2       0.1        35
##  3      -1.2        80
##  4      -0.4       110
##  5      -0.9       120
##  6      -2.1       140
##  7      -1.5       168
##  8       0.5       132
##  9       0.6       154
## 10      -0.5       241
## # … with 30 more rows
…
my_url <- "http://ritsokiguess.site/datafiles/socwork.txt"
soc <- read_delim(my_url, " ")

## Rows: 50 Columns: 2
## ── Column specification ────────────────────────────────────────────────────────
## Delimiter: " "
## dbl (2): experience, salary
## 
## ℹ Use `spec()` to retrieve the full column specification for this data.
## ℹ Specify the column types or set `show_col_types = FALSE` to quiet this message.

soc

## # A tibble: 50 × 2
##    experience salary
##         <dbl>  <dbl>
##  1          7  26075
##  2         28  79370
##  3         23  65726
##  4         18  41983
##  5         19  62308
##  6         15  41154
##  7         24  53610
##  8         13  33697
##  9          2  22444
## 10          8  32562
## # … with 40 more rows
…
my_url <- "http://ritsokiguess.site/datafiles/Pizza.csv"
pizza <- read_csv(my_url)

## Rows: 24 Columns: 4
## ── Column specification ────────────────────────────────────────────────────────
## Delimiter: ","
## chr (1): Type
## dbl (3): Calories, Fat, Cost
## 
## ℹ Use `spec()` to retrieve the full column specification for this data.
## ℹ Specify the column types or set `show_col_types = FALSE` to quiet this message.

pizza

## # A tibble: 24 × 4
##    Type                                                  Calories   Fat  Cost
##    <chr>                                                    <dbl> <dbl> <dbl>
##  1 Domino's Deep Dish with Pepperoni                          385  19.5  1.87
##  2 Pizza Hut's Stuffed Crust with Pepperoni                   370  15    1.83
##  3 Pizza Hut's Pan Pizza with Pepperoni                       280  14    1.83
##  4 Domino's Hand-Tossed with Pepperoni                        305  12    1.67
##  5 Pizza Hut's Hand-Tossed with Pepperoni                     230   9    1.63
##  6 Little Caesars' Deep Dish with Pepperoni                   350  14.2  1.06
##  7 Little Caesars' Original Round with Pepperoni              230   8    0.81
##  8 Freschetta Bakes & Rises  4-Cheese                         364  15    0.98
##  9 Freschetta Bakes & Rises Sauce Stuffed Crust 4-Cheese      334  11    1.23
## 10 DiGiorno Rising Crust Four Cheese                          332  12    0.94
## # … with 14 more rows
…
my_url <- "http://ritsokiguess.site/datafiles/heightfoot.csv"
hf <- read_csv(my_url)

## Rows: 33 Columns: 2
## ── Column specification ────────────────────────────────────────────────────────
## Delimiter: ","
## dbl (2): height, foot
## 
## ℹ Use `spec()` to retrieve the full column specification for this data.
## ℹ Specify the column types or set `show_col_types = FALSE` to quiet this message.

hf

## # A tibble: 33 × 2
##    height  foot
##     <dbl> <dbl>
##  1   66.5  27  
##  2   73.5  29  
##  3   70    25.5
##  4   71    27.9
##  5   73    27  
##  6   71    26  
##  7   71    29  
##  8   69.5  27  
##  9   73    29  
## 10   71    27  
## # … with 23 more rows
…
The residuals in a regression have to add up to zero. If one of them is very positive (as in the one you did and the example I just showed you), at least some of the other residuals have to become more negative to compensate – the ones on the right just above and the ones on the left in the one you did. If you have done STAC67, you will have some kind of sense of why that is: think about the two equations you have to solve to get the estimates of intercept and slope, and how they are related to the residuals. Slide 6 of this shows them; at the least squares estimates, these two partial derivatives both have to be zero, and the things inside the brackets are the residuals.

\(\blacksquare\)

Any data points that concerned you earlier were actually errors.
Create and save a new data frame that does not contain any of those data points.

Solution

Find a way to not pick that outlying point. For example, you can choose the observations with height less than 80:

hf %>% filter(height<80) -> hfx
hfx

## # A tibble: 32 × 2
##    height  foot
##     <dbl> <dbl>
##  1   66.5  27  
##  2   73.5  29  
##  3   70    25.5
##  4   71    27.9
##  5   73    27  
##  6   71    26  
##  7   71    29  
##  8   69.5  27  
##  9   73    29  
## 10   71    27  
## # … with 22 more rows
…
