Chapter 29 Survival analysis | Problems and Solutions in Applied Statistics
…
whas100

## # A tibble: 100 x 10
##       X1    id admitdate  foldate      los lenfol fstat   age gender   bmi
##    <dbl> <dbl> <chr>      <chr>      <dbl>  <dbl> <dbl> <dbl>  <dbl> <dbl>
##  1     1     1 3/13/1995  3/19/1995      4      6     1    65      0  31.4
##  2     2     2 1/14/1995  1/23/1996      5    374     1    88      1  22.7
##  3     3     3 2/17/1995  10/4/2001      5   2421     1    77      0  27.9
##  4     4     4 4/7/1995   7/14/1995      9     98     1    81      1  21.5
##  5     5     5 2/9/1995   5/29/1998      4   1205     1    78      0  30.7
##  6     6     6 1/16/1995  9/11/2000      7   2065     1    82      1  26.5
##  7     7     7 1/17/1995  10/15/1997     3   1002     1    66      1  35.7
##  8     8     8 11/15/1994 11/24/2000    56   2201     1    81      1  28.3
##  9     9     9 8/18/1995  2/23/1996      5    189     1    76      0  27.1
## 10    10    10 7/22/1995  12/31/2002     9   2719     0    40      0  21.8
## # … with 90 more rows
…
drugusers

## # A tibble: 628 x 9
##      row    ID   age ndrugtx treat  site  time censor herco
##    <dbl> <dbl> <dbl>   <dbl> <dbl> <dbl> <dbl>  <dbl> <dbl>
##  1     1     1    39       1     1     0   188      1     3
##  2     2     2    33       8     1     0    26      1     3
##  3     3     3    33       3     1     0   207      1     2
##  4     4     4    32       1     0     0   144      1     3
##  5     5     5    24       5     1     0   551      0     2
##  6     6     6    30       1     1     0    32      1     1
##  7     7     7    39      34     1     0   459      1     3
##  8     8     8    27       2     1     0    22      1     3
##  9     9     9    40       3     1     0   210      1     2
## 10    10    10    36       7     1     0   184      1     2
## # … with 618 more rows
…
I’m living on the edge and overwriting everything:

drugusers

## # A tibble: 610 x 9
##      row    ID   age ndrugtx treat site   time censor    herco  
##    <dbl> <dbl> <dbl>   <dbl> <chr> <chr> <dbl> <chr>     <chr>  
##  1     1     1    39       1 long  A       188 returned  neither
##  2     2     2    33       8 long  A        26 returned  neither
##  3     3     3    33       3 long  A       207 returned  one    
##  4     4     4    32       1 short A       144 returned  neither
##  5     5     5    24       5 long  A       551 no-return one    
##  6     6     6    30       1 long  A        32 returned  both   
##  7     7     7    39      34 long  A       459 returned  neither
##  8     8     8    27       2 long  A        22 returned  neither
##  9     9     9    40       3 long  A       210 returned  one    
## 10    10    10    36       7 long  A       184 returned  one    
## # … with 600 more rows
…
myeloma

## # A tibble: 65 x 11
##     time vstatus logbun   hgb platelet   age logwbc  frac logpbm protein scalc
##    <dbl>   <dbl>  <dbl> <dbl>    <dbl> <dbl>  <dbl> <dbl>  <dbl>   <dbl> <dbl>
##  1  1.25       1   2.22   9.4        1    67   3.66     1   1.95      12    10
##  2  1.25       1   1.94  12          1    38   3.99     1   1.95      20    18
##  3  2          1   1.52   9.8        1    81   3.88     1   2          2    15
##  4  2          1   1.75  11.3        0    75   3.81     1   1.26       0    12
##  5  2          1   1.30   5.1        0    57   3.72     1   2          3     9
##  6  3          1   1.54   6.7        1    46   4.48     0   1.93      12    10
##  7  5          1   2.24  10.1        1    50   4.95     1   1.66       4     9
##  8  5          1   1.68   6.5        1    74   3.73     0   1.73       5     9
##  9  6          1   1.36   9          1    77   3.54     0   1.46       1     8
## 10  6          1   2.11  10.2        0    70   3.54     1   1.36       1     8
## # … with 55 more rows
…
There are indeed 26 rows. This is a data.frame rather than a
tibble, so you see the whole thing, in case you were
expecting something like this:

ovarian %>% as.tibble()

## Warning: `as.tibble()` was deprecated in tibble 2.0.0.
## Please use `as_tibble()` instead.
## The signature and semantics have changed, see `?as_tibble`.

## # A tibble: 26 x 6
##    futime fustat   age resid.ds    rx ecog.ps
##     <dbl>  <dbl> <dbl>    <dbl> <dbl>   <dbl>
##  1     59      1  72.3        2     1       1
##  2    115      1  74.5        2     1       1
##  3    156      1  66.5        2     1       2
##  4    421      0  53.4        2     2       1
##  5    431      1  50.3        2     1       1
##  6    448      0  56.4        1     1       2
##  7    464      1  56.9        2     2       2
##  8    475      1  59.9        2     2       2
##  9    477      0  64.2        2     1       1
## 10    563      1  55.2        1     2       2
## # … with 16 more rows
…
