Problems and Solutions in Applied Statistics
…
myurl="http://www.utsc.utoronto.ca/~butler/c32/maze.txt"
times=read_delim(myurl," ")

## Parsed with column specification:
## cols(
##   time = col_double()
## )

times

## # A tibble: 21 x 1
##     time
##    <dbl>
##  1  38.4
##  2  46.2
##  3  62.5
##  4  38  
##  5  62.8
##  6  33.9
##  7  50.4
##  8  35  
##  9  52.8
## 10  60.1
## # ... with 11 more rows
…
