Problems and Solutions in Applied Statistics
…
Solution

my_url="http://www.utsc.utoronto.ca/~butler/c32/socwork.txt"
soc=read_delim(my_url," ")

## Parsed with column specification:
## cols(
##   experience = col_integer(),
##   salary = col_integer()
## )

soc

## # A tibble: 50 x 2
##    experience salary
##         <int>  <int>
##  1          7  26075
##  2         28  79370
##  3         23  65726
##  4         18  41983
##  5         19  62308
##  6         15  41154
##  7         24  53610
##  8         13  33697
##  9          2  22444
## 10          8  32562
## # ... with 40 more rows
…
