Chapter 22 The Bootstrap | Problems and Solutions in Applied Statistics
…
\(\blacksquare\)

Obtain the means of 1000 bootstrap samples (that is, samples from the data with replacement). Save them.

Solution

Something like this, therefore:

tibble(sim = 1:1000) %>% 
  rowwise() %>% 
  mutate(sample = list(sample(aircon$hours, replace = TRUE))) %>% 
  mutate(sample_mean = mean(sample)) -> means
means

## # A tibble: 1,000 x 3
## # Rowwise: 
##      sim sample     sample_mean
##    <int> <list>           <dbl>
##  1     1 <dbl [12]>        83.2
##  2     2 <dbl [12]>        52.3
##  3     3 <dbl [12]>       122. 
##  4     4 <dbl [12]>        82.3
##  5     5 <dbl [12]>       115. 
##  6     6 <dbl [12]>       150. 
##  7     7 <dbl [12]>       141. 
##  8     8 <dbl [12]>        69.2
##  9     9 <dbl [12]>        90  
## 10    10 <dbl [12]>        69.4
## # … with 990 more rows
…
\(\blacksquare\)

Obtain a bootstrap distribution of the sample median.

Solution

Borrow the idea from lecture, replacing mean with median:

tibble(sim = 1:1000) %>% 
rowwise() %>% 
mutate(sample = list(sample(sight$difference, replace = TRUE))) %>% 
mutate(my_median = median(sample)) -> meds
meds

## # A tibble: 1,000 x 3
## # Rowwise: 
##      sim sample     my_median
##    <int> <list>         <dbl>
##  1     1 <dbl [15]>         3
##  2     2 <dbl [15]>         3
##  3     3 <dbl [15]>         2
##  4     4 <dbl [15]>         2
##  5     5 <dbl [15]>         3
##  6     6 <dbl [15]>         4
##  7     7 <dbl [15]>         3
##  8     8 <dbl [15]>         3
##  9     9 <dbl [15]>         3
## 10    10 <dbl [15]>         3
## # … with 990 more rows
…
and once again bootstrap the median:

tibble(sim = 1:1000) %>% 
rowwise() %>% 
mutate(sample = list(sample(fake_data$x, replace = TRUE))) %>% 
mutate(my_median = median(sample)) -> meds2
meds2

## # A tibble: 1,000 x 3
## # Rowwise: 
##      sim sample     my_median
##    <int> <list>         <dbl>
##  1     1 <dbl [15]>   0.0115 
##  2     2 <dbl [15]>   0.0115 
##  3     3 <dbl [15]>  -0.123  
##  4     4 <dbl [15]>  -0.0179 
##  5     5 <dbl [15]>   0.0115 
##  6     6 <dbl [15]>   0.318  
##  7     7 <dbl [15]>   0.0115 
##  8     8 <dbl [15]>  -0.00982
##  9     9 <dbl [15]>   0.0529 
## 10    10 <dbl [15]>   0.0115 
## # … with 990 more rows
…
Pretty much any of the read_ functions will work, even this one:

my_url <- "http://ritsokiguess.site/datafiles/irs.txt"
irs <- read_table(my_url)

## 
## ── Column specification ──────────────────────────────────────────────────────────────────────────────────────────────────────────────────────────────────────────────────────────────────────
## cols(
##   Time = col_double()
## )

irs

## # A tibble: 30 x 1
##     Time
##    <dbl>
##  1    91
##  2    64
##  3   243
##  4   167
##  5   123
##  6    65
##  7    71
##  8   204
##  9   110
## 10   178
## # … with 20 more rows
One column called Time.

\(\blacksquare\)

Obtain a bootstrap distribution of the sample median.

Solution

The lecture notes use the exact same dataset, so you can borrow ideas from there:

Set up a dataframe with one row for each bootstrap sample you’re going to draw, 1000 in this case:

tibble(sim = 1:1000)

## # A tibble: 1,000 x 1
##      sim
##    <int>
##  1     1
##  2     2
##  3     3
##  4     4
##  5     5
##  6     6
##  7     7
##  8     8
##  9     9
## 10    10
## # … with 990 more rows

Create a column with a new bootstrap sample for each sim. This means doing rowwise first and then wrapping the sampling in list because you are creating a list-column of samples:

tibble(sim = 1:1000) %>% 
rowwise() %>% 
mutate(sample = list(sample(irs$Time, replace = TRUE)))

## # A tibble: 1,000 x 2
## # Rowwise: 
##      sim sample    
##    <int> <list>    
##  1     1 <dbl [30]>
##  2     2 <dbl [30]>
##  3     3 <dbl [30]>
##  4     4 <dbl [30]>
##  5     5 <dbl [30]>
##  6     6 <dbl [30]>
##  7     7 <dbl [30]>
##  8     8 <dbl [30]>
##  9     9 <dbl [30]>
## 10    10 <dbl [30]>
## # … with 990 more rows

Each thing in sample has 30 observations in it (one bootstrap sample). If you want, you can unnest to take a look at the values; they should be the ones in the dataset, possibly with extra repeats.

Next, work out the median of each bootstrapped sample, which is simple because we are still working rowwise:

tibble(sim = 1:1000) %>% 
rowwise() %>% 
mutate(sample = list(sample(irs$Time, replace = TRUE))) %>% 
mutate(my_median = median(sample)) -> bs
bs

## # A tibble: 1,000 x 3
## # Rowwise: 
##      sim sample     my_median
##    <int> <list>         <dbl>
##  1     1 <dbl [30]>      209 
##  2     2 <dbl [30]>      162 
##  3     3 <dbl [30]>      172.
##  4     4 <dbl [30]>      186 
##  5     5 <dbl [30]>      206.
##  6     6 <dbl [30]>      196 
##  7     7 <dbl [30]>      136.
##  8     8 <dbl [30]>      154.
##  9     9 <dbl [30]>      194 
## 10    10 <dbl [30]>      194 
## # … with 990 more rows
…
