Chapter 9 The sign test | Problems and Solutions in Applied Statistics
…
myurl <- "http://ritsokiguess.site/datafiles/maze.txt"
times <- read_delim(myurl, " ")

## 
## ── Column specification ──────────────────────────────────────────────────────────────────────────────────────────────────────────────────────────────────────────────────────────────────────
## cols(
##   time = col_double()
## )

times

## # A tibble: 21 x 1
##     time
##    <dbl>
##  1  38.4
##  2  46.2
##  3  62.5
##  4  38  
##  5  62.8
##  6  33.9
##  7  50.4
##  8  35  
##  9  52.8
## 10  60.1
## # … with 11 more rows
…
Solution

Set up a dataframe with a column (called, maybe, sim) that counts the number of simulations you are doing, and then use rowwise to take a random sample in each row and extract what you need from it.

I start with setting the random number seed, so it comes out the
same each time. That way, if I rerun the code, my answers are the same (and I don’t have to change my discussion of them.)

set.seed(457299)
tibble(sim = 1:1000) %>% 
  rowwise() %>% 
  mutate(sample = list(rnorm(10, 50, 15)))

## # A tibble: 1,000 x 2
## # Rowwise: 
##      sim sample    
##    <int> <list>    
##  1     1 <dbl [10]>
##  2     2 <dbl [10]>
##  3     3 <dbl [10]>
##  4     4 <dbl [10]>
##  5     5 <dbl [10]>
##  6     6 <dbl [10]>
##  7     7 <dbl [10]>
##  8     8 <dbl [10]>
##  9     9 <dbl [10]>
## 10    10 <dbl [10]>
## # … with 990 more rows

Each sample has 10 values in it, not just one, so you need the list around the rnorm. Note that sample is labelled as a list-column.

Now we have to count how many of the sample values are less than 40:

set.seed(457299)
tibble(sim = 1:1000) %>% 
  rowwise() %>% 
  mutate(sample = list(rnorm(10, 50, 15))) %>% 
  mutate(less = list(sample<40)) %>% 
  mutate(counted = sum(less)) 

## # A tibble: 1,000 x 4
## # Rowwise: 
##      sim sample     less       counted
##    <int> <list>     <list>       <int>
##  1     1 <dbl [10]> <lgl [10]>       3
##  2     2 <dbl [10]> <lgl [10]>       4
##  3     3 <dbl [10]> <lgl [10]>       2
##  4     4 <dbl [10]> <lgl [10]>       1
##  5     5 <dbl [10]> <lgl [10]>       4
##  6     6 <dbl [10]> <lgl [10]>       2
##  7     7 <dbl [10]> <lgl [10]>       1
##  8     8 <dbl [10]> <lgl [10]>       1
##  9     9 <dbl [10]> <lgl [10]>       2
## 10    10 <dbl [10]> <lgl [10]>       5
## # … with 990 more rows

This is a bit of a programmer’s trick. In R, less contains a vector of 10 TRUE or FALSE values, according to whether the corresponding value in sample is less than 40 or not. In R (and many other programming languages), the numeric value of TRUE is 1 and of FALSE is 0, so you count how many TRUE values there are by adding them up. To verify that this worked, we should unnest sample and less:

set.seed(457299)
tibble(sim = 1:1000) %>% 
  rowwise() %>% 
  mutate(sample = list(rnorm(10, 50, 15))) %>% 
  mutate(less = list(sample<40)) %>% 
  mutate(counted = sum(less)) %>% 
  unnest(c(sample, less))

## # A tibble: 10,000 x 4
##      sim sample less  counted
##    <int>  <dbl> <lgl>   <int>
##  1     1   74.3 FALSE       3
##  2     1   38.8 TRUE        3
##  3     1   46.0 FALSE       3
##  4     1   39.5 TRUE        3
##  5     1   53.2 FALSE       3
##  6     1   60.6 FALSE       3
##  7     1   33.8 TRUE        3
##  8     1   61.9 FALSE       3
##  9     1   50.1 FALSE       3
## 10     1   66.4 FALSE       3
## # … with 9,990 more rows
…
r0 <- read_table("r1.txt")

## 
## ── Column specification ──────────────────────────────────────────────────────────────────────────────────────────────────────────────────────────────────────────────────────────────────────
## cols(
##   season = col_double(),
##   week = col_double(),
##   opponent = col_character(),
##   completed = col_double()
## )

r0

## # A tibble: 27 x 4
##    season  week opponent    completed
##     <dbl> <dbl> <chr>           <dbl>
##  1   2009     1 Tennessee          33
##  2   2009     2 Chicago            23
##  3   2009     3 Cincinnati         22
##  4   2009     4 San Diego          26
##  5   2009     5 Detroit            23
##  6   2009     6 Cleveland          23
##  7   2009     7 Minnesota          14
##  8   2009     9 Denver             21
##  9   2009    10 Cincinnati         20
## 10   2009    11 Kansas City        32
## # … with 17 more rows
…
