Chapter 17 Tidying data | Problems and Solutions in Applied Statistics
…
myurl <- "http://ritsokiguess.site/datafiles/throw.txt"
throws <- read_delim(myurl, " ", col_names = c("student", "baseball", "softball"))

## 
## ── Column specification ──────────────────────────────────────────────────────────────────────────────────────────────────────────────────────────────────────────────────────────────────────
## cols(
##   student = col_double(),
##   baseball = col_double(),
##   softball = col_double()
## )

throws

## # A tibble: 24 x 3
##    student baseball softball
##      <dbl>    <dbl>    <dbl>
##  1       1       65       57
##  2       2       90       58
##  3       3       75       66
##  4       4       73       61
##  5       5       79       65
##  6       6       68       56
##  7       7       58       53
##  8       8       41       41
##  9       9       56       44
## 10      10       70       65
## # … with 14 more rows

\(\blacksquare\)

Create a new column that is the students turned into a factor,
adding it to your data frame. The reason for this will become clear
later.

Solution

Feed student into factor, creating a new
column with mutate:

throws %>% mutate(fs = factor(student))

## # A tibble: 24 x 4
##    student baseball softball fs   
##      <dbl>    <dbl>    <dbl> <fct>
##  1       1       65       57 1    
##  2       2       90       58 2    
##  3       3       75       66 3    
##  4       4       73       61 4    
##  5       5       79       65 5    
##  6       6       68       56 6    
##  7       7       58       53 7    
##  8       8       41       41 8    
##  9       9       56       44 9    
## 10      10       70       65 10   
## # … with 14 more rows
…
\(\blacksquare\)

Collect together all the throwing distances into one column,
making a second column that says which ball was thrown.

Solution

Use pivot_longer. It goes like this:

throws %>%
  mutate(fs = factor(student)) %>%
  pivot_longer(baseball:softball, names_to="ball", values_to="distance")

## # A tibble: 48 x 4
##    student fs    ball     distance
##      <dbl> <fct> <chr>       <dbl>
##  1       1 1     baseball       65
##  2       1 1     softball       57
##  3       2 2     baseball       90
##  4       2 2     softball       58
##  5       3 3     baseball       75
##  6       3 3     softball       66
##  7       4 4     baseball       73
##  8       4 4     softball       61
##  9       5 5     baseball       79
## 10       5 5     softball       65
## # … with 38 more rows

The names_to is the name of a new categorical column whose values will be what is currently column names, and the values_to names a new quantitative (usually) column that will hold the values in those columns that you are making longer.

If you want to show off a little, you can use a select-helper, noting
that the columns you want to make longer all end in “ball”:

throws %>%
  mutate(fs = factor(student)) %>%
  pivot_longer(ends_with("ball"), names_to="ball", values_to="distance")

## # A tibble: 48 x 4
##    student fs    ball     distance
##      <dbl> <fct> <chr>       <dbl>
##  1       1 1     baseball       65
##  2       1 1     softball       57
##  3       2 2     baseball       90
##  4       2 2     softball       58
##  5       3 3     baseball       75
##  6       3 3     softball       66
##  7       4 4     baseball       73
##  8       4 4     softball       61
##  9       5 5     baseball       79
## 10       5 5     softball       65
## # … with 38 more rows
…
Re-arrange the data so that you have one column
containing all the growth rates, and another column saying which
colour light each plant was exposed to. (The aim here is to produce
something suitable for feeding into aov later.)

Solution

This is a job for pivot_longer:

toms1 %>% 
   pivot_longer(-plant, names_to="colour", values_to="growthrate") -> toms2
toms2

## # A tibble: 32 x 3
##    plant colour growthrate
##    <dbl> <chr>       <dbl>
##  1     1 blue         5.34
##  2     1 red         13.7 
##  3     1 yellow       4.61
##  4     1 green        2.72
##  5     2 blue         7.45
##  6     2 red         13.0 
##  7     2 yellow       6.63
##  8     2 green        1.08
##  9     3 blue         7.15
## 10     3 red         10.2 
## # … with 22 more rows
…
The first part of each column name is the species and the second part is what was measured each time, separated by an underscore. To handle that in pivot_longer, you give two names of new columns to create (in names_to), and say what they’re separated by:

crickets %>% 
  mutate(row=row_number()) %>% 
  rename(
    exclamationis_temperature = X1,
    exclamationis_pulserate = X2,
    niveus_temperature = X3,
    niveus_pulserate = X4
  ) %>% 
  pivot_longer(-row, names_to=c("species", "measurement"), names_sep="_", values_to = "obs")

## # A tibble: 68 x 4
##      row species       measurement   obs
##    <int> <chr>         <chr>       <dbl>
##  1     1 exclamationis temperature  20.8
##  2     1 exclamationis pulserate    67.9
##  3     1 niveus        temperature  17.2
##  4     1 niveus        pulserate    44.3
##  5     2 exclamationis temperature  20.8
##  6     2 exclamationis pulserate    65.1
##  7     2 niveus        temperature  18.3
##  8     2 niveus        pulserate    47.2
##  9     3 exclamationis temperature  24  
## 10     3 exclamationis pulserate    77.3
## # … with 58 more rows

This is tidy now, but we went a step too far: that column measurement should be two columns, called temperature and pulserate, which means it should be made wider:

crickets %>% 
  mutate(row=row_number()) %>% 
  rename(
    exclamationis_temperature = X1,
    exclamationis_pulserate = X2,
    niveus_temperature = X3,
    niveus_pulserate = X4
  ) %>% 
  pivot_longer(-row, names_to=c("species", "measurement"), names_sep="_", values_to = "obs") %>% 
  pivot_wider(names_from=measurement, values_from=obs)

## # A tibble: 34 x 4
##      row species       temperature pulserate
##    <int> <chr>               <dbl>     <dbl>
##  1     1 exclamationis        20.8      67.9
##  2     1 niveus               17.2      44.3
##  3     2 exclamationis        20.8      65.1
##  4     2 niveus               18.3      47.2
##  5     3 exclamationis        24        77.3
##  6     3 niveus               18.3      47.6
##  7     4 exclamationis        24        78.7
##  8     4 niveus               18.3      49.6
##  9     5 exclamationis        24        79.4
## 10     5 niveus               18.9      50.3
## # … with 24 more rows
…
Solution

Thus, this, naming the new column temp_pulse since it
contains both of those things. Add to the end of the pipe you
started building in the previous part:

crickets %>%
  unite(exclamationis, X1:X2) %>%
  unite(niveus, X3:X4) %>%
  pivot_longer(exclamationis:niveus, names_to = "species", values_to = "temp_pulse")

## # A tibble: 34 x 2
##    species       temp_pulse
##    <chr>         <chr>     
##  1 exclamationis 20.8_67.9 
##  2 niveus        17.2_44.3 
##  3 exclamationis 20.8_65.1 
##  4 niveus        18.3_47.2 
##  5 exclamationis 24_77.3   
##  6 niveus        18.3_47.6 
##  7 exclamationis 24_78.7   
##  8 niveus        18.3_49.6 
##  9 exclamationis 24_79.4   
## 10 niveus        18.9_50.3 
## # … with 24 more rows
…
Solution

The text to split by is an underscore (in quotes), since
unite by default puts an underscore in between the
values it pastes together. Glue the separate onto the
end. We are creating two new variables temperature and
pulse_rate:

crickets %>%
  unite(exclamationis, X1:X2) %>%
  unite(niveus, X3:X4) %>%
  pivot_longer(exclamationis:niveus, names_to = "species", values_to = "temp_pulse") %>% 
  separate(temp_pulse, c("temperature", "pulse_rate"), "_")

## # A tibble: 34 x 3
##    species       temperature pulse_rate
##    <chr>         <chr>       <chr>     
##  1 exclamationis 20.8        67.9      
##  2 niveus        17.2        44.3      
##  3 exclamationis 20.8        65.1      
##  4 niveus        18.3        47.2      
##  5 exclamationis 24          77.3      
##  6 niveus        18.3        47.6      
##  7 exclamationis 24          78.7      
##  8 niveus        18.3        49.6      
##  9 exclamationis 24          79.4      
## 10 niveus        18.9        50.3      
## # … with 24 more rows
…
crickets.1 <- crickets %>%
  unite(exclamationis, X1:X2) %>%
  unite(niveus, X3:X4) %>%
  pivot_longer(exclamationis:niveus, names_to = "species", values_to = "temp_pulse") %>% 
  separate(temp_pulse, c("temperature", "pulse_rate"), "_") %>%
  mutate(temperature = as.numeric(temperature)) %>%
  mutate(pulse_rate = as.numeric(pulse_rate))

## Warning in mask$eval_all_mutate(quo): NAs introduced by coercion

## Warning in mask$eval_all_mutate(quo): NAs introduced by coercion

crickets.1

## # A tibble: 34 x 3
##    species       temperature pulse_rate
##    <chr>               <dbl>      <dbl>
##  1 exclamationis        20.8       67.9
##  2 niveus               17.2       44.3
##  3 exclamationis        20.8       65.1
##  4 niveus               18.3       47.2
##  5 exclamationis        24         77.3
##  6 niveus               18.3       47.6
##  7 exclamationis        24         78.7
##  8 niveus               18.3       49.6
##  9 exclamationis        24         79.4
## 10 niveus               18.9       50.3
## # … with 24 more rows
…
crickets %>%
  unite(exclamationis, X1:X2) %>%
  unite(niveus, X3:X4) %>%
  pivot_longer(exclamationis:niveus, names_to = "species", values_to = "temp_pulse") %>% 
  separate(temp_pulse, c("temperature", "pulse_rate"), "_") %>%
  mutate(across(c(temperature, pulse_rate), ~as.numeric(.)))

## Warning in (structure(function (..., .x = ..1, .y = ..2, . = ..1) : NAs introduced by coercion

## Warning in (structure(function (..., .x = ..1, .y = ..2, . = ..1) : NAs introduced by coercion

## # A tibble: 34 x 3
##    species       temperature pulse_rate
##    <chr>               <dbl>      <dbl>
##  1 exclamationis        20.8       67.9
##  2 niveus               17.2       44.3
##  3 exclamationis        20.8       65.1
##  4 niveus               18.3       47.2
##  5 exclamationis        24         77.3
##  6 niveus               18.3       47.6
##  7 exclamationis        24         78.7
##  8 niveus               18.3       49.6
##  9 exclamationis        24         79.4
## 10 niveus               18.9       50.3
## # … with 24 more rows

Can’t I just say that these are columns 2 and 3?

crickets %>%
  unite(exclamationis, X1:X2) %>%
  unite(niveus, X3:X4) %>%
  pivot_longer(exclamationis:niveus, names_to = "species", values_to = "temp_pulse") %>% 
  separate(temp_pulse, c("temperature", "pulse_rate"), "_") %>%
  mutate(across(2:3, ~as.numeric(.)))

## Warning in (structure(function (..., .x = ..1, .y = ..2, . = ..1) : NAs introduced by coercion

## Warning in (structure(function (..., .x = ..1, .y = ..2, . = ..1) : NAs introduced by coercion

## # A tibble: 34 x 3
##    species       temperature pulse_rate
##    <chr>               <dbl>      <dbl>
##  1 exclamationis        20.8       67.9
##  2 niveus               17.2       44.3
##  3 exclamationis        20.8       65.1
##  4 niveus               18.3       47.2
##  5 exclamationis        24         77.3
##  6 niveus               18.3       47.6
##  7 exclamationis        24         78.7
##  8 niveus               18.3       49.6
##  9 exclamationis        24         79.4
## 10 niveus               18.9       50.3
## # … with 24 more rows
…
