Problems and Solutions in Applied Statistics
…
## See spec(...) for full column specifications.

jays

## # A tibble: 25 x 21
##      row  game date  box   team  venue opp   result  runs Oppruns innings
##    <int> <int> <chr> <chr> <chr> <chr> <chr> <chr>  <int>   <int>   <int>
##  1    82     7 Mond… boxs… TOR   <NA>  TBR   L          1       2      NA
##  2    83     8 Tues… boxs… TOR   <NA>  TBR   L          2       3      NA
##  3    84     9 Wedn… boxs… TOR   <NA>  TBR   W         12       7      NA
##  4    85    10 Thur… boxs… TOR   <NA>  TBR   L          2       4      NA
##  5    86    11 Frid… boxs… TOR   <NA>  ATL   L          7       8      NA
##  6    87    12 Satu… boxs… TOR   <NA>  ATL   W-wo       6       5      10
##  7    88    13 Sund… boxs… TOR   <NA>  ATL   L          2       5      NA
##  8    89    14 Tues… boxs… TOR   <NA>  BAL   W         13       6      NA
##  9    90    15 Wedn… boxs… TOR   <NA>  BAL   W          4       2      NA
## 10    91    16 Thur… boxs… TOR   <NA>  BAL   W          7       6      NA
## # ... with 15 more rows, and 10 more variables: wl <chr>, position <int>,
## #   gb <chr>, winner <chr>, loser <chr>, save <chr>, `game time` <time>,
## #   Daynight <chr>, attendance <int>, streak <chr>
…
With only 8 rows, listing the data like this is good.

Re-arrange the data so that you have one column
containing all the growth rates, and another column saying which
colour light each plant was exposed to. (The aim here is to produce
something suitable for feeding into aov later.)

Solution

This is a job for gather:

toms2 = toms1 %>% gather(colour,growthrate,blue:green)
toms2

## # A tibble: 32 x 3
##    plant colour growthrate
##    <int> <chr>       <dbl>
##  1     1 blue         5.34
##  2     2 blue         7.45
##  3     3 blue         7.15
##  4     4 blue         5.53
##  5     5 blue         6.34
##  6     6 blue         7.16
##  7     7 blue         7.77
##  8     8 blue         5.09
##  9     1 red         13.7 
## 10     2 red         13.0 
## # ... with 22 more rows
…
“Tidy” the data to produce a data frame suitable for your
analysis.

Solution

gather the columns that are all measurements of one
thing.
The syntax of gather is: what
makes the columns different, what makes them the same, and which
columns need to be gathered together. Use a pipe to name the
dataframe to work with. I’m going to save my new data frame:

(migraine %>% gather(drug,painrelief,DrugA:DrugC) -> migraine2)

## # A tibble: 27 x 2
##    drug  painrelief
##    <chr>      <int>
##  1 DrugA          4
##  2 DrugA          5
##  3 DrugA          4
##  4 DrugA          3
##  5 DrugA          2
##  6 DrugA          4
##  7 DrugA          3
##  8 DrugA          4
##  9 DrugA          4
## 10 DrugB          6
## # ... with 17 more rows
…
## Parsed with column specification:
## cols(
##   car = col_character(),
##   MPG = col_double(),
##   weight = col_double(),
##   cylinders = col_integer(),
##   hp = col_integer(),
##   country = col_character()
## )

cars

## # A tibble: 38 x 6
##    car                  MPG weight cylinders    hp country
##    <chr>              <dbl>  <dbl>     <int> <int> <chr>  
##  1 Buick Skylark       28.4   2.67         4    90 U.S.   
##  2 Dodge Omni          30.9   2.23         4    75 U.S.   
##  3 Mercury Zephyr      20.8   3.07         6    85 U.S.   
##  4 Fiat Strada         37.3   2.13         4    69 Italy  
##  5 Peugeot 694 SL      16.2   3.41         6   133 France 
##  6 VW Rabbit           31.9   1.92         4    71 Germany
##  7 Plymouth Horizon    34.2   2.2          4    70 U.S.   
##  8 Mazda GLC           34.1   1.98         4    65 Japan  
##  9 Buick Estate Wagon  16.9   4.36         8   155 U.S.   
## 10 Audi 5000           20.3   2.83         5   103 Germany
## # ... with 28 more rows

Display only the car names and the countries they come from.

Solution

cars %>% select(car,country)

## # A tibble: 38 x 2
##    car                country
##    <chr>              <chr>  
##  1 Buick Skylark      U.S.   
##  2 Dodge Omni         U.S.   
##  3 Mercury Zephyr     U.S.   
##  4 Fiat Strada        Italy  
##  5 Peugeot 694 SL     France 
##  6 VW Rabbit          Germany
##  7 Plymouth Horizon   U.S.   
##  8 Mazda GLC          Japan  
##  9 Buick Estate Wagon U.S.   
## 10 Audi 5000          Germany
## # ... with 28 more rows

This almost works, but not quite:

cars %>% select(starts_with("c"))

## # A tibble: 38 x 3
##    car                cylinders country
##    <chr>                  <int> <chr>  
##  1 Buick Skylark              4 U.S.   
##  2 Dodge Omni                 4 U.S.   
##  3 Mercury Zephyr             6 U.S.   
##  4 Fiat Strada                4 Italy  
##  5 Peugeot 694 SL             6 France 
##  6 VW Rabbit                  4 Germany
##  7 Plymouth Horizon           4 U.S.   
##  8 Mazda GLC                  4 Japan  
##  9 Buick Estate Wagon         8 U.S.   
## 10 Audi 5000                  5 Germany
## # ... with 28 more rows

It gets all the columns that start with c, which
includes cylinders as well.

Display everything except horsepower:

Solution

Naming what you don’t want is sometimes easier:

cars %>% select(-hp)  

## # A tibble: 38 x 5
##    car                  MPG weight cylinders country
##    <chr>              <dbl>  <dbl>     <int> <chr>  
##  1 Buick Skylark       28.4   2.67         4 U.S.   
##  2 Dodge Omni          30.9   2.23         4 U.S.   
##  3 Mercury Zephyr      20.8   3.07         6 U.S.   
##  4 Fiat Strada         37.3   2.13         4 Italy  
##  5 Peugeot 694 SL      16.2   3.41         6 France 
##  6 VW Rabbit           31.9   1.92         4 Germany
##  7 Plymouth Horizon    34.2   2.2          4 U.S.   
##  8 Mazda GLC           34.1   1.98         4 Japan  
##  9 Buick Estate Wagon  16.9   4.36         8 U.S.   
## 10 Audi 5000           20.3   2.83         5 Germany
## # ... with 28 more rows
…
