Chapter 21 Vector and matrix algebra | Problems and Solutions in Applied Statistics
…
Copy what you did before:

my_url <- "http://ritsokiguess.site/datafiles/heightfoot.csv"
hf <- read_csv(my_url)

## 
## ── Column specification ──────────────────────────────────────────────────────────────────────────────────────────────────────────────────────────────────────────────────────────────────────
## cols(
##   height = col_double(),
##   foot = col_double()
## )

hf

## # A tibble: 33 x 2
##    height  foot
##     <dbl> <dbl>
##  1   66.5  27  
##  2   73.5  29  
##  3   70    25.5
##  4   71    27.9
##  5   73    27  
##  6   71    26  
##  7   71    29  
##  8   69.5  27  
##  9   73    29  
## 10   71    27  
## # … with 23 more rows
…
