Chapter 5 Working with dataframes | Problems and Solutions in Applied Statistics
…
jays

## # A tibble: 25 x 21
##      row  game date            box      team  venue opp   result  runs Oppruns innings wl    position gb    winner    loser  save     `game time` Daynight attendance streak
##    <dbl> <dbl> <chr>           <chr>    <chr> <lgl> <chr> <chr>  <dbl>   <dbl>   <dbl> <chr>    <dbl> <chr> <chr>     <chr>  <chr>    <time>      <chr>         <dbl> <chr> 
##  1    82     7 Monday, Apr 13  boxscore TOR   NA    TBR   L          1       2      NA 4-3          2 1     Odorizzi  Dickey Boxberg… 02:30       N             48414 -     
##  2    83     8 Tuesday, Apr 14 boxscore TOR   NA    TBR   L          2       3      NA 4-4          3 2     Geltz     Castro Jepsen   03:06       N             17264 --    
##  3    84     9 Wednesday, Apr… boxscore TOR   NA    TBR   W         12       7      NA 5-4          2 1     Buehrle   Ramir… <NA>     03:02       N             15086 +     
##  4    85    10 Thursday, Apr … boxscore TOR   NA    TBR   L          2       4      NA 5-5          4 1.5   Archer    Sanch… Boxberg… 03:00       N             14433 -     
##  5    86    11 Friday, Apr 17  boxscore TOR   NA    ATL   L          7       8      NA 5-6          4 2.5   Martin    Cecil  Grilli   03:09       N             21397 --    
##  6    87    12 Saturday, Apr … boxscore TOR   NA    ATL   W-wo       6       5      10 6-6          3 1.5   Cecil     Marim… <NA>     02:41       D             34743 +     
##  7    88    13 Sunday, Apr 19  boxscore TOR   NA    ATL   L          2       5      NA 6-7          4 1.5   Miller    Norris Grilli   02:41       D             44794 -     
##  8    89    14 Tuesday, Apr 21 boxscore TOR   NA    BAL   W         13       6      NA 7-7          2 2     Buehrle   Norris <NA>     02:53       N             14184 +     
##  9    90    15 Wednesday, Apr… boxscore TOR   NA    BAL   W          4       2      NA 8-7          2 1     Sanchez   Jimen… Castro   02:36       N             15606 ++    
## 10    91    16 Thursday, Apr … boxscore TOR   NA    BAL   W          7       6      NA 9-7          1 Tied  Hutchison Tillm… Castro   02:36       N             18581 +++   
## # … with 15 more rows
…
## 
## ── Column specification ──────────────────────────────────────────────────────────────────────────────────────────────────────────────────────────────────────────────────────────────────────
## cols(
##   car = col_character(),
##   MPG = col_double(),
##   weight = col_double(),
##   cylinders = col_double(),
##   hp = col_double(),
##   country = col_character()
## )

cars

## # A tibble: 38 x 6
##    car                  MPG weight cylinders    hp country
##    <chr>              <dbl>  <dbl>     <dbl> <dbl> <chr>  
##  1 Buick Skylark       28.4   2.67         4    90 U.S.   
##  2 Dodge Omni          30.9   2.23         4    75 U.S.   
##  3 Mercury Zephyr      20.8   3.07         6    85 U.S.   
##  4 Fiat Strada         37.3   2.13         4    69 Italy  
##  5 Peugeot 694 SL      16.2   3.41         6   133 France 
##  6 VW Rabbit           31.9   1.92         4    71 Germany
##  7 Plymouth Horizon    34.2   2.2          4    70 U.S.   
##  8 Mazda GLC           34.1   1.98         4    65 Japan  
##  9 Buick Estate Wagon  16.9   4.36         8   155 U.S.   
## 10 Audi 5000           20.3   2.83         5   103 Germany
## # … with 28 more rows

\(\blacksquare\)

Display only the car names and the countries they come from.

Solution

cars %>% select(car, country)

## # A tibble: 38 x 2
##    car                country
##    <chr>              <chr>  
##  1 Buick Skylark      U.S.   
##  2 Dodge Omni         U.S.   
##  3 Mercury Zephyr     U.S.   
##  4 Fiat Strada        Italy  
##  5 Peugeot 694 SL     France 
##  6 VW Rabbit          Germany
##  7 Plymouth Horizon   U.S.   
##  8 Mazda GLC          Japan  
##  9 Buick Estate Wagon U.S.   
## 10 Audi 5000          Germany
## # … with 28 more rows

This almost works, but not quite:

cars %>% select(starts_with("c"))

## # A tibble: 38 x 3
##    car                cylinders country
##    <chr>                  <dbl> <chr>  
##  1 Buick Skylark              4 U.S.   
##  2 Dodge Omni                 4 U.S.   
##  3 Mercury Zephyr             6 U.S.   
##  4 Fiat Strada                4 Italy  
##  5 Peugeot 694 SL             6 France 
##  6 VW Rabbit                  4 Germany
##  7 Plymouth Horizon           4 U.S.   
##  8 Mazda GLC                  4 Japan  
##  9 Buick Estate Wagon         8 U.S.   
## 10 Audi 5000                  5 Germany
## # … with 28 more rows

It gets all the columns that start with c, which
includes cylinders as well.

\(\blacksquare\)

Display everything except horsepower:

Solution

Naming what you don’t want is sometimes easier:

cars %>% select(-hp)

## # A tibble: 38 x 5
##    car                  MPG weight cylinders country
##    <chr>              <dbl>  <dbl>     <dbl> <chr>  
##  1 Buick Skylark       28.4   2.67         4 U.S.   
##  2 Dodge Omni          30.9   2.23         4 U.S.   
##  3 Mercury Zephyr      20.8   3.07         6 U.S.   
##  4 Fiat Strada         37.3   2.13         4 Italy  
##  5 Peugeot 694 SL      16.2   3.41         6 France 
##  6 VW Rabbit           31.9   1.92         4 Germany
##  7 Plymouth Horizon    34.2   2.2          4 U.S.   
##  8 Mazda GLC           34.1   1.98         4 Japan  
##  9 Buick Estate Wagon  16.9   4.36         8 U.S.   
## 10 Audi 5000           20.3   2.83         5 Germany
## # … with 28 more rows
…
my_url <- "http://ritsokiguess.site/datafiles/dolphins.csv"
dolphins <- read_csv(my_url)

## 
## ── Column specification ──────────────────────────────────────────────────────────────────────────────────────────────────────────────────────────────────────────────────────────────────────
## cols(
##   mercury = col_double(),
##   age = col_double(),
##   sex = col_character()
## )

dolphins

## # A tibble: 45 x 3
##    mercury   age sex  
##      <dbl> <dbl> <chr>
##  1    1.7   0.21 male 
##  2    1.72  0.33 male 
##  3    8.8   2    male 
##  4    5.9   2.2  male 
##  5  101     8.5  male 
##  6   85.4  11.5  male 
##  7  118    11.5  male 
##  8  183    13.5  male 
##  9  168    16.5  male 
## 10  218    16.5  male 
## # … with 35 more rows

There are indeed 45 dolphins, with the males listed first and the females listed at the end (as you can check).

\(\blacksquare\)

Display only the two columns mercury and sex.

Solution

Two ways to do it: either list both columns:

dolphins %>% select(mercury, sex)

## # A tibble: 45 x 2
##    mercury sex  
##      <dbl> <chr>
##  1    1.7  male 
##  2    1.72 male 
##  3    8.8  male 
##  4    5.9  male 
##  5  101    male 
##  6   85.4  male 
##  7  118    male 
##  8  183    male 
##  9  168    male 
## 10  218    male 
## # … with 35 more rows

or say “everything but age”:

dolphins %>% select(-age)

## # A tibble: 45 x 2
##    mercury sex  
##      <dbl> <chr>
##  1    1.7  male 
##  2    1.72 male 
##  3    8.8  male 
##  4    5.9  male 
##  5  101    male 
##  6   85.4  male 
##  7  118    male 
##  8  183    male 
##  9  168    male 
## 10  218    male 
## # … with 35 more rows
…
Note that mercury:sex won’t do it, because that will get you age as well (“mercury through sex”).

\(\blacksquare\)

Display all the columns whose names have exactly three characters, without naming any columns.

Solution

Evidently this is age and sex. We are selecting columns on the basis of their names, so we will need a select-helper. The one that works is matches with a regular expression. This is like the one in the lecture notes where we selected height and weight by selecting columns whose names had two letters and the second one was “t”. In this case, the three letters can be anything, so it’s three dots between the start of text and end of text:

dolphins %>% 
select(matches("^...$"))

## # A tibble: 45 x 2
##      age sex  
##    <dbl> <chr>
##  1  0.21 male 
##  2  0.33 male 
##  3  2    male 
##  4  2.2  male 
##  5  8.5  male 
##  6 11.5  male 
##  7 11.5  male 
##  8 13.5  male 
##  9 16.5  male 
## 10 16.5  male 
## # … with 35 more rows
…
## # A tibble: 2 x 2
##   sex        m
##   <chr>  <dbl>
## 1 female  288.
## 2 male    316.

The male means are slightly bigger in the two cases, though the difference between the sexes is small compared to the age effect. (I ran a regression predicting mercury concentration from age and sex, and the sex effect wasn’t even significant.)

A second extra: what if you wanted to divide age up into age groups for comparison of mercury concentration? This isn’t always a good idea (for reasons I get into below), but if you want to do it, cut is your friend:

dolphins %>% mutate(age_group = cut(age, breaks=c(0,15,25,60))) -> dolphinsx
dolphinsx

## # A tibble: 45 x 4
##    mercury   age sex   age_group
##      <dbl> <dbl> <chr> <fct>    
##  1    1.7   0.21 male  (0,15]   
##  2    1.72  0.33 male  (0,15]   
##  3    8.8   2    male  (0,15]   
##  4    5.9   2.2  male  (0,15]   
##  5  101     8.5  male  (0,15]   
##  6   85.4  11.5  male  (0,15]   
##  7  118    11.5  male  (0,15]   
##  8  183    13.5  male  (0,15]   
##  9  168    16.5  male  (15,25]  
## 10  218    16.5  male  (15,25]  
## # … with 35 more rows
…
